H|44021192|DTINVHUB005|14-NOV-16|Upload|00:00:06.525|294|0
D|Supplier Interface|102724|คุณศุภาภรณ์ วุฒิสิทธิกุลกิจ|DTN-TAX|Immediately|15-NOV-16|14-NOV-16|00:00:06.458|Completed
D|Supplier Interface|103216|คุณสุธิวา วิทยกมล|CELLSITE|Immediately|15-NOV-16|14-NOV-16|00:00:06.458|Completed
D|Supplier Interface|103216|คุณสุธิวา วิทยกมล|CELLSITE-HO|Immediately|15-NOV-16|14-NOV-16|00:00:06.458|Completed
D|Supplier Interface|103216|คุณสุธิวา วิทยกมล|CELLSITE-SMT|Immediately|15-NOV-16|14-NOV-16|00:00:06.459|Completed
D|Supplier Interface|103216|คุณสุธิวา วิทยกมล|DTN-CELLSITE|Immediately|15-NOV-16|14-NOV-16|00:00:06.459|Completed
D|Supplier Interface|107124|นายวิเชียร ศรีจันทร์|DTAC-TAX|30 Days|15-NOV-16|14-NOV-16|00:00:06.459|Completed
D|Supplier Interface|107124|นายวิเชียร ศรีจันทร์|DTN-CELLSITE|30|15-NOV-16|14-NOV-16|00:00:06.459|Completed
D|Supplier Interface|107124|นายวิเชียร ศรีจันทร์|DTN-TAX|30 Days|15-NOV-16|14-NOV-16|00:00:06.459|Completed
D|Supplier Interface|107124|นายวิเชียร ศรีจันทร์|E|30|15-NOV-16|14-NOV-16|00:00:06.460|Completed
D|Supplier Interface|107124|นายวิเชียร ศรีจันทร์|E-1|30|15-NOV-16|14-NOV-16|00:00:06.460|Completed
D|Supplier Interface|107124|นายวิเชียร ศรีจันทร์|HO|Immediately|15-NOV-16|14-NOV-16|00:00:06.460|Completed
D|Supplier Interface|123964|คุณวันทนีย์ มุนีสินชัย|CELLSITE|Immediately|15-NOV-16|14-NOV-16|00:00:06.460|Completed
D|Supplier Interface|123964|คุณวันทนีย์ มุนีสินชัย|DTN-CELLSITE|Immediately|15-NOV-16|14-NOV-16|00:00:06.460|Completed
D|Supplier Interface|123964|คุณวันทนีย์ มุนีสินชัย|HO|Immediately|15-NOV-16|14-NOV-16|00:00:06.460|Completed
D|Supplier Interface|124412|บริษัท เอไอเอ จำกัด|DTN-CELLSITE|15|15-NOV-16|14-NOV-16|00:00:06.461|Completed
D|Supplier Interface|125158|ห้างหุ้นส่วนสามัญ กาญจนศิลป์|CELLSITE|Immediately|15-NOV-16|14-NOV-16|00:00:06.461|Completed
D|Supplier Interface|125158|ห้างหุ้นส่วนสามัญ กาญจนศิลป์|DTN-CELLSITE|15|15-NOV-16|14-NOV-16|00:00:06.461|Completed
D|Supplier Interface|125158|ห้างหุ้นส่วนสามัญ กาญจนศิลป์|HO|Immediately|15-NOV-16|14-NOV-16|00:00:06.461|Completed
D|Supplier Interface|166839|คุณทัศนะ เรียบสูงเนิน|OFFICE|15|15-NOV-16|14-NOV-16|00:00:06.461|Completed
D|Supplier Interface|167129|นายสุวิทย์ วิบูลอัด|OFFICE|15|15-NOV-16|14-NOV-16|00:00:06.462|Completed
D|Supplier Interface|167129|นายสุวิทย์ วิบูลอัด|OFFICE|15|15-NOV-16|14-NOV-16|00:00:06.462|Completed
D|Supplier Interface|167132|คุณสมภพ รัตนสุต|OFFICE|15|15-NOV-16|14-NOV-16|00:00:06.462|Completed
D|Supplier Interface|167161|คุณเฉลิมชัย จงมั่นจิตร|OFFICE|15|15-NOV-16|14-NOV-16|00:00:06.462|Completed
D|Supplier Interface|167161|คุณเฉลิมชัย จงมั่นจิตร|OFFICE1|15|15-NOV-16|14-NOV-16|00:00:06.462|Completed
D|Supplier Interface|167173|คุณบุญรุ่ง พักแก้ว|OFFICE|15|15-NOV-16|14-NOV-16|00:00:06.462|Completed
D|Supplier Interface|167207|นายสว่างเนตร ศักดิ์ตั้งเจริญ|OFFICE|15|15-NOV-16|14-NOV-16|00:00:06.463|Completed
D|Supplier Interface|167240|นายอาทิตย์ พงษ์เสือ|OFFICE|15|15-NOV-16|14-NOV-16|00:00:06.463|Completed
D|Supplier Interface|167567|นายสมชาย ภูคะฮาด|HO|7|15-NOV-16|14-NOV-16|00:00:06.463|Completed
D|Supplier Interface|167567|นายสมชาย ภูคะฮาด|OFFICE|15|15-NOV-16|14-NOV-16|00:00:06.463|Completed
D|Supplier Interface|167932|นางสาวกรวรรณ สุขสมพืช|OFFICE|15|15-NOV-16|14-NOV-16|00:00:06.463|Completed
D|Supplier Interface|167958|นางสาววารินทร์ธร อิสรีย์วิกุล|OFFICE|15|15-NOV-16|14-NOV-16|00:00:06.463|Completed
D|Supplier Interface|167958|นางสาววารินทร์ธร อิสรีย์วิกุล|OFFICE|Immediately|15-NOV-16|14-NOV-16|00:00:06.464|Completed
D|Supplier Interface|168282|BUTSAPAMAI, PONGPANIT|OFFICE|15|15-NOV-16|14-NOV-16|00:00:06.464|Completed
D|Supplier Interface|168587|นายธวัชชัย วงษ์หอมทอง|OFFICE|15|15-NOV-16|14-NOV-16|00:00:06.464|Completed
D|Supplier Interface|168917|นายปรัชญ์กฤช โสภาคดิษฐ์|OFFICE|15|15-NOV-16|14-NOV-16|00:00:06.464|Completed
D|Supplier Interface|168926|นายสันติ ไผ่สนจำลองศรี|OFFICE|15|15-NOV-16|14-NOV-16|00:00:06.464|Completed
D|Supplier Interface|168998|นายบุญสม โชคท่าพระ|OFFICE|15|15-NOV-16|14-NOV-16|00:00:06.465|Completed
D|Supplier Interface|169338|นายจักรกฤษณ์ พุทธิลิมปนานนท์|OFFICE|15|15-NOV-16|14-NOV-16|00:00:06.465|Completed
D|Supplier Interface|169405|นายนครินทร์ กฤษณกาญจน์|OFFICE|15|15-NOV-16|14-NOV-16|00:00:06.465|Completed
D|Supplier Interface|169405|นายนครินทร์ กฤษณกาญจน์|OFFICE|Immediately|15-NOV-16|14-NOV-16|00:00:06.465|Completed
D|Supplier Interface|169422|นางสาวชนิตา โรหิตสุข|OFFICE|15|15-NOV-16|14-NOV-16|00:00:06.465|Completed
D|Supplier Interface|169422|นางสาวชนิตา โรหิตสุข|OFFICE|Immediately|15-NOV-16|14-NOV-16|00:00:06.465|Completed
D|Supplier Interface|169506|นางสาวสุภาภรณ์ อัศวไมตรี|OFFICE|15|15-NOV-16|14-NOV-16|00:00:06.466|Completed
D|Supplier Interface|169566|นางสาวศรีอมร ลี้สุวรรณกุล|OFFICE|15|15-NOV-16|14-NOV-16|00:00:06.466|Completed
D|Supplier Interface|169566|นางสาวศรีอมร ลี้สุวรรณกุล|P-4592275034|Immediately|15-NOV-16|14-NOV-16|00:00:06.466|Completed
D|Supplier Interface|169684|นางสาวสุนีย์ แสงสูง|OFFICE|15|15-NOV-16|14-NOV-16|00:00:06.466|Completed
D|Supplier Interface|169695|นายนิคม ขำกิ่ง|OFFICE|15|15-NOV-16|14-NOV-16|00:00:06.466|Completed
D|Supplier Interface|169707|คุณสุจินดา  ชัยวัน|HO-4609100366|Immediately|15-NOV-16|14-NOV-16|00:00:06.466|Completed
D|Supplier Interface|169707|คุณสุจินดา  ชัยวัน|OFFICE|15|15-NOV-16|14-NOV-16|00:00:06.467|Completed
D|Supplier Interface|169707|คุณสุจินดา  ชัยวัน|P-459-2-27333-3|7|15-NOV-16|14-NOV-16|00:00:06.467|Completed
D|Supplier Interface|170312|KORAWAN  THAMRONGPOLTHEERAPAB|OFFICE|15|15-NOV-16|14-NOV-16|00:00:06.467|Completed
D|Supplier Interface|170358|นางสาวกลิ่นขจร ชมรักษ์|OFFICE|15|15-NOV-16|14-NOV-16|00:00:06.467|Completed
D|Supplier Interface|170449|นางสาวสุรีรัตน์ สุวถาวรสกุล|HO|15|15-NOV-16|14-NOV-16|00:00:06.467|Completed
D|Supplier Interface|170449|นางสาวสุรีรัตน์ สุวถาวรสกุล|HO|15|15-NOV-16|14-NOV-16|00:00:06.468|Completed
D|Supplier Interface|170449|นางสาวสุรีรัตน์ สุวถาวรสกุล|OFFICE|15|15-NOV-16|14-NOV-16|00:00:06.468|Completed
D|Supplier Interface|170550|นายเวชยุทธ แสงประสิทธิ์|DTAC-W|15|15-NOV-16|14-NOV-16|00:00:06.468|Completed
D|Supplier Interface|170550|นายเวชยุทธ แสงประสิทธิ์|OFFICE|15|15-NOV-16|14-NOV-16|00:00:06.468|Completed
D|Supplier Interface|170550|นายเวชยุทธ แสงประสิทธิ์|OFFICE|15|15-NOV-16|14-NOV-16|00:00:06.468|Completed
D|Supplier Interface|170584|นายธีรมิตร สุวรรณธรรมา|OFFICE|15|15-NOV-16|14-NOV-16|00:00:06.468|Completed
D|Supplier Interface|171181|นางสาวฉัตร์รวี ศักดิ์รัฐนนท์|OFFICE|15|15-NOV-16|14-NOV-16|00:00:06.469|Completed
D|Supplier Interface|100726|บริษัท ทีโอที จำกัด (มหาชน)|DTN-CELLSITE|15|15-NOV-16|14-NOV-16|00:00:06.436|Completed
D|Supplier Interface|171863|นิติบุคคลอาคารชุด สกุลไทย สุรวงศ์ ทาวเวอร์|CELLSITE|Immediately|15-NOV-16|14-NOV-16|00:00:06.469|Completed
D|Supplier Interface|171863|นิติบุคคลอาคารชุด สกุลไทย สุรวงศ์ ทาวเวอร์|DTN-CELLSITE|15|15-NOV-16|14-NOV-16|00:00:06.469|Completed
D|Supplier Interface|171863|นิติบุคคลอาคารชุด สกุลไทย สุรวงศ์ ทาวเวอร์|HO|Immediately|15-NOV-16|14-NOV-16|00:00:06.469|Completed
D|Supplier Interface|173448|บริษัท แอล แอนด์ เอช พร็อพเพอร์ตี้ จำกัด|CELLSITE|Immediately|15-NOV-16|14-NOV-16|00:00:06.476|Completed
D|Supplier Interface|173448|บริษัท แอล แอนด์ เอช พร็อพเพอร์ตี้ จำกัด|CELLSITE-HO|Immediately|15-NOV-16|14-NOV-16|00:00:06.476|Completed
D|Supplier Interface|173448|บริษัท แอล แอนด์ เอช พร็อพเพอร์ตี้ จำกัด|DTN-CELLSITE|Immediately|15-NOV-16|14-NOV-16|00:00:06.476|Completed
D|Supplier Interface|173448|บริษัท แอล แอนด์ เอช พร็อพเพอร์ตี้ จำกัด|HO|Immediately|15-NOV-16|14-NOV-16|00:00:06.477|Completed
D|Supplier Interface|173448|บริษัท แอล แอนด์ เอช พร็อพเพอร์ตี้ จำกัด|HOA|Immediately|15-NOV-16|14-NOV-16|00:00:06.477|Completed
D|Supplier Interface|174628|บริษัท รามาแลนด์ ดีเวลอพเมนท์ จำกัด|DTN-CELLSITE|15|15-NOV-16|14-NOV-16|00:00:06.477|Completed
D|Supplier Interface|176655|คุณพนิดา ลิ้มสุชัยวัฒน์|CELLSITE|Immediately|15-NOV-16|14-NOV-16|00:00:06.477|Completed
D|Supplier Interface|176655|คุณพนิดา ลิ้มสุชัยวัฒน์|CELLSITE-SMT|Immediately|15-NOV-16|14-NOV-16|00:00:06.478|Completed
D|Supplier Interface|176655|คุณพนิดา ลิ้มสุชัยวัฒน์|CELLSITE-TAX|30 Days|15-NOV-16|14-NOV-16|00:00:06.478|Completed
D|Supplier Interface|176655|คุณพนิดา ลิ้มสุชัยวัฒน์|DTN-CELLSITE|Immediately|15-NOV-16|14-NOV-16|00:00:06.478|Completed
D|Supplier Interface|176655|คุณพนิดา ลิ้มสุชัยวัฒน์|HO|Immediately|15-NOV-16|14-NOV-16|00:00:06.478|Completed
D|Supplier Interface|179409|RAWEEPUN, PITAKCHATIWONG|HO|Immediately|15-NOV-16|14-NOV-16|00:00:06.478|Completed
D|Supplier Interface|179409|RAWEEPUN, PITAKCHATIWONG|OFFICE|15|15-NOV-16|14-NOV-16|00:00:06.478|Completed
D|Supplier Interface|180523|นิติบุคคลอาคารชุด เดอะ วอเตอร์ฟอร์ด ไดมอนด์ สุขุมวิท 30/1|HO|15|15-NOV-16|14-NOV-16|00:00:06.479|Completed
D|Supplier Interface|181136|คุณอัญชลีพร ปุณโณทก|HO|Immediately|15-NOV-16|14-NOV-16|00:00:06.479|Completed
D|Supplier Interface|181136|คุณอัญชลีพร ปุณโณทก|OFFICE|15|15-NOV-16|14-NOV-16|00:00:06.479|Completed
D|Supplier Interface|181195|บริษัท กรีนเน็ต 1282 จำกัด|DTAC-N|60|15-NOV-16|14-NOV-16|00:00:06.479|Completed
D|Supplier Interface|181195|บริษัท กรีนเน็ต 1282 จำกัด|HO|60|15-NOV-16|14-NOV-16|00:00:06.479|Completed
D|Supplier Interface|181741|คุณศรุต  วานิชพันธุ์|HO|15|15-NOV-16|14-NOV-16|00:00:06.480|Completed
D|Supplier Interface|181741|คุณศรุต  วานิชพันธุ์|HOA|Immediately|15-NOV-16|14-NOV-16|00:00:06.480|Completed
D|Supplier Interface|181741|คุณศรุต  วานิชพันธุ์|OFFICE|15|15-NOV-16|14-NOV-16|00:00:06.480|Completed
D|Supplier Interface|183633|ADITHEP, SUKPRASERT|OFFICE|15|15-NOV-16|14-NOV-16|00:00:06.480|Completed
D|Supplier Interface|185143|บริษัท ฮิต แมน จำกัด|DTAC-N|30|15-NOV-16|14-NOV-16|00:00:06.480|Completed
D|Supplier Interface|185143|บริษัท ฮิต แมน จำกัด|HO|30|15-NOV-16|14-NOV-16|00:00:06.481|Completed
D|Supplier Interface|186662|บริษัท ยิ่งใหญ่ เซ็นเตอร์ จำกัด|DTN-CELLSITE|15|15-NOV-16|14-NOV-16|00:00:06.481|Completed
D|Supplier Interface|192021|บริษัท โฟโนไรทส์ (ไทยแลนด์) จำกัด|DTAC-N|30|15-NOV-16|14-NOV-16|00:00:06.481|Completed
D|Supplier Interface|192021|บริษัท โฟโนไรทส์ (ไทยแลนด์) จำกัด|HO|30|15-NOV-16|14-NOV-16|00:00:06.481|Completed
D|Supplier Interface|197004|THANTIP, PERMSUB|OFFICE|15|15-NOV-16|14-NOV-16|00:00:06.482|Completed
D|Supplier Interface|197004|THANTIP, PERMSUB|OFFICE|15|15-NOV-16|14-NOV-16|00:00:06.482|Completed
D|Supplier Interface|199838|JARUNEE, PONGSATHORN|HO.-4603448211|7|15-NOV-16|14-NOV-16|00:00:06.482|Completed
D|Supplier Interface|199838|JARUNEE, PONGSATHORN|OFFICE|15|15-NOV-16|14-NOV-16|00:00:06.482|Completed
D|Supplier Interface|201057|BOONWADEE, INTRAPRASART|HO-4603820502|Immediately|15-NOV-16|14-NOV-16|00:00:06.482|Completed
D|Supplier Interface|201057|BOONWADEE, INTRAPRASART|OFFICE|15|15-NOV-16|14-NOV-16|00:00:06.483|Completed
D|Supplier Interface|201057|BOONWADEE, INTRAPRASART|OFFICE|15|15-NOV-16|14-NOV-16|00:00:06.483|Completed
D|Supplier Interface|201831|คุณณตพล หาญตระกูลยืนยง|CELLSITE|Immediately|15-NOV-16|14-NOV-16|00:00:06.483|Completed
D|Supplier Interface|201831|คุณณตพล หาญตระกูลยืนยง|CELLSITE-SMT|Immediately|15-NOV-16|14-NOV-16|00:00:06.483|Completed
D|Supplier Interface|201831|คุณณตพล หาญตระกูลยืนยง|DTN-CELLSITE|Immediately|15-NOV-16|14-NOV-16|00:00:06.483|Completed
D|Supplier Interface|201831|คุณณตพล หาญตระกูลยืนยง|HO|Immediately|15-NOV-16|14-NOV-16|00:00:06.484|Completed
D|Supplier Interface|202908|KAMONKAN, LAKSANA|OFFICE|15|15-NOV-16|14-NOV-16|00:00:06.484|Completed
D|Supplier Interface|204323|คุณธีราภัทร์ ทะรักษา|OFFICE|Immediately|15-NOV-16|14-NOV-16|00:00:06.484|Completed
D|Supplier Interface|205684|บริษัท ไอคอนนิค คลับบลิ่ง สตูดิโอ จำกัด|DTAC-N|30|15-NOV-16|14-NOV-16|00:00:06.484|Completed
D|Supplier Interface|205684|บริษัท ไอคอนนิค คลับบลิ่ง สตูดิโอ จำกัด|HO|30|15-NOV-16|14-NOV-16|00:00:06.484|Completed
D|Supplier Interface|206057|WITTHAYA, VIBOONVITTAYANAN|OFFICE|15|15-NOV-16|14-NOV-16|00:00:06.484|Completed
D|Supplier Interface|206662|TAWEESAK, SAKSRISANGUAN|OFFICE|15|15-NOV-16|14-NOV-16|00:00:06.485|Completed
D|Supplier Interface|208510|CHADANAT, NILSAKHA|OFFICE|15|15-NOV-16|14-NOV-16|00:00:06.485|Completed
D|Supplier Interface|208510|CHADANAT, NILSAKHA|OFFICE|15|15-NOV-16|14-NOV-16|00:00:06.485|Completed
D|Supplier Interface|208571|คุณสุรศักดิ์ ตาบสุวรรณ|CELLSITE|Immediately|15-NOV-16|14-NOV-16|00:00:06.485|Completed
D|Supplier Interface|208571|คุณสุรศักดิ์ ตาบสุวรรณ|CELLSITE-HO|Immediately|15-NOV-16|14-NOV-16|00:00:06.485|Completed
D|Supplier Interface|208571|คุณสุรศักดิ์ ตาบสุวรรณ|CELLSITE-SMT|Immediately|15-NOV-16|14-NOV-16|00:00:06.485|Completed
D|Supplier Interface|208571|คุณสุรศักดิ์ ตาบสุวรรณ|DTN-CELLSITE|Immediately|15-NOV-16|14-NOV-16|00:00:06.486|Completed
D|Supplier Interface|209437|SASIKARN, VIRAVAN|OFFICE|15|15-NOV-16|14-NOV-16|00:00:06.486|Completed
D|Supplier Interface|209438|TEERANAI, PHUKIAT|OFFICE|15|15-NOV-16|14-NOV-16|00:00:06.486|Completed
D|Supplier Interface|209504|POTCHAKORN, SEESON|OFFICE|15|15-NOV-16|14-NOV-16|00:00:06.486|Completed
D|Supplier Interface|209538|SUNISA SIVARAKSA|OFFICE|15|15-NOV-16|14-NOV-16|00:00:06.486|Completed
D|Supplier Interface|210399|MANIDA, THIENSIRIPIPAT|HOA|Immediately|15-NOV-16|14-NOV-16|00:00:06.487|Completed
D|Supplier Interface|210399|MANIDA, THIENSIRIPIPAT|OFFICE|15|15-NOV-16|14-NOV-16|00:00:06.487|Completed
D|Supplier Interface|218782|บริษัท โกลเด้น อาวล์ เมเนจเม้นท์ จำกัด|DTAC-N|30|15-NOV-16|14-NOV-16|00:00:06.487|Completed
D|Supplier Interface|218782|บริษัท โกลเด้น อาวล์ เมเนจเม้นท์ จำกัด|HO|30|15-NOV-16|14-NOV-16|00:00:06.487|Completed
D|Supplier Interface|221095|WUTINON, TRISRISAK|OFFICE|15|15-NOV-16|14-NOV-16|00:00:06.487|Completed
D|Supplier Interface|221469|คุณจันทรา กาญจนปัญญาคม|CELLSITE|Immediately|15-NOV-16|14-NOV-16|00:00:06.487|Completed
D|Supplier Interface|221469|คุณจันทรา กาญจนปัญญาคม|CELLSITE-HO|Immediately|15-NOV-16|14-NOV-16|00:00:06.488|Completed
D|Supplier Interface|221469|คุณจันทรา กาญจนปัญญาคม|CELLSITE-SMT|Immediately|15-NOV-16|14-NOV-16|00:00:06.490|Completed
D|Supplier Interface|221469|คุณจันทรา กาญจนปัญญาคม|CELLSITE-TAX|30 Days|15-NOV-16|14-NOV-16|00:00:06.491|Completed
D|Supplier Interface|221469|คุณจันทรา กาญจนปัญญาคม|DTN-CELLSITE|Immediately|15-NOV-16|14-NOV-16|00:00:06.491|Completed
D|Supplier Interface|221671|WARAKKAPON, KESSUWAN|OFFICE|15|15-NOV-16|14-NOV-16|00:00:06.491|Completed
D|Supplier Interface|222745|NATTAPORN, NOIBUMNET|OFFICE|15|15-NOV-16|14-NOV-16|00:00:06.491|Completed
D|Supplier Interface|227504|คุณจารุมาศ สุระเสียง|OFFICE|15|15-NOV-16|14-NOV-16|00:00:06.491|Completed
D|Supplier Interface|227504|คุณจารุมาศ สุระเสียง|OFFICE|7|15-NOV-16|14-NOV-16|00:00:06.491|Completed
D|Supplier Interface|228639|NAPAK, CHUMPROM|OFFICE|15|15-NOV-16|14-NOV-16|00:00:06.492|Completed
D|Supplier Interface|229839|PUTTHINUN, SAWASRATANATHON|OFFICE|15|15-NOV-16|14-NOV-16|00:00:06.492|Completed
D|Supplier Interface|229844|PRUKSA, VASANTAKITKUMJORN|OFFICE|15|15-NOV-16|14-NOV-16|00:00:06.492|Completed
D|Supplier Interface|229844|PRUKSA, VASANTAKITKUMJORN|OFFICE|15|15-NOV-16|14-NOV-16|00:00:06.492|Completed
D|Supplier Interface|236940|คุณวิชชา ขำเจริญ|DTN-CELLSITE|15|15-NOV-16|14-NOV-16|00:00:06.492|Completed
D|Supplier Interface|237114|CHANCHAI, CHAMCHOY|OFFICE|15|15-NOV-16|14-NOV-16|00:00:06.493|Completed
D|Supplier Interface|239845|บริษัท การีนา ออนไลน์ (ประเทศไทย) จำกัด|HO|60|15-NOV-16|14-NOV-16|00:00:06.493|Completed
D|Supplier Interface|240653|นางปวีณา  คัคนะคุปต์ (ผู้รับความยินยอม)|DTN-CELLSITE|15|15-NOV-16|14-NOV-16|00:00:06.493|Completed
D|Supplier Interface|242712|PAWINEE, KANKRATHOK|OFFICE|15|15-NOV-16|14-NOV-16|00:00:06.493|Completed
D|Supplier Interface|243764|CHUTIKARN, LOHA|OFFICE|15|15-NOV-16|14-NOV-16|00:00:06.493|Completed
D|Supplier Interface|243764|CHUTIKARN, LOHA|OFFICE|15|15-NOV-16|14-NOV-16|00:00:06.493|Completed
D|Supplier Interface|246391|KOWIN, KLINGIN|OFFICE|15|15-NOV-16|14-NOV-16|00:00:06.494|Completed
D|Supplier Interface|250099|THITIMA, KRONGSUK|OFFICE|15|15-NOV-16|14-NOV-16|00:00:06.494|Completed
D|Supplier Interface|252218|นายตรีปัตปาลซิงห์  สัจเดย์ (ผู้รับความยินยอม)|DTN-CELLSITE|15|15-NOV-16|14-NOV-16|00:00:06.494|Completed
D|Supplier Interface|256931|นายสุรกานต์  กาญจนพิบูลย์ ( ผู้รับความยินยอม )|DTN-CELLSITE|15|15-NOV-16|14-NOV-16|00:00:06.494|Completed
D|Supplier Interface|258268|PHUTTHAPHOL, DOKPHIKUL|OFFICE|15|15-NOV-16|14-NOV-16|00:00:06.494|Completed
D|Supplier Interface|263598|PREEDA, AUYJINDA|OFFICE|15|15-NOV-16|14-NOV-16|00:00:06.494|Completed
D|Supplier Interface|277038|วันเพ็ญ ชูแผ้ว|HO2|Immediately|15-NOV-16|14-NOV-16|00:00:06.495|Completed
D|Supplier Interface|277038|วันเพ็ญ ชูแผ้ว|N02|Immediately|15-NOV-16|14-NOV-16|00:00:06.495|Completed
D|Supplier Interface|277038|วันเพ็ญ ชูแผ้ว|P02|Immediately|15-NOV-16|14-NOV-16|00:00:06.495|Completed
D|Supplier Interface|280343|NARUMON, LALITPHONGKAWIN|OFFICE|15|15-NOV-16|14-NOV-16|00:00:06.495|Completed
D|Supplier Interface|281209|ร.อ.ชัชพงค์ สุขายะ|DTN-CELLSITE|30|15-NOV-16|14-NOV-16|00:00:06.495|Completed
D|Supplier Interface|285910|ห้างหุ้นส่วนจำกัด  เอสเอ็มทีวี โฮมอีเล็คทริค|HO|60|15-NOV-16|14-NOV-16|00:00:06.495|Completed
D|Supplier Interface|286585|ATHIKOM, JITTAVANICHPRAPHA|OFFICE|15|15-NOV-16|14-NOV-16|00:00:06.496|Completed
D|Supplier Interface|287516|บริษัท พาโลมาร์ ซิสเต็มส์ จำกัด|HO|60|15-NOV-16|14-NOV-16|00:00:06.496|Completed
D|Supplier Interface|288538|น.ส.นรีกานต์  อรชร |HO2|Immediately|15-NOV-16|14-NOV-16|00:00:06.496|Completed
D|Supplier Interface|288538|น.ส.นรีกานต์  อรชร |N02|Immediately|15-NOV-16|14-NOV-16|00:00:06.496|Completed
D|Supplier Interface|288538|น.ส.นรีกานต์  อรชร |P02|Immediately|15-NOV-16|14-NOV-16|00:00:06.496|Completed
D|Supplier Interface|289480|คุณอรอนงค์   เสนเสนา|HO2|Immediately|15-NOV-16|14-NOV-16|00:00:06.497|Completed
D|Supplier Interface|289480|คุณอรอนงค์   เสนเสนา|N02|Immediately|15-NOV-16|14-NOV-16|00:00:06.497|Completed
D|Supplier Interface|289480|คุณอรอนงค์   เสนเสนา|P02|Immediately|15-NOV-16|14-NOV-16|00:00:06.497|Completed
D|Supplier Interface|289600|บริษัท นิวส์ เน็ตเวิร์ค คอร์ปอเรชั่น จำกัด|DTAC-N|60|15-NOV-16|14-NOV-16|00:00:06.497|Completed
D|Supplier Interface|289600|บริษัท นิวส์ เน็ตเวิร์ค คอร์ปอเรชั่น จำกัด|HO|60|15-NOV-16|14-NOV-16|00:00:06.497|Completed
D|Supplier Interface|290050|66948973976 บุญศรี ฟองลม|HO1|Immediately|15-NOV-16|14-NOV-16|00:00:06.497|Completed
D|Supplier Interface|290050|66948973976 บุญศรี ฟองลม|N01|Immediately|15-NOV-16|14-NOV-16|00:00:06.498|Completed
D|Supplier Interface|290050|66948973976 บุญศรี ฟองลม|P01|Immediately|15-NOV-16|14-NOV-16|00:00:06.498|Completed
D|Supplier Interface|290055|จริยา วงศ์สวัสดิ์|HO2|Immediately|15-NOV-16|14-NOV-16|00:00:06.498|Completed
D|Supplier Interface|290055|จริยา วงศ์สวัสดิ์|N02|Immediately|15-NOV-16|14-NOV-16|00:00:06.498|Completed
D|Supplier Interface|290055|จริยา วงศ์สวัสดิ์|P02|Immediately|15-NOV-16|14-NOV-16|00:00:06.498|Completed
D|Supplier Interface|290067|ปรียาภรณ์   แก้วทอง|HO1|Immediately|15-NOV-16|14-NOV-16|00:00:06.498|Completed
D|Supplier Interface|290067|ปรียาภรณ์   แก้วทอง|N01|Immediately|15-NOV-16|14-NOV-16|00:00:06.499|Completed
D|Supplier Interface|290067|ปรียาภรณ์   แก้วทอง|P01|Immediately|15-NOV-16|14-NOV-16|00:00:06.499|Completed
D|Supplier Interface|290082|สาวิตรี เอี่ยมรอด |HO1|Immediately|15-NOV-16|14-NOV-16|00:00:06.499|Completed
D|Supplier Interface|290082|สาวิตรี เอี่ยมรอด |N01|Immediately|15-NOV-16|14-NOV-16|00:00:06.499|Completed
D|Supplier Interface|290082|สาวิตรี เอี่ยมรอด |P01|Immediately|15-NOV-16|14-NOV-16|00:00:06.499|Completed
D|Supplier Interface|290083|สิริวิมล  สายสงค์|HO2|Immediately|15-NOV-16|14-NOV-16|00:00:06.499|Completed
D|Supplier Interface|290083|สิริวิมล  สายสงค์|N02|Immediately|15-NOV-16|14-NOV-16|00:00:06.500|Completed
D|Supplier Interface|290083|สิริวิมล  สายสงค์|P02|Immediately|15-NOV-16|14-NOV-16|00:00:06.500|Completed
D|Supplier Interface|290087|อนันต์  งามรัมย์|HO1|Immediately|15-NOV-16|14-NOV-16|00:00:06.500|Completed
D|Supplier Interface|290087|อนันต์  งามรัมย์|N01|Immediately|15-NOV-16|14-NOV-16|00:00:06.500|Completed
D|Supplier Interface|290087|อนันต์  งามรัมย์|P01|Immediately|15-NOV-16|14-NOV-16|00:00:06.500|Completed
D|Supplier Interface|290090|เนาวนิตย์  แสงดี|HO1|Immediately|15-NOV-16|14-NOV-16|00:00:06.501|Completed
D|Supplier Interface|290090|เนาวนิตย์  แสงดี|N01|Immediately|15-NOV-16|14-NOV-16|00:00:06.501|Completed
D|Supplier Interface|290090|เนาวนิตย์  แสงดี|P01|Immediately|15-NOV-16|14-NOV-16|00:00:06.501|Completed
D|Supplier Interface|290091|66950032398 นิ่มอนงค์ ลาพัน|HO1|Immediately|15-NOV-16|14-NOV-16|00:00:06.501|Completed
D|Supplier Interface|290091|66950032398 นิ่มอนงค์ ลาพัน|N01|Immediately|15-NOV-16|14-NOV-16|00:00:06.501|Completed
D|Supplier Interface|290091|66950032398 นิ่มอนงค์ ลาพัน|P01|Immediately|15-NOV-16|14-NOV-16|00:00:06.505|Completed
D|Supplier Interface|290092|น.ส.อุดร ไพรสิงขร|DTN-CELLSITE|15|15-NOV-16|14-NOV-16|00:00:06.505|Completed
D|Supplier Interface|290093|นางจันทร์ งั่วลำหิน|DTN-CELLSITE|15|15-NOV-16|14-NOV-16|00:00:06.505|Completed
D|Supplier Interface|290094|นางจำเนียร ขวัญมั่น|DTN-CELLSITE|15|15-NOV-16|14-NOV-16|00:00:06.505|Completed
D|Supplier Interface|290095|นางจิรวรรณ ห่อเพ็ชร์|DTN-CELLSITE|15|15-NOV-16|14-NOV-16|00:00:06.505|Completed
D|Supplier Interface|290096|นางฉ๊ะ  สลาหลง|DTN-CELLSITE|15|15-NOV-16|14-NOV-16|00:00:06.506|Completed
D|Supplier Interface|290097|นางชูศรี  พรหมมาธิ|DTN-CELLSITE|15|15-NOV-16|14-NOV-16|00:00:06.506|Completed
D|Supplier Interface|290098|นางดอกอ้อ เภรา|DTN-CELLSITE|15|15-NOV-16|14-NOV-16|00:00:06.506|Completed
D|Supplier Interface|290099|นางธัญรดา เสนาขันธ์|DTN-CELLSITE|15|15-NOV-16|14-NOV-16|00:00:06.506|Completed
D|Supplier Interface|290100|นางน้อย คำเรือง|DTN-CELLSITE|15|15-NOV-16|14-NOV-16|00:00:06.506|Completed
D|Supplier Interface|290101|นางบำเพ็ญ  จันทร์โสดา|DTN-CELLSITE|15|15-NOV-16|14-NOV-16|00:00:06.506|Completed
D|Supplier Interface|290102|นางพิกุลทอง จินนารักษ์|DTN-CELLSITE|15|15-NOV-16|14-NOV-16|00:00:06.507|Completed
D|Supplier Interface|290103|นางพูลทรัพย์ กระจ่างธิมาพร|DTN-CELLSITE|15|15-NOV-16|14-NOV-16|00:00:06.507|Completed
D|Supplier Interface|290104|นางยอดฟ้า วรรณสุข|DTN-CELLSITE|15|15-NOV-16|14-NOV-16|00:00:06.507|Completed
D|Supplier Interface|290105|นางยุพิน ตุ่นคำ|DTN-CELLSITE|15|15-NOV-16|14-NOV-16|00:00:06.507|Completed
D|Supplier Interface|290106|นางลัย  บริรักษ์|DTN-CELLSITE|15|15-NOV-16|14-NOV-16|00:00:06.507|Completed
D|Supplier Interface|290107|นางวัฒนา พลวิชัย|DTN-CELLSITE|15|15-NOV-16|14-NOV-16|00:00:06.507|Completed
D|Supplier Interface|290108|นางสกุนตลารานี วิทยาปัญญาวุฒิ|DTN-CELLSITE|15|15-NOV-16|14-NOV-16|00:00:06.508|Completed
D|Supplier Interface|290109|นางสมถวิล  เหลืองทอง|DTN-CELLSITE|15|15-NOV-16|14-NOV-16|00:00:06.508|Completed
D|Supplier Interface|290110|นางสมทรง  ปานชู|DTN-CELLSITE|15|15-NOV-16|14-NOV-16|00:00:06.508|Completed
D|Supplier Interface|290111|นางสายบัว บุญจั่น|DTN-CELLSITE|15|15-NOV-16|14-NOV-16|00:00:06.508|Completed
D|Supplier Interface|290112|นางสาวดวงใจ วรรณวาศ|DTN-CELLSITE|15|15-NOV-16|14-NOV-16|00:00:06.508|Completed
D|Supplier Interface|290113|นางสาวนาเดีย  สะนิ|DTN-CELLSITE|15|15-NOV-16|14-NOV-16|00:00:06.509|Completed
D|Supplier Interface|290114|นางสาวผกายรัตน์ บุญทา|DTN-CELLSITE|15|15-NOV-16|14-NOV-16|00:00:06.509|Completed
D|Supplier Interface|290115|นางสาวสมประสงค์ เจริญฤทธิ์|DTN-CELLSITE|15|15-NOV-16|14-NOV-16|00:00:06.509|Completed
D|Supplier Interface|290116|นางสาวสรวีย์ จันทร์ศิริกิจ|DTN-CELLSITE|15|15-NOV-16|14-NOV-16|00:00:06.509|Completed
D|Supplier Interface|290117|นางสาวสุภาศิณี เวชประสิทธิ์|DTN-CELLSITE|15|15-NOV-16|14-NOV-16|00:00:06.509|Completed
D|Supplier Interface|290118|นางสาวสุวณี มรกต|DTN-CELLSITE|15|15-NOV-16|14-NOV-16|00:00:06.509|Completed
D|Supplier Interface|290119|นางสำรวย ฝากกลาง|DTN-CELLSITE|15|15-NOV-16|14-NOV-16|00:00:06.510|Completed
D|Supplier Interface|290120|นางสุทิน แซ่ตั้ง|DTN-CELLSITE|15|15-NOV-16|14-NOV-16|00:00:06.510|Completed
D|Supplier Interface|290121|นางสุนีย์ ทองสลับ|DTN-CELLSITE|15|15-NOV-16|14-NOV-16|00:00:06.510|Completed
D|Supplier Interface|290122|นางสุรีย์พร อนันตโชติ|DTN-CELLSITE|15|15-NOV-16|14-NOV-16|00:00:06.510|Completed
D|Supplier Interface|290123|นางอมรา เพ็ชรแก้ว|DTN-CELLSITE|15|15-NOV-16|14-NOV-16|00:00:06.510|Completed
D|Supplier Interface|290124|นางอรพินท์ สถิตเดชกุญชร|DTN-CELLSITE|15|15-NOV-16|14-NOV-16|00:00:06.511|Completed
D|Supplier Interface|290125|นางอำพร  ไหมทอง|DTN-CELLSITE|15|15-NOV-16|14-NOV-16|00:00:06.511|Completed
D|Supplier Interface|290126|นางอุบล โอชะกุล|DTN-CELLSITE|15|15-NOV-16|14-NOV-16|00:00:06.511|Completed
D|Supplier Interface|290127|นางอุ่นเรือน มณีสิริ|DTN-CELLSITE|15|15-NOV-16|14-NOV-16|00:00:06.511|Completed
D|Supplier Interface|290128|นางเกษมศรี จันดาลี|DTN-CELLSITE|15|15-NOV-16|14-NOV-16|00:00:06.511|Completed
D|Supplier Interface|290129|นางเกษร เจริญผิว|DTN-CELLSITE|15|15-NOV-16|14-NOV-16|00:00:06.512|Completed
D|Supplier Interface|290130|นางเฉลียว แก้วหมุน|DTN-CELLSITE|15|15-NOV-16|14-NOV-16|00:00:06.512|Completed
D|Supplier Interface|290131|นางเชื่อม ไกรวิลาศ|DTN-CELLSITE|15|15-NOV-16|14-NOV-16|00:00:06.512|Completed
D|Supplier Interface|290132|นางเพ็ญศรี  ธรรมสาร|DTN-CELLSITE|15|15-NOV-16|14-NOV-16|00:00:06.512|Completed
D|Supplier Interface|290133|นางเยาวภา สามหาดไทย|DTN-CELLSITE|15|15-NOV-16|14-NOV-16|00:00:06.512|Completed
D|Supplier Interface|290134|นางเยาวรีย์ ยูนุ|DTN-CELLSITE|15|15-NOV-16|14-NOV-16|00:00:06.513|Completed
D|Supplier Interface|290135|นางเอกมณี พิริยะศุภกิจ|DTN-CELLSITE|15|15-NOV-16|14-NOV-16|00:00:06.513|Completed
D|Supplier Interface|290136|นายกอบกิจ พนาราม|DTN-CELLSITE|15|15-NOV-16|14-NOV-16|00:00:06.513|Completed
D|Supplier Interface|290137|นายคมเดช พรพิไลสวัสดิ์|DTN-CELLSITE|15|15-NOV-16|14-NOV-16|00:00:06.513|Completed
D|Supplier Interface|290138|นายคำใบ  สุขหนองโป่ง|DTN-CELLSITE|15|15-NOV-16|14-NOV-16|00:00:06.513|Completed
D|Supplier Interface|290139|นายจตุรงค์ หลีสกุล|DTN-CELLSITE|15|15-NOV-16|14-NOV-16|00:00:06.513|Completed
D|Supplier Interface|290140|นายจีรพงษ์ ผลเกิด|DTN-CELLSITE|15|15-NOV-16|14-NOV-16|00:00:06.514|Completed
D|Supplier Interface|290141|นายชาญ ปฏิมาภรณ์ชัย|DTN-CELLSITE|15|15-NOV-16|14-NOV-16|00:00:06.514|Completed
D|Supplier Interface|290142|นายชาญชัย เกียรติวาทีรัตนะ|DTN-CELLSITE|15|15-NOV-16|14-NOV-16|00:00:06.514|Completed
D|Supplier Interface|290143|นายฐิติ วันเพ็ญ|DTN-CELLSITE|15|15-NOV-16|14-NOV-16|00:00:06.514|Completed
D|Supplier Interface|290144|นายณรงค์ ทองเจริญ|DTN-CELLSITE|15|15-NOV-16|14-NOV-16|00:00:06.514|Completed
D|Supplier Interface|290145|นายดือราเฮง  ลาแม|DTN-CELLSITE|15|15-NOV-16|14-NOV-16|00:00:06.515|Completed
D|Supplier Interface|290146|นายทองอิน ภู่มาลี|DTN-CELLSITE|15|15-NOV-16|14-NOV-16|00:00:06.515|Completed
D|Supplier Interface|290147|นายทองแดง สอนษา|DTN-CELLSITE|15|15-NOV-16|14-NOV-16|00:00:06.515|Completed
D|Supplier Interface|290148|นายทุม คุ้มวงษ์|DTN-CELLSITE|15|15-NOV-16|14-NOV-16|00:00:06.515|Completed
D|Supplier Interface|290149|นายนพฤทธิ์ ก่อเสริมสุข|DTN-CELLSITE|15|15-NOV-16|14-NOV-16|00:00:06.515|Completed
D|Supplier Interface|290150|นายน้อย ก๋าเตจ๊ะ|DTN-CELLSITE|15|15-NOV-16|14-NOV-16|00:00:06.515|Completed
D|Supplier Interface|290151|นายบุญคุ้ม  ศิริภักดิ์|DTN-CELLSITE|15|15-NOV-16|14-NOV-16|00:00:06.516|Completed
D|Supplier Interface|290152|นายบุญช่วย  สีนกน้อย|DTN-CELLSITE|15|15-NOV-16|14-NOV-16|00:00:06.516|Completed
D|Supplier Interface|290153|นายประวิตร  ศักดิ์ศรีสกุลชัย|DTN-CELLSITE|15|15-NOV-16|14-NOV-16|00:00:06.516|Completed
D|Supplier Interface|290154|นายประสิทธิ์  มงคลดี|DTN-CELLSITE|15|15-NOV-16|14-NOV-16|00:00:06.516|Completed
D|Supplier Interface|290155|นายปรีชา มูฮำหมัดกาเซ็ม|DTN-CELLSITE|15|15-NOV-16|14-NOV-16|00:00:06.517|Completed
D|Supplier Interface|290156|นายพงศ์ศักดิ์ หลังสัง|DTN-CELLSITE|15|15-NOV-16|14-NOV-16|00:00:06.517|Completed
D|Supplier Interface|290157|นายพนม  อาจบุราย|DTN-CELLSITE|15|15-NOV-16|14-NOV-16|00:00:06.517|Completed
D|Supplier Interface|290158|นายพรชัย จั่นสกุล|DTN-CELLSITE|15|15-NOV-16|14-NOV-16|00:00:06.518|Completed
D|Supplier Interface|290159|นายพรเทพ ยวนทอง|DTN-CELLSITE|15|15-NOV-16|14-NOV-16|00:00:06.518|Completed
D|Supplier Interface|290160|นายพลเอก อู๋ไพจิตร|DTN-CELLSITE|15|15-NOV-16|14-NOV-16|00:00:06.518|Completed
D|Supplier Interface|290161|นายพัด ดีนา|DTN-CELLSITE|15|15-NOV-16|14-NOV-16|00:00:06.518|Completed
D|Supplier Interface|290162|นายพาโชค  ลิ้มเรืองอนันต์|DTN-CELLSITE|15|15-NOV-16|14-NOV-16|00:00:06.518|Completed
D|Supplier Interface|290163|นายพิเชษฐ โคตพิลา|DTN-CELLSITE|15|15-NOV-16|14-NOV-16|00:00:06.518|Completed
D|Supplier Interface|290164|นายภูพาน ดวงดี|DTN-CELLSITE|15|15-NOV-16|14-NOV-16|00:00:06.519|Completed
D|Supplier Interface|290165|นายมะซุไหนี ดอเล๊าะ|DTN-CELLSITE|15|15-NOV-16|14-NOV-16|00:00:06.519|Completed
D|Supplier Interface|290166|นายมะตอเละ เจะเลง|DTN-CELLSITE|15|15-NOV-16|14-NOV-16|00:00:06.519|Completed
D|Supplier Interface|290167|นายยูนัยดี วาบา|DTN-CELLSITE|15|15-NOV-16|14-NOV-16|00:00:06.519|Completed
D|Supplier Interface|290168|นายศักดิ์ศิธร   ต้นสินทร์|DTN-CELLSITE|15|15-NOV-16|14-NOV-16|00:00:06.519|Completed
D|Supplier Interface|290169|นายศิริพงษ์ หอมกลาง|DTN-CELLSITE|15|15-NOV-16|14-NOV-16|00:00:06.520|Completed
D|Supplier Interface|290170|นายสมทบ ยิ้มสง่า|DTN-CELLSITE|15|15-NOV-16|14-NOV-16|00:00:06.520|Completed
D|Supplier Interface|290171|นายสมบัติ   สาวะโฆ|DTN-CELLSITE|15|15-NOV-16|14-NOV-16|00:00:06.520|Completed
D|Supplier Interface|290172|นายสมบูรณ์ เกตุรัตน์|DTN-CELLSITE|15|15-NOV-16|14-NOV-16|00:00:06.520|Completed
D|Supplier Interface|290173|นายสมสันต์ ศุภศาสตรสิน|DTN-CELLSITE|15|15-NOV-16|14-NOV-16|00:00:06.520|Completed
D|Supplier Interface|290174|นายสมาน ปัญญายงค์|DTN-CELLSITE|15|15-NOV-16|14-NOV-16|00:00:06.520|Completed
D|Supplier Interface|290175|นายสมโภช  นิโกรธา|DTN-CELLSITE|15|15-NOV-16|14-NOV-16|00:00:06.521|Completed
D|Supplier Interface|290176|นายสุชาติ พัฒนาสุทธินนท์|DTN-CELLSITE|15|15-NOV-16|14-NOV-16|00:00:06.521|Completed
D|Supplier Interface|290177|นายสุดใจ แก่นสิงห์|DTN-CELLSITE|15|15-NOV-16|14-NOV-16|00:00:06.521|Completed
D|Supplier Interface|290178|นายสุพจน์ ต๊ะทา|DTN-CELLSITE|15|15-NOV-16|14-NOV-16|00:00:06.521|Completed
D|Supplier Interface|290179|นายอัตโน  วีระรัตนโรจน์|DTN-CELLSITE|15|15-NOV-16|14-NOV-16|00:00:06.521|Completed
D|Supplier Interface|290180|นายอาเดร์ ซา|DTN-CELLSITE|15|15-NOV-16|14-NOV-16|00:00:06.522|Completed
D|Supplier Interface|290181|นายอุดม ช่วยรักษ์|DTN-CELLSITE|15|15-NOV-16|14-NOV-16|00:00:06.522|Completed
D|Supplier Interface|290182|นายเชาว์ ศรีเครือดง|DTN-CELLSITE|15|15-NOV-16|14-NOV-16|00:00:06.522|Completed
D|Supplier Interface|290183|นายเดชนารินทร์  แสนคำ|DTN-CELLSITE|15|15-NOV-16|14-NOV-16|00:00:06.522|Completed
D|Supplier Interface|290184|นายเดชา นุตาลัย|DTN-CELLSITE|15|15-NOV-16|14-NOV-16|00:00:06.522|Completed
D|Supplier Interface|290185|นายเบญจรงค์ ไวดี|DTN-CELLSITE|15|15-NOV-16|14-NOV-16|00:00:06.523|Completed
D|Supplier Interface|290186|นายเพชรลอย ดวงเกิด|DTN-CELLSITE|15|15-NOV-16|14-NOV-16|00:00:06.523|Completed
D|Supplier Interface|290187|นายเสถียร    จะโรจร|DTN-CELLSITE|15|15-NOV-16|14-NOV-16|00:00:06.523|Completed
D|Supplier Interface|290188|นายเสริม   แก้วเอียด|DTN-CELLSITE|15|15-NOV-16|14-NOV-16|00:00:06.523|Completed
D|Supplier Interface|290189|นายแหวนชัย บุญเศษ|DTN-CELLSITE|15|15-NOV-16|14-NOV-16|00:00:06.523|Completed
D|Supplier Interface|290190|บริษัท วิมลการก่อสร้างภูเก็ต จำกัด|DTN-CELLSITE|15|15-NOV-16|14-NOV-16|00:00:06.523|Completed
D|Supplier Interface|290191|บริษัท แผ่นดินทอง พร็อพเพอร์ตี้ ดีเวลลอปเม้นท์ จำกัด (มหาชน)|DTN-CELLSITE|15|15-NOV-16|14-NOV-16|00:00:06.524|Completed
D|Supplier Interface|290192|วัดพระธาตุพนมวรมหาวิหาร|DTN-CELLSITE|15|15-NOV-16|14-NOV-16|00:00:06.524|Completed
D|Supplier Interface|290193|นิติบุคคลอาคารชุดบ้านสวนนครธน 1,2|DTN-CELLSITE|15|15-NOV-16|14-NOV-16|00:00:06.524|Completed
D|Supplier Interface|290194|NUCHARAT, TANGTAKUL|OFFICE|15|15-NOV-16|14-NOV-16|00:00:06.524|Completed
D|Supplier Interface|290195|คุณเอกอนันต์  เอกธนิตวณิชย์|DTN-CELLSITE|15|15-NOV-16|14-NOV-16|00:00:06.524|Completed
D|Supplier Interface|290196|สำนักงานจัดการทรัพย์สิน จุฬาฯ (เงินรับฝากสยามสแควร์)|CELLSITE-HO|15|15-NOV-16|14-NOV-16|00:00:06.525|Completed
