H|43877126|DTINVHUB005|31-OCT-16|Upload|00:00:07.165|476|0
D|Supplier Interface|290080|สันติยา คงดี|P01|Immediately|01-NOV-16|31-OCT-16|00:00:07.060|Completed
D|Supplier Interface|290081|สาคร คำนุสติ|HO1|Immediately|01-NOV-16|31-OCT-16|00:00:07.069|Completed
D|Supplier Interface|290081|สาคร คำนุสติ|N01|Immediately|01-NOV-16|31-OCT-16|00:00:07.070|Completed
D|Supplier Interface|290081|สาคร คำนุสติ|P01|Immediately|01-NOV-16|31-OCT-16|00:00:07.070|Completed
D|Supplier Interface|290082|สาวิตรี เอี่ยมรอด |HO1|Immediately|01-NOV-16|31-OCT-16|00:00:07.071|Completed
D|Supplier Interface|290082|สาวิตรี เอี่ยมรอด |N01|Immediately|01-NOV-16|31-OCT-16|00:00:07.072|Completed
D|Supplier Interface|290082|สาวิตรี เอี่ยมรอด |P01|Immediately|01-NOV-16|31-OCT-16|00:00:07.072|Completed
D|Supplier Interface|290083|สิริวิมล  สายสงค์|HO2|Immediately|01-NOV-16|31-OCT-16|00:00:07.073|Completed
D|Supplier Interface|290083|สิริวิมล  สายสงค์|N02|Immediately|01-NOV-16|31-OCT-16|00:00:07.073|Completed
D|Supplier Interface|290083|สิริวิมล  สายสงค์|P02|Immediately|01-NOV-16|31-OCT-16|00:00:07.074|Completed
D|Supplier Interface|290084|สุดารัตน์   เหมาะประโคน|HO1|Immediately|01-NOV-16|31-OCT-16|00:00:07.075|Completed
D|Supplier Interface|290084|สุดารัตน์   เหมาะประโคน|N01|Immediately|01-NOV-16|31-OCT-16|00:00:07.075|Completed
D|Supplier Interface|290084|สุดารัตน์   เหมาะประโคน|P01|Immediately|01-NOV-16|31-OCT-16|00:00:07.076|Completed
D|Supplier Interface|290085|สุทาธิการ  กิจสิริศร|HO1|Immediately|01-NOV-16|31-OCT-16|00:00:07.077|Completed
D|Supplier Interface|290085|สุทาธิการ  กิจสิริศร|N01|Immediately|01-NOV-16|31-OCT-16|00:00:07.079|Completed
D|Supplier Interface|290085|สุทาธิการ  กิจสิริศร|P01|Immediately|01-NOV-16|31-OCT-16|00:00:07.080|Completed
D|Supplier Interface|290087|อนันต์  งามรัมย์|HO1|Immediately|01-NOV-16|31-OCT-16|00:00:07.080|Completed
D|Supplier Interface|290087|อนันต์  งามรัมย์|N01|Immediately|01-NOV-16|31-OCT-16|00:00:07.081|Completed
D|Supplier Interface|290087|อนันต์  งามรัมย์|P01|Immediately|01-NOV-16|31-OCT-16|00:00:07.082|Completed
D|Supplier Interface|290088|เกศินี ปู่ลมดี|HO3|Immediately|01-NOV-16|31-OCT-16|00:00:07.082|Completed
D|Supplier Interface|290088|เกศินี ปู่ลมดี|N03|Immediately|01-NOV-16|31-OCT-16|00:00:07.083|Completed
D|Supplier Interface|290088|เกศินี ปู่ลมดี|P03|Immediately|01-NOV-16|31-OCT-16|00:00:07.083|Completed
D|Supplier Interface|290089|เฉลิมศรี ตั้งประโคน|HO1|Immediately|01-NOV-16|31-OCT-16|00:00:07.084|Completed
D|Supplier Interface|290089|เฉลิมศรี ตั้งประโคน|N01|Immediately|01-NOV-16|31-OCT-16|00:00:07.085|Completed
D|Supplier Interface|290089|เฉลิมศรี ตั้งประโคน|P01|Immediately|01-NOV-16|31-OCT-16|00:00:07.085|Completed
D|Supplier Interface|290090|เนาวนิตย์  แสงดี|HO1|Immediately|01-NOV-16|31-OCT-16|00:00:07.086|Completed
D|Supplier Interface|290090|เนาวนิตย์  แสงดี|N01|Immediately|01-NOV-16|31-OCT-16|00:00:07.086|Completed
D|Supplier Interface|290090|เนาวนิตย์  แสงดี|P01|Immediately|01-NOV-16|31-OCT-16|00:00:07.087|Completed
D|Supplier Interface|290091|66950032398 นิ่มอนงค์ ลาพัน|HO1|Immediately|01-NOV-16|31-OCT-16|00:00:07.087|Completed
D|Supplier Interface|290091|66950032398 นิ่มอนงค์ ลาพัน|N01|Immediately|01-NOV-16|31-OCT-16|00:00:07.088|Completed
D|Supplier Interface|290091|66950032398 นิ่มอนงค์ ลาพัน|P01|Immediately|01-NOV-16|31-OCT-16|00:00:07.088|Completed
D|Supplier Interface|290092|น.ส.อุดร ไพรสิงขร|DTN-CELLSITE|15|01-NOV-16|31-OCT-16|00:00:07.089|Completed
D|Supplier Interface|290093|นางจันทร์ งั่วลำหิน|DTN-CELLSITE|15|01-NOV-16|31-OCT-16|00:00:07.089|Completed
D|Supplier Interface|290094|นางจำเนียร ขวัญมั่น|DTN-CELLSITE|15|01-NOV-16|31-OCT-16|00:00:07.090|Completed
D|Supplier Interface|290095|นางจิรวรรณ ห่อเพ็ชร์|DTN-CELLSITE|15|01-NOV-16|31-OCT-16|00:00:07.091|Completed
D|Supplier Interface|290096|นางฉ๊ะ  สลาหลง|DTN-CELLSITE|15|01-NOV-16|31-OCT-16|00:00:07.091|Completed
D|Supplier Interface|290097|นางชูศรี  พรหมมาธิ|DTN-CELLSITE|15|01-NOV-16|31-OCT-16|00:00:07.092|Completed
D|Supplier Interface|290098|นางดอกอ้อ เภรา|DTN-CELLSITE|15|01-NOV-16|31-OCT-16|00:00:07.092|Completed
D|Supplier Interface|290099|นางธัญรดา เสนาขันธ์|DTN-CELLSITE|15|01-NOV-16|31-OCT-16|00:00:07.093|Completed
D|Supplier Interface|290100|นางน้อย คำเรือง|DTN-CELLSITE|15|01-NOV-16|31-OCT-16|00:00:07.093|Completed
D|Supplier Interface|290101|นางบำเพ็ญ  จันทร์โสดา|DTN-CELLSITE|15|01-NOV-16|31-OCT-16|00:00:07.094|Completed
D|Supplier Interface|290102|นางพิกุลทอง จินนารักษ์|DTN-CELLSITE|15|01-NOV-16|31-OCT-16|00:00:07.095|Completed
D|Supplier Interface|290103|นางพูลทรัพย์ กระจ่างธิมาพร|DTN-CELLSITE|15|01-NOV-16|31-OCT-16|00:00:07.095|Completed
D|Supplier Interface|290104|นางยอดฟ้า วรรณสุข|DTN-CELLSITE|15|01-NOV-16|31-OCT-16|00:00:07.096|Completed
D|Supplier Interface|290105|นางยุพิน ตุ่นคำ|DTN-CELLSITE|15|01-NOV-16|31-OCT-16|00:00:07.096|Completed
D|Supplier Interface|290106|นางลัย  บริรักษ์|DTN-CELLSITE|15|01-NOV-16|31-OCT-16|00:00:07.097|Completed
D|Supplier Interface|290107|นางวัฒนา พลวิชัย|DTN-CELLSITE|15|01-NOV-16|31-OCT-16|00:00:07.098|Completed
D|Supplier Interface|290108|นางสกุนตลารานี วิทยาปัญญาวุฒิ|DTN-CELLSITE|15|01-NOV-16|31-OCT-16|00:00:07.098|Completed
D|Supplier Interface|290109|นางสมถวิล  เหลืองทอง|DTN-CELLSITE|15|01-NOV-16|31-OCT-16|00:00:07.099|Completed
D|Supplier Interface|290110|นางสมทรง  ปานชู|DTN-CELLSITE|15|01-NOV-16|31-OCT-16|00:00:07.099|Completed
D|Supplier Interface|290111|นางสายบัว บุญจั่น|DTN-CELLSITE|15|01-NOV-16|31-OCT-16|00:00:07.100|Completed
D|Supplier Interface|290112|นางสาวดวงใจ วรรณวาศ|DTN-CELLSITE|15|01-NOV-16|31-OCT-16|00:00:07.100|Completed
D|Supplier Interface|290113|นางสาวนาเดีย  สะนิ|DTN-CELLSITE|15|01-NOV-16|31-OCT-16|00:00:07.101|Completed
D|Supplier Interface|290114|นางสาวผกายรัตน์ บุญทา|DTN-CELLSITE|15|01-NOV-16|31-OCT-16|00:00:07.101|Completed
D|Supplier Interface|290115|นางสาวสมประสงค์ เจริญฤทธิ์|DTN-CELLSITE|15|01-NOV-16|31-OCT-16|00:00:07.102|Completed
D|Supplier Interface|290116|นางสาวสรวีย์ จันทร์ศิริกิจ|DTN-CELLSITE|15|01-NOV-16|31-OCT-16|00:00:07.102|Completed
D|Supplier Interface|290117|นางสาวสุภาศิณี เวชประสิทธิ์|DTN-CELLSITE|15|01-NOV-16|31-OCT-16|00:00:07.103|Completed
D|Supplier Interface|290118|นางสาวสุวณี มรกต|DTN-CELLSITE|15|01-NOV-16|31-OCT-16|00:00:07.103|Completed
D|Supplier Interface|290119|นางสำรวย ฝากกลาง|DTN-CELLSITE|15|01-NOV-16|31-OCT-16|00:00:07.104|Completed
D|Supplier Interface|290120|นางสุทิน แซ่ตั้ง|DTN-CELLSITE|15|01-NOV-16|31-OCT-16|00:00:07.105|Completed
D|Supplier Interface|290121|นางสุนีย์ ทองสลับ|DTN-CELLSITE|15|01-NOV-16|31-OCT-16|00:00:07.106|Completed
D|Supplier Interface|290122|นางสุรีย์พร อนันตโชติ|DTN-CELLSITE|15|01-NOV-16|31-OCT-16|00:00:07.106|Completed
D|Supplier Interface|290123|นางอมรา เพ็ชรแก้ว|DTN-CELLSITE|15|01-NOV-16|31-OCT-16|00:00:07.107|Completed
D|Supplier Interface|290124|นางอรพินท์ สถิตเดชกุญชร|DTN-CELLSITE|15|01-NOV-16|31-OCT-16|00:00:07.107|Completed
D|Supplier Interface|290125|นางอำพร  ไหมทอง|DTN-CELLSITE|15|01-NOV-16|31-OCT-16|00:00:07.108|Completed
D|Supplier Interface|290126|นางอุบล โอชะกุล|DTN-CELLSITE|15|01-NOV-16|31-OCT-16|00:00:07.116|Completed
D|Supplier Interface|290127|นางอุ่นเรือน มณีสิริ|DTN-CELLSITE|15|01-NOV-16|31-OCT-16|00:00:07.117|Completed
D|Supplier Interface|290128|นางเกษมศรี จันดาลี|DTN-CELLSITE|15|01-NOV-16|31-OCT-16|00:00:07.117|Completed
D|Supplier Interface|290129|นางเกษร เจริญผิว|DTN-CELLSITE|15|01-NOV-16|31-OCT-16|00:00:07.118|Completed
D|Supplier Interface|290130|นางเฉลียว แก้วหมุน|DTN-CELLSITE|15|01-NOV-16|31-OCT-16|00:00:07.118|Completed
D|Supplier Interface|290131|นางเชื่อม ไกรวิลาศ|DTN-CELLSITE|15|01-NOV-16|31-OCT-16|00:00:07.119|Completed
D|Supplier Interface|290132|นางเพ็ญศรี  ธรรมสาร|DTN-CELLSITE|15|01-NOV-16|31-OCT-16|00:00:07.119|Completed
D|Supplier Interface|290133|นางเยาวภา สามหาดไทย|DTN-CELLSITE|15|01-NOV-16|31-OCT-16|00:00:07.120|Completed
D|Supplier Interface|290134|นางเยาวรีย์ ยูนุ|DTN-CELLSITE|15|01-NOV-16|31-OCT-16|00:00:07.121|Completed
D|Supplier Interface|290135|นางเอกมณี พิริยะศุภกิจ|DTN-CELLSITE|15|01-NOV-16|31-OCT-16|00:00:07.121|Completed
D|Supplier Interface|290136|นายกอบกิจ พนาราม|DTN-CELLSITE|15|01-NOV-16|31-OCT-16|00:00:07.122|Completed
D|Supplier Interface|290137|นายคมเดช พรพิไลสวัสดิ์|DTN-CELLSITE|15|01-NOV-16|31-OCT-16|00:00:07.122|Completed
D|Supplier Interface|290138|นายคำใบ  สุขหนองโป่ง|DTN-CELLSITE|15|01-NOV-16|31-OCT-16|00:00:07.123|Completed
D|Supplier Interface|290139|นายจตุรงค์ หลีสกุล|DTN-CELLSITE|15|01-NOV-16|31-OCT-16|00:00:07.124|Completed
D|Supplier Interface|290140|นายจีรพงษ์ ผลเกิด|DTN-CELLSITE|15|01-NOV-16|31-OCT-16|00:00:07.124|Completed
D|Supplier Interface|290141|นายชาญ ปฏิมาภรณ์ชัย|DTN-CELLSITE|15|01-NOV-16|31-OCT-16|00:00:07.125|Completed
D|Supplier Interface|290142|นายชาญชัย เกียรติวาทีรัตนะ|DTN-CELLSITE|15|01-NOV-16|31-OCT-16|00:00:07.125|Completed
D|Supplier Interface|290143|นายฐิติ วันเพ็ญ|DTN-CELLSITE|15|01-NOV-16|31-OCT-16|00:00:07.126|Completed
D|Supplier Interface|290144|นายณรงค์ ทองเจริญ|DTN-CELLSITE|15|01-NOV-16|31-OCT-16|00:00:07.126|Completed
D|Supplier Interface|290145|นายดือราเฮง  ลาแม|DTN-CELLSITE|15|01-NOV-16|31-OCT-16|00:00:07.127|Completed
D|Supplier Interface|290146|นายทองอิน ภู่มาลี|DTN-CELLSITE|15|01-NOV-16|31-OCT-16|00:00:07.127|Completed
D|Supplier Interface|290147|นายทองแดง สอนษา|DTN-CELLSITE|15|01-NOV-16|31-OCT-16|00:00:07.128|Completed
D|Supplier Interface|290148|นายทุม คุ้มวงษ์|DTN-CELLSITE|15|01-NOV-16|31-OCT-16|00:00:07.128|Completed
D|Supplier Interface|290149|นายนพฤทธิ์ ก่อเสริมสุข|DTN-CELLSITE|15|01-NOV-16|31-OCT-16|00:00:07.129|Completed
D|Supplier Interface|290150|นายน้อย ก๋าเตจ๊ะ|DTN-CELLSITE|15|01-NOV-16|31-OCT-16|00:00:07.130|Completed
D|Supplier Interface|290151|นายบุญคุ้ม  ศิริภักดิ์|DTN-CELLSITE|15|01-NOV-16|31-OCT-16|00:00:07.130|Completed
D|Supplier Interface|290152|นายบุญช่วย  สีนกน้อย|DTN-CELLSITE|15|01-NOV-16|31-OCT-16|00:00:07.131|Completed
D|Supplier Interface|290153|นายประวิตร  ศักดิ์ศรีสกุลชัย|DTN-CELLSITE|15|01-NOV-16|31-OCT-16|00:00:07.131|Completed
D|Supplier Interface|290154|นายประสิทธิ์  มงคลดี|DTN-CELLSITE|15|01-NOV-16|31-OCT-16|00:00:07.132|Completed
D|Supplier Interface|290155|นายปรีชา มูฮำหมัดกาเซ็ม|DTN-CELLSITE|15|01-NOV-16|31-OCT-16|00:00:07.133|Completed
D|Supplier Interface|290156|นายพงศ์ศักดิ์ หลังสัง|DTN-CELLSITE|15|01-NOV-16|31-OCT-16|00:00:07.133|Completed
D|Supplier Interface|290157|นายพนม  อาจบุราย|DTN-CELLSITE|15|01-NOV-16|31-OCT-16|00:00:07.134|Completed
D|Supplier Interface|290158|นายพรชัย จั่นสกุล|DTN-CELLSITE|15|01-NOV-16|31-OCT-16|00:00:07.134|Completed
D|Supplier Interface|290159|นายพรเทพ ยวนทอง|DTN-CELLSITE|15|01-NOV-16|31-OCT-16|00:00:07.135|Completed
D|Supplier Interface|290160|นายพลเอก อู๋ไพจิตร|DTN-CELLSITE|15|01-NOV-16|31-OCT-16|00:00:07.136|Completed
D|Supplier Interface|290161|นายพัด ดีนา|DTN-CELLSITE|15|01-NOV-16|31-OCT-16|00:00:07.136|Completed
D|Supplier Interface|290162|นายพาโชค  ลิ้มเรืองอนันต์|DTN-CELLSITE|15|01-NOV-16|31-OCT-16|00:00:07.137|Completed
D|Supplier Interface|290163|นายพิเชษฐ โคตพิลา|DTN-CELLSITE|15|01-NOV-16|31-OCT-16|00:00:07.137|Completed
D|Supplier Interface|290164|นายภูพาน ดวงดี|DTN-CELLSITE|15|01-NOV-16|31-OCT-16|00:00:07.138|Completed
D|Supplier Interface|290165|นายมะซุไหนี ดอเล๊าะ|DTN-CELLSITE|15|01-NOV-16|31-OCT-16|00:00:07.138|Completed
D|Supplier Interface|290166|นายมะตอเละ เจะเลง|DTN-CELLSITE|15|01-NOV-16|31-OCT-16|00:00:07.139|Completed
D|Supplier Interface|290167|นายยูนัยดี วาบา|DTN-CELLSITE|15|01-NOV-16|31-OCT-16|00:00:07.140|Completed
D|Supplier Interface|290168|นายศักดิ์ศิธร   ต้นสินทร์|DTN-CELLSITE|15|01-NOV-16|31-OCT-16|00:00:07.140|Completed
D|Supplier Interface|290169|นายศิริพงษ์ หอมกลาง|DTN-CELLSITE|15|01-NOV-16|31-OCT-16|00:00:07.141|Completed
D|Supplier Interface|290170|นายสมทบ ยิ้มสง่า|DTN-CELLSITE|15|01-NOV-16|31-OCT-16|00:00:07.141|Completed
D|Supplier Interface|290171|นายสมบัติ   สาวะโฆ|DTN-CELLSITE|15|01-NOV-16|31-OCT-16|00:00:07.142|Completed
D|Supplier Interface|290172|นายสมบูรณ์ เกตุรัตน์|DTN-CELLSITE|15|01-NOV-16|31-OCT-16|00:00:07.143|Completed
D|Supplier Interface|290173|นายสมสันต์ ศุภศาสตรสิน|DTN-CELLSITE|15|01-NOV-16|31-OCT-16|00:00:07.143|Completed
D|Supplier Interface|290174|นายสมาน ปัญญายงค์|DTN-CELLSITE|15|01-NOV-16|31-OCT-16|00:00:07.144|Completed
D|Supplier Interface|290175|นายสมโภช  นิโกรธา|DTN-CELLSITE|15|01-NOV-16|31-OCT-16|00:00:07.144|Completed
D|Supplier Interface|290176|นายสุชาติ พัฒนาสุทธินนท์|DTN-CELLSITE|15|01-NOV-16|31-OCT-16|00:00:07.145|Completed
D|Supplier Interface|290177|นายสุดใจ แก่นสิงห์|DTN-CELLSITE|15|01-NOV-16|31-OCT-16|00:00:07.145|Completed
D|Supplier Interface|290178|นายสุพจน์ ต๊ะทา|DTN-CELLSITE|15|01-NOV-16|31-OCT-16|00:00:07.146|Completed
D|Supplier Interface|290179|นายอัตโน  วีระรัตนโรจน์|DTN-CELLSITE|15|01-NOV-16|31-OCT-16|00:00:07.146|Completed
D|Supplier Interface|290180|นายอาเดร์ ซา|DTN-CELLSITE|15|01-NOV-16|31-OCT-16|00:00:07.147|Completed
D|Supplier Interface|290181|นายอุดม ช่วยรักษ์|DTN-CELLSITE|15|01-NOV-16|31-OCT-16|00:00:07.147|Completed
D|Supplier Interface|290182|นายเชาว์ ศรีเครือดง|DTN-CELLSITE|15|01-NOV-16|31-OCT-16|00:00:07.148|Completed
D|Supplier Interface|290183|นายเดชนารินทร์  แสนคำ|DTN-CELLSITE|15|01-NOV-16|31-OCT-16|00:00:07.148|Completed
D|Supplier Interface|290184|นายเดชา นุตาลัย|DTN-CELLSITE|15|01-NOV-16|31-OCT-16|00:00:07.149|Completed
D|Supplier Interface|290185|นายเบญจรงค์ ไวดี|DTN-CELLSITE|15|01-NOV-16|31-OCT-16|00:00:07.150|Completed
D|Supplier Interface|290186|นายเพชรลอย ดวงเกิด|DTN-CELLSITE|15|01-NOV-16|31-OCT-16|00:00:07.150|Completed
D|Supplier Interface|290187|นายเสถียร    จะโรจร|DTN-CELLSITE|15|01-NOV-16|31-OCT-16|00:00:07.151|Completed
D|Supplier Interface|290188|นายเสริม   แก้วเอียด|DTN-CELLSITE|15|01-NOV-16|31-OCT-16|00:00:07.151|Completed
D|Supplier Interface|290189|นายแหวนชัย บุญเศษ|DTN-CELLSITE|15|01-NOV-16|31-OCT-16|00:00:07.152|Completed
D|Supplier Interface|290190|บริษัท วิมลการก่อสร้างภูเก็ต จำกัด|DTN-CELLSITE|15|01-NOV-16|31-OCT-16|00:00:07.161|Completed
D|Supplier Interface|290191|บริษัท แผ่นดินทอง พร็อพเพอร์ตี้ ดีเวลลอปเม้นท์ จำกัด (มหาชน)|DTN-CELLSITE|15|01-NOV-16|31-OCT-16|00:00:07.162|Completed
D|Supplier Interface|290192|วัดพระธาตุพนมวรมหาวิหาร|DTN-CELLSITE|15|01-NOV-16|31-OCT-16|00:00:07.162|Completed
D|Supplier Interface|290193|นิติบุคคลอาคารชุดบ้านสวนนครธน 1,2|DTN-CELLSITE|15|01-NOV-16|31-OCT-16|00:00:07.163|Completed
D|Supplier Interface|290194|NUCHARAT, TANGTAKUL|OFFICE|15|01-NOV-16|31-OCT-16|00:00:07.163|Completed
D|Supplier Interface|290195|คุณเอกอนันต์  เอกธนิตวณิชย์|DTN-CELLSITE|15|01-NOV-16|31-OCT-16|00:00:07.164|Completed
D|Supplier Interface|290196|สำนักงานจัดการทรัพย์สิน จุฬาฯ (เงินรับฝากสยามสแควร์)|CELLSITE-HO|15|01-NOV-16|31-OCT-16|00:00:07.164|Completed
D|Supplier Interface|100726|บริษัท ทีโอที จำกัด (มหาชน)|CELLSITE|Immediately|01-NOV-16|31-OCT-16|00:00:06.778|Completed
D|Supplier Interface|100726|บริษัท ทีโอที จำกัด (มหาชน)|CELLSITE-HO|Immediately|01-NOV-16|31-OCT-16|00:00:06.814|Completed
D|Supplier Interface|100726|บริษัท ทีโอที จำกัด (มหาชน)|CELLSITE-SMT|Immediately|01-NOV-16|31-OCT-16|00:00:06.814|Completed
D|Supplier Interface|100726|บริษัท ทีโอที จำกัด (มหาชน)|CRIE|7|01-NOV-16|31-OCT-16|00:00:06.815|Completed
D|Supplier Interface|100726|บริษัท ทีโอที จำกัด (มหาชน)|DTAC-N|7|01-NOV-16|31-OCT-16|00:00:06.815|Completed
D|Supplier Interface|100726|บริษัท ทีโอที จำกัด (มหาชน)|DTAC-W|30|01-NOV-16|31-OCT-16|00:00:06.816|Completed
D|Supplier Interface|100726|บริษัท ทีโอที จำกัด (มหาชน)|DTN-CELLSITE|15|01-NOV-16|31-OCT-16|00:00:06.816|Completed
D|Supplier Interface|100726|บริษัท ทีโอที จำกัด (มหาชน)|E|7|01-NOV-16|31-OCT-16|00:00:06.817|Completed
D|Supplier Interface|100726|บริษัท ทีโอที จำกัด (มหาชน)|EB|30|01-NOV-16|31-OCT-16|00:00:06.817|Completed
D|Supplier Interface|100726|บริษัท ทีโอที จำกัด (มหาชน)|FS1|1 Day|01-NOV-16|31-OCT-16|00:00:06.818|Completed
D|Supplier Interface|100726|บริษัท ทีโอที จำกัด (มหาชน)|FS2|1 Day|01-NOV-16|31-OCT-16|00:00:06.818|Completed
D|Supplier Interface|100726|บริษัท ทีโอที จำกัด (มหาชน)|FS3|1 Day|01-NOV-16|31-OCT-16|00:00:06.818|Completed
D|Supplier Interface|100726|บริษัท ทีโอที จำกัด (มหาชน)|FS4|1 Day|01-NOV-16|31-OCT-16|00:00:06.819|Completed
D|Supplier Interface|100726|บริษัท ทีโอที จำกัด (มหาชน)|HO|7|01-NOV-16|31-OCT-16|00:00:06.819|Completed
D|Supplier Interface|100726|บริษัท ทีโอที จำกัด (มหาชน)|HOA|Immediately|01-NOV-16|31-OCT-16|00:00:06.820|Completed
D|Supplier Interface|100726|บริษัท ทีโอที จำกัด (มหาชน)|N|15|01-NOV-16|31-OCT-16|00:00:06.820|Completed
D|Supplier Interface|100726|บริษัท ทีโอที จำกัด (มหาชน)|N-1|Immediately|01-NOV-16|31-OCT-16|00:00:06.821|Completed
D|Supplier Interface|100726|บริษัท ทีโอที จำกัด (มหาชน)|NE|7|01-NOV-16|31-OCT-16|00:00:06.822|Completed
D|Supplier Interface|100726|บริษัท ทีโอที จำกัด (มหาชน)|PSB|30|01-NOV-16|31-OCT-16|00:00:06.822|Completed
D|Supplier Interface|100726|บริษัท ทีโอที จำกัด (มหาชน)|S|7|01-NOV-16|31-OCT-16|00:00:06.823|Completed
D|Supplier Interface|100726|บริษัท ทีโอที จำกัด (มหาชน)|TACP|7|01-NOV-16|31-OCT-16|00:00:06.823|Completed
D|Supplier Interface|100726|บริษัท ทีโอที จำกัด (มหาชน)|VIP|7|01-NOV-16|31-OCT-16|00:00:06.824|Completed
D|Supplier Interface|102724|คุณศุภาภรณ์ วุฒิสิทธิกุลกิจ|DTN-TAX|Immediately|01-NOV-16|31-OCT-16|00:00:06.824|Completed
D|Supplier Interface|103216|คุณสุธิวา วิทยกมล|CELLSITE|Immediately|01-NOV-16|31-OCT-16|00:00:06.825|Completed
D|Supplier Interface|103216|คุณสุธิวา วิทยกมล|CELLSITE-HO|Immediately|01-NOV-16|31-OCT-16|00:00:06.826|Completed
D|Supplier Interface|103216|คุณสุธิวา วิทยกมล|CELLSITE-SMT|Immediately|01-NOV-16|31-OCT-16|00:00:06.826|Completed
D|Supplier Interface|103216|คุณสุธิวา วิทยกมล|DTN-CELLSITE|Immediately|01-NOV-16|31-OCT-16|00:00:06.831|Completed
D|Supplier Interface|107124|นายวิเชียร ศรีจันทร์|DTAC-TAX|30 Days|01-NOV-16|31-OCT-16|00:00:06.832|Completed
D|Supplier Interface|107124|นายวิเชียร ศรีจันทร์|DTN-CELLSITE|30|01-NOV-16|31-OCT-16|00:00:06.833|Completed
D|Supplier Interface|107124|นายวิเชียร ศรีจันทร์|DTN-TAX|30 Days|01-NOV-16|31-OCT-16|00:00:06.833|Completed
D|Supplier Interface|107124|นายวิเชียร ศรีจันทร์|E|30|01-NOV-16|31-OCT-16|00:00:06.834|Completed
D|Supplier Interface|107124|นายวิเชียร ศรีจันทร์|E-1|30|01-NOV-16|31-OCT-16|00:00:06.835|Completed
D|Supplier Interface|107124|นายวิเชียร ศรีจันทร์|HO|Immediately|01-NOV-16|31-OCT-16|00:00:06.836|Completed
D|Supplier Interface|107566|บริษัท ห้างสรรพสินค้าโรบินสัน จำกัด (มหาชน) สาขาสุขุมวิท|CELLSITE-SMT|Immediately|01-NOV-16|31-OCT-16|00:00:06.836|Completed
D|Supplier Interface|107566|บริษัท ห้างสรรพสินค้าโรบินสัน จำกัด (มหาชน) สาขาสุขุมวิท|DTN-CELLSITE|15|01-NOV-16|31-OCT-16|00:00:06.837|Completed
D|Supplier Interface|107566|บริษัท ห้างสรรพสินค้าโรบินสัน จำกัด (มหาชน) สาขาสุขุมวิท|HO|Immediately|01-NOV-16|31-OCT-16|00:00:06.838|Completed
D|Supplier Interface|123964|คุณวันทนีย์ มุนีสินชัย|CELLSITE|Immediately|01-NOV-16|31-OCT-16|00:00:06.838|Completed
D|Supplier Interface|123964|คุณวันทนีย์ มุนีสินชัย|DTN-CELLSITE|Immediately|01-NOV-16|31-OCT-16|00:00:06.839|Completed
D|Supplier Interface|123964|คุณวันทนีย์ มุนีสินชัย|HO|Immediately|01-NOV-16|31-OCT-16|00:00:06.840|Completed
D|Supplier Interface|124412|บริษัท เอไอเอ จำกัด|DTN-CELLSITE|15|01-NOV-16|31-OCT-16|00:00:06.840|Completed
D|Supplier Interface|124651|คุณอิทธิจินดา มากเมืองบุญบารมีและคุณกนกพรธรรม มากเมืองบุญบารมี|CELLSITE|Immediately|01-NOV-16|31-OCT-16|00:00:06.841|Completed
D|Supplier Interface|124651|คุณอิทธิจินดา มากเมืองบุญบารมีและคุณกนกพรธรรม มากเมืองบุญบารมี|CELLSITE-HO|Immediately|01-NOV-16|31-OCT-16|00:00:06.842|Completed
D|Supplier Interface|124651|คุณอิทธิจินดา มากเมืองบุญบารมีและคุณกนกพรธรรม มากเมืองบุญบารมี|CELLSITE-SMT|Immediately|01-NOV-16|31-OCT-16|00:00:06.842|Completed
D|Supplier Interface|124651|คุณอิทธิจินดา มากเมืองบุญบารมีและคุณกนกพรธรรม มากเมืองบุญบารมี|CELLSITE-TAX|30 Days|01-NOV-16|31-OCT-16|00:00:06.843|Completed
D|Supplier Interface|124651|คุณอิทธิจินดา มากเมืองบุญบารมีและคุณกนกพรธรรม มากเมืองบุญบารมี|DTN-CELLSITE|15|01-NOV-16|31-OCT-16|00:00:06.844|Completed
D|Supplier Interface|125158|ห้างหุ้นส่วนสามัญ กาญจนศิลป์|CELLSITE|Immediately|01-NOV-16|31-OCT-16|00:00:06.844|Completed
D|Supplier Interface|125158|ห้างหุ้นส่วนสามัญ กาญจนศิลป์|DTN-CELLSITE|15|01-NOV-16|31-OCT-16|00:00:06.845|Completed
D|Supplier Interface|125158|ห้างหุ้นส่วนสามัญ กาญจนศิลป์|HO|Immediately|01-NOV-16|31-OCT-16|00:00:06.846|Completed
D|Supplier Interface|140447|คุณยุทธนา คำน้อม|HO|Immediately|01-NOV-16|31-OCT-16|00:00:06.846|Completed
D|Supplier Interface|140447|คุณยุทธนา คำน้อม|HO1|Immediately|01-NOV-16|31-OCT-16|00:00:06.847|Completed
D|Supplier Interface|140447|คุณยุทธนา คำน้อม|HO2|Immediately|01-NOV-16|31-OCT-16|00:00:06.848|Completed
D|Supplier Interface|140447|คุณยุทธนา คำน้อม|HO3|Immediately|01-NOV-16|31-OCT-16|00:00:06.848|Completed
D|Supplier Interface|140447|คุณยุทธนา คำน้อม|HO4|Immediately|01-NOV-16|31-OCT-16|00:00:06.849|Completed
D|Supplier Interface|140447|คุณยุทธนา คำน้อม|N01|Immediately|01-NOV-16|31-OCT-16|00:00:06.849|Completed
D|Supplier Interface|140447|คุณยุทธนา คำน้อม|N02|Immediately|01-NOV-16|31-OCT-16|00:00:06.850|Completed
D|Supplier Interface|140447|คุณยุทธนา คำน้อม|N03|Immediately|01-NOV-16|31-OCT-16|00:00:06.850|Completed
D|Supplier Interface|140447|คุณยุทธนา คำน้อม|N04|Immediately|01-NOV-16|31-OCT-16|00:00:06.851|Completed
D|Supplier Interface|140447|คุณยุทธนา คำน้อม|P01|Immediately|01-NOV-16|31-OCT-16|00:00:06.851|Completed
D|Supplier Interface|140447|คุณยุทธนา คำน้อม|P02|Immediately|01-NOV-16|31-OCT-16|00:00:06.852|Completed
D|Supplier Interface|140447|คุณยุทธนา คำน้อม|P03|Immediately|01-NOV-16|31-OCT-16|00:00:06.853|Completed
D|Supplier Interface|140447|คุณยุทธนา คำน้อม|P04|Immediately|01-NOV-16|31-OCT-16|00:00:06.853|Completed
D|Supplier Interface|166763|นางประภารัตน์ ปัททุม|OFFICE|15|01-NOV-16|31-OCT-16|00:00:06.854|Completed
D|Supplier Interface|166763|นางประภารัตน์ ปัททุม|OFFICE|15|01-NOV-16|31-OCT-16|00:00:06.854|Completed
D|Supplier Interface|166806|คุณปัญญา คร้ามชาวนา|HO1|Immediately|01-NOV-16|31-OCT-16|00:00:06.855|Completed
D|Supplier Interface|166806|คุณปัญญา คร้ามชาวนา|N01|Immediately|01-NOV-16|31-OCT-16|00:00:06.856|Completed
D|Supplier Interface|166806|คุณปัญญา คร้ามชาวนา|OFFICE|15|01-NOV-16|31-OCT-16|00:00:06.857|Completed
D|Supplier Interface|166806|คุณปัญญา คร้ามชาวนา|P01|Immediately|01-NOV-16|31-OCT-16|00:00:06.857|Completed
D|Supplier Interface|166839|คุณทัศนะ เรียบสูงเนิน|OFFICE|15|01-NOV-16|31-OCT-16|00:00:06.858|Completed
D|Supplier Interface|167129|นายสุวิทย์ วิบูลอัด|OFFICE|15|01-NOV-16|31-OCT-16|00:00:06.858|Completed
D|Supplier Interface|167129|นายสุวิทย์ วิบูลอัด|OFFICE|15|01-NOV-16|31-OCT-16|00:00:06.859|Completed
D|Supplier Interface|167132|คุณสมภพ รัตนสุต|OFFICE|15|01-NOV-16|31-OCT-16|00:00:06.859|Completed
D|Supplier Interface|167160|คุณประสพโชค ทองพาน|OFFICE|15|01-NOV-16|31-OCT-16|00:00:06.860|Completed
D|Supplier Interface|167161|คุณเฉลิมชัย จงมั่นจิตร|OFFICE|15|01-NOV-16|31-OCT-16|00:00:06.860|Completed
D|Supplier Interface|167161|คุณเฉลิมชัย จงมั่นจิตร|OFFICE1|15|01-NOV-16|31-OCT-16|00:00:06.861|Completed
D|Supplier Interface|167173|คุณบุญรุ่ง พักแก้ว|OFFICE|15|01-NOV-16|31-OCT-16|00:00:06.861|Completed
D|Supplier Interface|167207|นายสว่างเนตร ศักดิ์ตั้งเจริญ|OFFICE|15|01-NOV-16|31-OCT-16|00:00:06.862|Completed
D|Supplier Interface|167240|นายอาทิตย์ พงษ์เสือ|OFFICE|15|01-NOV-16|31-OCT-16|00:00:06.863|Completed
D|Supplier Interface|167567|นายสมชาย ภูคะฮาด|HO|7|01-NOV-16|31-OCT-16|00:00:06.864|Completed
D|Supplier Interface|167567|นายสมชาย ภูคะฮาด|OFFICE|15|01-NOV-16|31-OCT-16|00:00:06.865|Completed
D|Supplier Interface|167682|นางสาวพิมพกานต์ พิมพ์พิทักษ์|OFFICE|15|01-NOV-16|31-OCT-16|00:00:06.865|Completed
D|Supplier Interface|167932|นางสาวกรวรรณ สุขสมพืช|OFFICE|15|01-NOV-16|31-OCT-16|00:00:06.866|Completed
D|Supplier Interface|167958|นางสาววารินทร์ธร อิสรีย์วิกุล|OFFICE|15|01-NOV-16|31-OCT-16|00:00:06.867|Completed
D|Supplier Interface|167958|นางสาววารินทร์ธร อิสรีย์วิกุล|OFFICE|Immediately|01-NOV-16|31-OCT-16|00:00:06.867|Completed
D|Supplier Interface|168282|BUTSAPAMAI, PONGPANIT|OFFICE|15|01-NOV-16|31-OCT-16|00:00:06.868|Completed
D|Supplier Interface|168587|นายธวัชชัย วงษ์หอมทอง|OFFICE|15|01-NOV-16|31-OCT-16|00:00:06.869|Completed
D|Supplier Interface|168884|นายวรเทพ สิทธิเวทย์|OFFICE|15|01-NOV-16|31-OCT-16|00:00:06.869|Completed
D|Supplier Interface|168917|นายปรัชญ์กฤช โสภาคดิษฐ์|OFFICE|15|01-NOV-16|31-OCT-16|00:00:06.870|Completed
D|Supplier Interface|168926|นายสันติ ไผ่สนจำลองศรี|OFFICE|15|01-NOV-16|31-OCT-16|00:00:06.875|Completed
D|Supplier Interface|168996|คุณเรวดี เจริญสวัสดิ์ศิริ|HO-4603447998|15|01-NOV-16|31-OCT-16|00:00:06.875|Completed
D|Supplier Interface|168996|คุณเรวดี เจริญสวัสดิ์ศิริ|OFFICE|15|01-NOV-16|31-OCT-16|00:00:06.876|Completed
D|Supplier Interface|168998|นายบุญสม โชคท่าพระ|OFFICE|15|01-NOV-16|31-OCT-16|00:00:06.876|Completed
D|Supplier Interface|169068|นางแจ่มจรัส ธนูปมัย|OFFICE|15|01-NOV-16|31-OCT-16|00:00:06.879|Completed
D|Supplier Interface|169257|คุณพรรณงาม นิลประภา|OFFICE|15|01-NOV-16|31-OCT-16|00:00:06.880|Completed
D|Supplier Interface|169257|คุณพรรณงาม นิลประภา|P-459-2-27449-4|7|01-NOV-16|31-OCT-16|00:00:06.880|Completed
D|Supplier Interface|169338|นายจักรกฤษณ์ พุทธิลิมปนานนท์|OFFICE|15|01-NOV-16|31-OCT-16|00:00:06.881|Completed
D|Supplier Interface|169405|นายนครินทร์ กฤษณกาญจน์|OFFICE|15|01-NOV-16|31-OCT-16|00:00:06.881|Completed
D|Supplier Interface|169405|นายนครินทร์ กฤษณกาญจน์|OFFICE|Immediately|01-NOV-16|31-OCT-16|00:00:06.882|Completed
D|Supplier Interface|169422|นางสาวชนิตา โรหิตสุข|OFFICE|15|01-NOV-16|31-OCT-16|00:00:06.882|Completed
D|Supplier Interface|169422|นางสาวชนิตา โรหิตสุข|OFFICE|Immediately|01-NOV-16|31-OCT-16|00:00:06.883|Completed
D|Supplier Interface|169506|นางสาวสุภาภรณ์ อัศวไมตรี|OFFICE|15|01-NOV-16|31-OCT-16|00:00:06.883|Completed
D|Supplier Interface|169566|นางสาวศรีอมร ลี้สุวรรณกุล|OFFICE|15|01-NOV-16|31-OCT-16|00:00:06.883|Completed
D|Supplier Interface|169566|นางสาวศรีอมร ลี้สุวรรณกุล|P-4592275034|Immediately|01-NOV-16|31-OCT-16|00:00:06.884|Completed
D|Supplier Interface|169631|คุณพรรณวดี  กุลพานิช|HO-4608570649|Immediately|01-NOV-16|31-OCT-16|00:00:06.884|Completed
D|Supplier Interface|169631|คุณพรรณวดี  กุลพานิช|OFFICE|15|01-NOV-16|31-OCT-16|00:00:06.885|Completed
D|Supplier Interface|169631|คุณพรรณวดี  กุลพานิช|P-459-2-27326-0|7|01-NOV-16|31-OCT-16|00:00:06.885|Completed
D|Supplier Interface|169684|นางสาวสุนีย์ แสงสูง|OFFICE|15|01-NOV-16|31-OCT-16|00:00:06.886|Completed
D|Supplier Interface|169695|นายนิคม ขำกิ่ง|OFFICE|15|01-NOV-16|31-OCT-16|00:00:06.886|Completed
D|Supplier Interface|169707|คุณสุจินดา  ชัยวัน|HO-4609100366|Immediately|01-NOV-16|31-OCT-16|00:00:06.886|Completed
D|Supplier Interface|169707|คุณสุจินดา  ชัยวัน|OFFICE|15|01-NOV-16|31-OCT-16|00:00:06.887|Completed
D|Supplier Interface|169707|คุณสุจินดา  ชัยวัน|P-459-2-27333-3|7|01-NOV-16|31-OCT-16|00:00:06.887|Completed
D|Supplier Interface|169730|คุณเปมิกา จิรายุเจริญศักดิ์|OFFICE|15|01-NOV-16|31-OCT-16|00:00:06.888|Completed
D|Supplier Interface|169730|คุณเปมิกา จิรายุเจริญศักดิ์|P-459-2-27302-4|7|01-NOV-16|31-OCT-16|00:00:06.888|Completed
D|Supplier Interface|170054|ARTCHAREEYA, MRS. PHANNARAI|OFFICE|15|01-NOV-16|31-OCT-16|00:00:06.888|Completed
D|Supplier Interface|170231|นางสาวพิมพ์ปิตา นรัฐกิจ|HO|7|01-NOV-16|31-OCT-16|00:00:06.889|Completed
D|Supplier Interface|170231|นางสาวพิมพ์ปิตา นรัฐกิจ|OFFICE|15|01-NOV-16|31-OCT-16|00:00:06.889|Completed
D|Supplier Interface|170312|KORAWAN  THAMRONGPOLTHEERAPAB|OFFICE|15|01-NOV-16|31-OCT-16|00:00:06.890|Completed
D|Supplier Interface|170358|นางสาวกลิ่นขจร ชมรักษ์|OFFICE|15|01-NOV-16|31-OCT-16|00:00:06.890|Completed
D|Supplier Interface|170449|นางสาวสุรีรัตน์ สุวถาวรสกุล|OFFICE|15|01-NOV-16|31-OCT-16|00:00:06.890|Completed
D|Supplier Interface|170550|นายเวชยุทธ แสงประสิทธิ์|DTAC-W|15|01-NOV-16|31-OCT-16|00:00:06.891|Completed
D|Supplier Interface|170550|นายเวชยุทธ แสงประสิทธิ์|OFFICE|15|01-NOV-16|31-OCT-16|00:00:06.891|Completed
D|Supplier Interface|170550|นายเวชยุทธ แสงประสิทธิ์|OFFICE|15|01-NOV-16|31-OCT-16|00:00:06.892|Completed
D|Supplier Interface|170584|นายธีรมิตร สุวรรณธรรมา|OFFICE|15|01-NOV-16|31-OCT-16|00:00:06.892|Completed
D|Supplier Interface|170818|นายฉัตรชัย สิริศักดานุสรณ์|OFFICE|15|01-NOV-16|31-OCT-16|00:00:06.892|Completed
D|Supplier Interface|171181|นางสาวฉัตร์รวี ศักดิ์รัฐนนท์|OFFICE|15|01-NOV-16|31-OCT-16|00:00:06.893|Completed
D|Supplier Interface|171863|นิติบุคคลอาคารชุด สกุลไทย สุรวงศ์ ทาวเวอร์|CELLSITE|Immediately|01-NOV-16|31-OCT-16|00:00:06.893|Completed
D|Supplier Interface|171863|นิติบุคคลอาคารชุด สกุลไทย สุรวงศ์ ทาวเวอร์|DTN-CELLSITE|15|01-NOV-16|31-OCT-16|00:00:06.894|Completed
D|Supplier Interface|171863|นิติบุคคลอาคารชุด สกุลไทย สุรวงศ์ ทาวเวอร์|HO|Immediately|01-NOV-16|31-OCT-16|00:00:06.894|Completed
D|Supplier Interface|172242|Pattawan Onpa|OFFICE|15|01-NOV-16|31-OCT-16|00:00:06.894|Completed
D|Supplier Interface|172763|นางสาวรสสุคนธ์ ธนวิภาคะนนท์|HO|15|01-NOV-16|31-OCT-16|00:00:06.895|Completed
D|Supplier Interface|172763|นางสาวรสสุคนธ์ ธนวิภาคะนนท์|OFFICE|7|01-NOV-16|31-OCT-16|00:00:06.895|Completed
D|Supplier Interface|173448|บริษัท แอล แอนด์ เอช พร็อพเพอร์ตี้ จำกัด|CELLSITE|Immediately|01-NOV-16|31-OCT-16|00:00:06.896|Completed
D|Supplier Interface|173448|บริษัท แอล แอนด์ เอช พร็อพเพอร์ตี้ จำกัด|CELLSITE-HO|Immediately|01-NOV-16|31-OCT-16|00:00:06.896|Completed
D|Supplier Interface|173448|บริษัท แอล แอนด์ เอช พร็อพเพอร์ตี้ จำกัด|DTN-CELLSITE|Immediately|01-NOV-16|31-OCT-16|00:00:06.897|Completed
D|Supplier Interface|173448|บริษัท แอล แอนด์ เอช พร็อพเพอร์ตี้ จำกัด|HO|Immediately|01-NOV-16|31-OCT-16|00:00:06.897|Completed
D|Supplier Interface|173448|บริษัท แอล แอนด์ เอช พร็อพเพอร์ตี้ จำกัด|HOA|Immediately|01-NOV-16|31-OCT-16|00:00:06.897|Completed
D|Supplier Interface|173563|KANNIKA, KAWDANGMEECHAI|OFFICE|15|01-NOV-16|31-OCT-16|00:00:06.898|Completed
D|Supplier Interface|174628|บริษัท รามาแลนด์ ดีเวลอพเมนท์ จำกัด|DTN-CELLSITE|15|01-NOV-16|31-OCT-16|00:00:06.898|Completed
D|Supplier Interface|176655|คุณพนิดา ลิ้มสุชัยวัฒน์|CELLSITE|Immediately|01-NOV-16|31-OCT-16|00:00:06.899|Completed
D|Supplier Interface|176655|คุณพนิดา ลิ้มสุชัยวัฒน์|CELLSITE-SMT|Immediately|01-NOV-16|31-OCT-16|00:00:06.899|Completed
D|Supplier Interface|176655|คุณพนิดา ลิ้มสุชัยวัฒน์|CELLSITE-TAX|30 Days|01-NOV-16|31-OCT-16|00:00:06.899|Completed
D|Supplier Interface|176655|คุณพนิดา ลิ้มสุชัยวัฒน์|DTN-CELLSITE|Immediately|01-NOV-16|31-OCT-16|00:00:06.900|Completed
D|Supplier Interface|176655|คุณพนิดา ลิ้มสุชัยวัฒน์|HO|Immediately|01-NOV-16|31-OCT-16|00:00:06.900|Completed
D|Supplier Interface|179409|RAWEEPUN, PITAKCHATIWONG|HO|Immediately|01-NOV-16|31-OCT-16|00:00:06.901|Completed
D|Supplier Interface|179409|RAWEEPUN, PITAKCHATIWONG|OFFICE|15|01-NOV-16|31-OCT-16|00:00:06.901|Completed
D|Supplier Interface|180523|นิติบุคคลอาคารชุด เดอะ วอเตอร์ฟอร์ด ไดมอนด์ สุขุมวิท 30/1|HO|15|01-NOV-16|31-OCT-16|00:00:06.902|Completed
D|Supplier Interface|181136|คุณอัญชลีพร ปุณโณทก|HO|Immediately|01-NOV-16|31-OCT-16|00:00:06.902|Completed
D|Supplier Interface|181136|คุณอัญชลีพร ปุณโณทก|OFFICE|15|01-NOV-16|31-OCT-16|00:00:06.902|Completed
D|Supplier Interface|181195|บริษัท กรีนเน็ต 1282 จำกัด|DTAC-N|60|01-NOV-16|31-OCT-16|00:00:06.903|Completed
D|Supplier Interface|181195|บริษัท กรีนเน็ต 1282 จำกัด|HO|60|01-NOV-16|31-OCT-16|00:00:06.914|Completed
D|Supplier Interface|181741|คุณศรุต  วานิชพันธุ์|HO|15|01-NOV-16|31-OCT-16|00:00:06.915|Completed
D|Supplier Interface|181741|คุณศรุต  วานิชพันธุ์|HOA|Immediately|01-NOV-16|31-OCT-16|00:00:06.916|Completed
D|Supplier Interface|181741|คุณศรุต  วานิชพันธุ์|OFFICE|15|01-NOV-16|31-OCT-16|00:00:06.916|Completed
D|Supplier Interface|183081|PORNRAT, TECHATHIKARN|OFFICE|15|01-NOV-16|31-OCT-16|00:00:06.917|Completed
D|Supplier Interface|183633|ADITHEP, SUKPRASERT|OFFICE|15|01-NOV-16|31-OCT-16|00:00:06.917|Completed
D|Supplier Interface|183823|PANYA, VECHBANYONGRATANA|OFFICE|15|01-NOV-16|31-OCT-16|00:00:06.918|Completed
D|Supplier Interface|184776|คุณชุลีพร อุลปาทร|HO1|Immediately|01-NOV-16|31-OCT-16|00:00:06.918|Completed
D|Supplier Interface|184776|คุณชุลีพร อุลปาทร|HO2|Immediately|01-NOV-16|31-OCT-16|00:00:06.919|Completed
D|Supplier Interface|184776|คุณชุลีพร อุลปาทร|N01|Immediately|01-NOV-16|31-OCT-16|00:00:06.920|Completed
D|Supplier Interface|184776|คุณชุลีพร อุลปาทร|N02|Immediately|01-NOV-16|31-OCT-16|00:00:06.920|Completed
D|Supplier Interface|184776|คุณชุลีพร อุลปาทร|P01|Immediately|01-NOV-16|31-OCT-16|00:00:06.921|Completed
D|Supplier Interface|184776|คุณชุลีพร อุลปาทร|P02|Immediately|01-NOV-16|31-OCT-16|00:00:06.922|Completed
D|Supplier Interface|185143|บริษัท ฮิต แมน จำกัด|DTAC-N|30|01-NOV-16|31-OCT-16|00:00:06.922|Completed
D|Supplier Interface|185143|บริษัท ฮิต แมน จำกัด|HO|30|01-NOV-16|31-OCT-16|00:00:06.923|Completed
D|Supplier Interface|186662|บริษัท ยิ่งใหญ่ เซ็นเตอร์ จำกัด|DTN-CELLSITE|15|01-NOV-16|31-OCT-16|00:00:06.923|Completed
D|Supplier Interface|192021|บริษัท โฟโนไรทส์ (ไทยแลนด์) จำกัด|DTAC-N|30|01-NOV-16|31-OCT-16|00:00:06.924|Completed
D|Supplier Interface|192021|บริษัท โฟโนไรทส์ (ไทยแลนด์) จำกัด|HO|30|01-NOV-16|31-OCT-16|00:00:06.925|Completed
D|Supplier Interface|197004|THANTIP, PERMSUB|OFFICE|15|01-NOV-16|31-OCT-16|00:00:06.925|Completed
D|Supplier Interface|197004|THANTIP, PERMSUB|OFFICE|15|01-NOV-16|31-OCT-16|00:00:06.926|Completed
D|Supplier Interface|199838|JARUNEE, PONGSATHORN|HO.-4603448211|7|01-NOV-16|31-OCT-16|00:00:06.927|Completed
D|Supplier Interface|199838|JARUNEE, PONGSATHORN|OFFICE|15|01-NOV-16|31-OCT-16|00:00:06.927|Completed
D|Supplier Interface|200370|คุณดนัย  หาญจริง|OFFICE|15|01-NOV-16|31-OCT-16|00:00:06.928|Completed
D|Supplier Interface|200370|คุณดนัย  หาญจริง|OFFICE|15|01-NOV-16|31-OCT-16|00:00:06.929|Completed
D|Supplier Interface|200370|คุณดนัย  หาญจริง|OFFICE|15|01-NOV-16|31-OCT-16|00:00:06.929|Completed
D|Supplier Interface|201057|BOONWADEE, INTRAPRASART|HO-4603820502|Immediately|01-NOV-16|31-OCT-16|00:00:06.930|Completed
D|Supplier Interface|201057|BOONWADEE, INTRAPRASART|OFFICE|15|01-NOV-16|31-OCT-16|00:00:06.930|Completed
D|Supplier Interface|201057|BOONWADEE, INTRAPRASART|OFFICE|15|01-NOV-16|31-OCT-16|00:00:06.931|Completed
D|Supplier Interface|201831|คุณณตพล หาญตระกูลยืนยง|CELLSITE|Immediately|01-NOV-16|31-OCT-16|00:00:06.932|Completed
D|Supplier Interface|201831|คุณณตพล หาญตระกูลยืนยง|CELLSITE-SMT|Immediately|01-NOV-16|31-OCT-16|00:00:06.932|Completed
D|Supplier Interface|201831|คุณณตพล หาญตระกูลยืนยง|DTN-CELLSITE|Immediately|01-NOV-16|31-OCT-16|00:00:06.933|Completed
D|Supplier Interface|201831|คุณณตพล หาญตระกูลยืนยง|HO|Immediately|01-NOV-16|31-OCT-16|00:00:06.933|Completed
D|Supplier Interface|202908|KAMONKAN, LAKSANA|OFFICE|15|01-NOV-16|31-OCT-16|00:00:06.934|Completed
D|Supplier Interface|204323|คุณธีราภัทร์ ทะรักษา|OFFICE|Immediately|01-NOV-16|31-OCT-16|00:00:06.935|Completed
D|Supplier Interface|205684|บริษัท ไอคอนนิค คลับบลิ่ง สตูดิโอ จำกัด|DTAC-N|30|01-NOV-16|31-OCT-16|00:00:06.935|Completed
D|Supplier Interface|205684|บริษัท ไอคอนนิค คลับบลิ่ง สตูดิโอ จำกัด|HO|30|01-NOV-16|31-OCT-16|00:00:06.936|Completed
D|Supplier Interface|206057|WITTHAYA, VIBOONVITTAYANAN|OFFICE|15|01-NOV-16|31-OCT-16|00:00:06.937|Completed
D|Supplier Interface|206066|คุณจิรภัทร  ไชยเลิศ|OFFICE|15|01-NOV-16|31-OCT-16|00:00:06.937|Completed
D|Supplier Interface|206066|คุณจิรภัทร  ไชยเลิศ|OFFICE-5000|15|01-NOV-16|31-OCT-16|00:00:06.938|Completed
D|Supplier Interface|206066|คุณจิรภัทร  ไชยเลิศ|P-4592273765|7|01-NOV-16|31-OCT-16|00:00:06.939|Completed
D|Supplier Interface|206662|TAWEESAK, SAKSRISANGUAN|OFFICE|15|01-NOV-16|31-OCT-16|00:00:06.939|Completed
D|Supplier Interface|208510|CHADANAT, NILSAKHA|OFFICE|15|01-NOV-16|31-OCT-16|00:00:06.940|Completed
D|Supplier Interface|208510|CHADANAT, NILSAKHA|OFFICE|15|01-NOV-16|31-OCT-16|00:00:06.940|Completed
D|Supplier Interface|208571|คุณสุรศักดิ์ ตาบสุวรรณ|CELLSITE|Immediately|01-NOV-16|31-OCT-16|00:00:06.941|Completed
D|Supplier Interface|208571|คุณสุรศักดิ์ ตาบสุวรรณ|CELLSITE-HO|Immediately|01-NOV-16|31-OCT-16|00:00:06.941|Completed
D|Supplier Interface|208571|คุณสุรศักดิ์ ตาบสุวรรณ|CELLSITE-SMT|Immediately|01-NOV-16|31-OCT-16|00:00:06.942|Completed
D|Supplier Interface|208571|คุณสุรศักดิ์ ตาบสุวรรณ|DTN-CELLSITE|Immediately|01-NOV-16|31-OCT-16|00:00:06.942|Completed
D|Supplier Interface|209437|SASIKARN, VIRAVAN|OFFICE|15|01-NOV-16|31-OCT-16|00:00:06.943|Completed
D|Supplier Interface|209438|TEERANAI, PHUKIAT|OFFICE|15|01-NOV-16|31-OCT-16|00:00:06.943|Completed
D|Supplier Interface|209504|POTCHAKORN, SEESON|OFFICE|15|01-NOV-16|31-OCT-16|00:00:06.944|Completed
D|Supplier Interface|209538|SUNISA SIVARAKSA|OFFICE|15|01-NOV-16|31-OCT-16|00:00:06.945|Completed
D|Supplier Interface|209912|คุณชณุตพร วงศ์เมืองใจ|OFFICE|15|01-NOV-16|31-OCT-16|00:00:06.945|Completed
D|Supplier Interface|210399|MANIDA, THIENSIRIPIPAT|HOA|Immediately|01-NOV-16|31-OCT-16|00:00:06.946|Completed
D|Supplier Interface|210399|MANIDA, THIENSIRIPIPAT|OFFICE|15|01-NOV-16|31-OCT-16|00:00:06.947|Completed
D|Supplier Interface|211474|PATCHAREE, HONGTON|OFFICE|15|01-NOV-16|31-OCT-16|00:00:06.948|Completed
D|Supplier Interface|218782|บริษัท โกลเด้น อาวล์ เมเนจเม้นท์ จำกัด|DTAC-N|30|01-NOV-16|31-OCT-16|00:00:06.948|Completed
D|Supplier Interface|218782|บริษัท โกลเด้น อาวล์ เมเนจเม้นท์ จำกัด|HO|30|01-NOV-16|31-OCT-16|00:00:06.949|Completed
D|Supplier Interface|221095|WUTINON, TRISRISAK|OFFICE|15|01-NOV-16|31-OCT-16|00:00:06.950|Completed
D|Supplier Interface|221469|คุณจันทรา กาญจนปัญญาคม|CELLSITE|Immediately|01-NOV-16|31-OCT-16|00:00:06.950|Completed
D|Supplier Interface|221469|คุณจันทรา กาญจนปัญญาคม|CELLSITE-HO|Immediately|01-NOV-16|31-OCT-16|00:00:06.951|Completed
D|Supplier Interface|221469|คุณจันทรา กาญจนปัญญาคม|CELLSITE-SMT|Immediately|01-NOV-16|31-OCT-16|00:00:06.952|Completed
D|Supplier Interface|221469|คุณจันทรา กาญจนปัญญาคม|CELLSITE-TAX|30 Days|01-NOV-16|31-OCT-16|00:00:06.952|Completed
D|Supplier Interface|221469|คุณจันทรา กาญจนปัญญาคม|DTN-CELLSITE|Immediately|01-NOV-16|31-OCT-16|00:00:06.953|Completed
D|Supplier Interface|221671|WARAKKAPON, KESSUWAN|OFFICE|15|01-NOV-16|31-OCT-16|00:00:06.953|Completed
D|Supplier Interface|222745|NATTAPORN, NOIBUMNET|OFFICE|15|01-NOV-16|31-OCT-16|00:00:06.965|Completed
D|Supplier Interface|227504|คุณจารุมาศ สุระเสียง|OFFICE|15|01-NOV-16|31-OCT-16|00:00:06.966|Completed
D|Supplier Interface|227504|คุณจารุมาศ สุระเสียง|OFFICE|7|01-NOV-16|31-OCT-16|00:00:06.967|Completed
D|Supplier Interface|228639|NAPAK, CHUMPROM|OFFICE|15|01-NOV-16|31-OCT-16|00:00:06.967|Completed
D|Supplier Interface|229839|PUTTHINUN, SAWASRATANATHON|OFFICE|15|01-NOV-16|31-OCT-16|00:00:06.968|Completed
D|Supplier Interface|229844|PRUKSA, VASANTAKITKUMJORN|OFFICE|15|01-NOV-16|31-OCT-16|00:00:06.968|Completed
D|Supplier Interface|229844|PRUKSA, VASANTAKITKUMJORN|OFFICE|15|01-NOV-16|31-OCT-16|00:00:06.969|Completed
D|Supplier Interface|235222|THANYAWAN, PHORNPRATHANEE|OFFICE|15|01-NOV-16|31-OCT-16|00:00:06.970|Completed
D|Supplier Interface|236940|คุณวิชชา ขำเจริญ|DTN-CELLSITE|15|01-NOV-16|31-OCT-16|00:00:06.970|Completed
D|Supplier Interface|237114|CHANCHAI, CHAMCHOY|OFFICE|15|01-NOV-16|31-OCT-16|00:00:06.971|Completed
D|Supplier Interface|239845|บริษัท การีนา ออนไลน์ (ประเทศไทย) จำกัด|HO|60|01-NOV-16|31-OCT-16|00:00:06.971|Completed
D|Supplier Interface|240653|นางปวีณา  คัคนะคุปต์ (ผู้รับความยินยอม)|DTN-CELLSITE|15|01-NOV-16|31-OCT-16|00:00:06.972|Completed
D|Supplier Interface|241654|คุณอภิญญา มาลัยลอย|HO1|Immediately|01-NOV-16|31-OCT-16|00:00:06.973|Completed
D|Supplier Interface|241654|คุณอภิญญา มาลัยลอย|N01|Immediately|01-NOV-16|31-OCT-16|00:00:06.973|Completed
D|Supplier Interface|241654|คุณอภิญญา มาลัยลอย|P01|Immediately|01-NOV-16|31-OCT-16|00:00:06.974|Completed
D|Supplier Interface|242042|คุณวลัญช์พัชร นาคะประวิง|HO-4590222239|15|01-NOV-16|31-OCT-16|00:00:06.974|Completed
D|Supplier Interface|242042|คุณวลัญช์พัชร นาคะประวิง|OFFICE|15|01-NOV-16|31-OCT-16|00:00:06.975|Completed
D|Supplier Interface|242042|คุณวลัญช์พัชร นาคะประวิง|P-459-2-27306-6|7|01-NOV-16|31-OCT-16|00:00:06.976|Completed
D|Supplier Interface|242195|คุณปิยณัชชา คงอินทร์|HO4590964289|Immediately|01-NOV-16|31-OCT-16|00:00:06.977|Completed
D|Supplier Interface|242195|คุณปิยณัชชา คงอินทร์|HO4590964297|Immediately|01-NOV-16|31-OCT-16|00:00:06.979|Completed
D|Supplier Interface|242195|คุณปิยณัชชา คงอินทร์|OFFICE|15|01-NOV-16|31-OCT-16|00:00:06.980|Completed
D|Supplier Interface|242195|คุณปิยณัชชา คงอินทร์|OFFICE|7|01-NOV-16|31-OCT-16|00:00:06.981|Completed
D|Supplier Interface|242195|คุณปิยณัชชา คงอินทร์|P-459-2-27309-0|7|01-NOV-16|31-OCT-16|00:00:06.982|Completed
D|Supplier Interface|242195|คุณปิยณัชชา คงอินทร์|P-459-2-27446-0|7|01-NOV-16|31-OCT-16|00:00:06.982|Completed
D|Supplier Interface|242712|PAWINEE, KANKRATHOK|OFFICE|15|01-NOV-16|31-OCT-16|00:00:06.983|Completed
D|Supplier Interface|243247|KAWIN, SOMPONG|OFFICE|15|01-NOV-16|31-OCT-16|00:00:06.983|Completed
D|Supplier Interface|243764|CHUTIKARN, LOHA|OFFICE|15|01-NOV-16|31-OCT-16|00:00:06.984|Completed
D|Supplier Interface|243764|CHUTIKARN, LOHA|OFFICE|15|01-NOV-16|31-OCT-16|00:00:06.985|Completed
D|Supplier Interface|246391|KOWIN, KLINGIN|OFFICE|15|01-NOV-16|31-OCT-16|00:00:06.985|Completed
D|Supplier Interface|250099|THITIMA, KRONGSUK|OFFICE|15|01-NOV-16|31-OCT-16|00:00:06.986|Completed
D|Supplier Interface|252218|นายตรีปัตปาลซิงห์  สัจเดย์ (ผู้รับความยินยอม)|DTN-CELLSITE|15|01-NOV-16|31-OCT-16|00:00:06.987|Completed
D|Supplier Interface|256931|นายสุรกานต์  กาญจนพิบูลย์ ( ผู้รับความยินยอม )|DTN-CELLSITE|15|01-NOV-16|31-OCT-16|00:00:06.987|Completed
D|Supplier Interface|258268|PHUTTHAPHOL, DOKPHIKUL|OFFICE|15|01-NOV-16|31-OCT-16|00:00:06.988|Completed
D|Supplier Interface|263598|PREEDA, AUYJINDA|OFFICE|15|01-NOV-16|31-OCT-16|00:00:06.989|Completed
D|Supplier Interface|277038|วันเพ็ญ ชูแผ้ว|HO2|Immediately|01-NOV-16|31-OCT-16|00:00:06.989|Completed
D|Supplier Interface|277038|วันเพ็ญ ชูแผ้ว|N02|Immediately|01-NOV-16|31-OCT-16|00:00:06.990|Completed
D|Supplier Interface|277038|วันเพ็ญ ชูแผ้ว|P02|Immediately|01-NOV-16|31-OCT-16|00:00:06.990|Completed
D|Supplier Interface|280343|NARUMON, LALITPHONGKAWIN|OFFICE|15|01-NOV-16|31-OCT-16|00:00:06.991|Completed
D|Supplier Interface|281209|ร.อ.ชัชพงค์ สุขายะ|DTN-CELLSITE|30|01-NOV-16|31-OCT-16|00:00:06.991|Completed
D|Supplier Interface|285910|ห้างหุ้นส่วนจำกัด  เอสเอ็มทีวี โฮมอีเล็คทริค|HO|60|01-NOV-16|31-OCT-16|00:00:06.992|Completed
D|Supplier Interface|286585|ATHIKOM, JITTAVANICHPRAPHA|OFFICE|15|01-NOV-16|31-OCT-16|00:00:06.992|Completed
D|Supplier Interface|287402|คุณธาริณี ชาญชยศึก|OFFICE|15|01-NOV-16|31-OCT-16|00:00:06.993|Completed
D|Supplier Interface|287402|คุณธาริณี ชาญชยศึก|P-4592274931|15|01-NOV-16|31-OCT-16|00:00:06.994|Completed
D|Supplier Interface|287516|บริษัท พาโลมาร์ ซิสเต็มส์ จำกัด|HO|60|01-NOV-16|31-OCT-16|00:00:06.994|Completed
D|Supplier Interface|288520|AKLAVIT, CHONGSWATVORAKUL|OFFICE|15|01-NOV-16|31-OCT-16|00:00:06.995|Completed
D|Supplier Interface|288538|น.ส.นรีกานต์  อรชร |HO2|Immediately|01-NOV-16|31-OCT-16|00:00:06.996|Completed
D|Supplier Interface|288538|น.ส.นรีกานต์  อรชร |N02|Immediately|01-NOV-16|31-OCT-16|00:00:06.997|Completed
D|Supplier Interface|288538|น.ส.นรีกานต์  อรชร |P02|Immediately|01-NOV-16|31-OCT-16|00:00:06.997|Completed
D|Supplier Interface|288743|VIWAT, TEMSUHTHAWIN|OFFICE|15|01-NOV-16|31-OCT-16|00:00:06.998|Completed
D|Supplier Interface|289480|คุณอรอนงค์   เสนเสนา|HO2|Immediately|01-NOV-16|31-OCT-16|00:00:06.998|Completed
D|Supplier Interface|289480|คุณอรอนงค์   เสนเสนา|N02|Immediately|01-NOV-16|31-OCT-16|00:00:06.999|Completed
D|Supplier Interface|289480|คุณอรอนงค์   เสนเสนา|P02|Immediately|01-NOV-16|31-OCT-16|00:00:07.000|Completed
D|Supplier Interface|289600|บริษัท นิวส์ เน็ตเวิร์ค คอร์ปอเรชั่น จำกัด|DTAC-N|60|01-NOV-16|31-OCT-16|00:00:07.000|Completed
D|Supplier Interface|289600|บริษัท นิวส์ เน็ตเวิร์ค คอร์ปอเรชั่น จำกัด|HO|60|01-NOV-16|31-OCT-16|00:00:07.001|Completed
D|Supplier Interface|290050|66948973976 บุญศรี ฟองลม|HO1|Immediately|01-NOV-16|31-OCT-16|00:00:07.002|Completed
D|Supplier Interface|290050|66948973976 บุญศรี ฟองลม|N01|Immediately|01-NOV-16|31-OCT-16|00:00:07.002|Completed
D|Supplier Interface|290050|66948973976 บุญศรี ฟองลม|P01|Immediately|01-NOV-16|31-OCT-16|00:00:07.003|Completed
D|Supplier Interface|290051|โค้ ศรีเดช|HO1|Immediately|01-NOV-16|31-OCT-16|00:00:07.003|Completed
D|Supplier Interface|290051|โค้ ศรีเดช|N01|Immediately|01-NOV-16|31-OCT-16|00:00:07.004|Completed
D|Supplier Interface|290051|โค้ ศรีเดช|P01|Immediately|01-NOV-16|31-OCT-16|00:00:07.005|Completed
D|Supplier Interface|290052|กฤติยา   สมบูรณ์มาก|HO1|Immediately|01-NOV-16|31-OCT-16|00:00:07.005|Completed
D|Supplier Interface|290052|กฤติยา   สมบูรณ์มาก|N01|Immediately|01-NOV-16|31-OCT-16|00:00:07.006|Completed
D|Supplier Interface|290052|กฤติยา   สมบูรณ์มาก|P01|Immediately|01-NOV-16|31-OCT-16|00:00:07.007|Completed
D|Supplier Interface|290053|ขัตติยา นามเหลา|HO1|Immediately|01-NOV-16|31-OCT-16|00:00:07.008|Completed
D|Supplier Interface|290053|ขัตติยา นามเหลา|N01|Immediately|01-NOV-16|31-OCT-16|00:00:07.030|Completed
D|Supplier Interface|290053|ขัตติยา นามเหลา|P01|Immediately|01-NOV-16|31-OCT-16|00:00:07.031|Completed
D|Supplier Interface|290055|จริยา วงศ์สวัสดิ์|HO2|Immediately|01-NOV-16|31-OCT-16|00:00:07.031|Completed
D|Supplier Interface|290055|จริยา วงศ์สวัสดิ์|N02|Immediately|01-NOV-16|31-OCT-16|00:00:07.032|Completed
D|Supplier Interface|290055|จริยา วงศ์สวัสดิ์|P02|Immediately|01-NOV-16|31-OCT-16|00:00:07.032|Completed
D|Supplier Interface|290056|จุฑามาศ หมื่นสุข|HO1|Immediately|01-NOV-16|31-OCT-16|00:00:07.033|Completed
D|Supplier Interface|290056|จุฑามาศ หมื่นสุข|N01|Immediately|01-NOV-16|31-OCT-16|00:00:07.033|Completed
D|Supplier Interface|290056|จุฑามาศ หมื่นสุข|P01|Immediately|01-NOV-16|31-OCT-16|00:00:07.034|Completed
D|Supplier Interface|290057|ณิษฐ์ชาภา จำปาทอง|HO1|Immediately|01-NOV-16|31-OCT-16|00:00:07.035|Completed
D|Supplier Interface|290057|ณิษฐ์ชาภา จำปาทอง|N01|Immediately|01-NOV-16|31-OCT-16|00:00:07.036|Completed
D|Supplier Interface|290057|ณิษฐ์ชาภา จำปาทอง|P01|Immediately|01-NOV-16|31-OCT-16|00:00:07.036|Completed
D|Supplier Interface|290058|ดวงหทัย  กิจวิชา|HO2|Immediately|01-NOV-16|31-OCT-16|00:00:07.037|Completed
D|Supplier Interface|290058|ดวงหทัย  กิจวิชา|N02|Immediately|01-NOV-16|31-OCT-16|00:00:07.038|Completed
D|Supplier Interface|290058|ดวงหทัย  กิจวิชา|P02|Immediately|01-NOV-16|31-OCT-16|00:00:07.038|Completed
D|Supplier Interface|290059|น.ส.สมบูรณ์ หวานเหลือ|HO1|Immediately|01-NOV-16|31-OCT-16|00:00:07.039|Completed
D|Supplier Interface|290059|น.ส.สมบูรณ์ หวานเหลือ|N01|Immediately|01-NOV-16|31-OCT-16|00:00:07.039|Completed
D|Supplier Interface|290059|น.ส.สมบูรณ์ หวานเหลือ|P01|Immediately|01-NOV-16|31-OCT-16|00:00:07.039|Completed
D|Supplier Interface|290061|นาง นิตยา  สาสีเสาร์|HO1|Immediately|01-NOV-16|31-OCT-16|00:00:07.040|Completed
D|Supplier Interface|290061|นาง นิตยา  สาสีเสาร์|N01|Immediately|01-NOV-16|31-OCT-16|00:00:07.040|Completed
D|Supplier Interface|290061|นาง นิตยา  สาสีเสาร์|P01|Immediately|01-NOV-16|31-OCT-16|00:00:07.041|Completed
D|Supplier Interface|290062|นางสุคนธ์   จินดา |HO1|Immediately|01-NOV-16|31-OCT-16|00:00:07.041|Completed
D|Supplier Interface|290062|นางสุคนธ์   จินดา |N01|Immediately|01-NOV-16|31-OCT-16|00:00:07.042|Completed
D|Supplier Interface|290062|นางสุคนธ์   จินดา |P01|Immediately|01-NOV-16|31-OCT-16|00:00:07.042|Completed
D|Supplier Interface|290063|นางเพ็ญทิวา รักรอด|HO1|Immediately|01-NOV-16|31-OCT-16|00:00:07.042|Completed
D|Supplier Interface|290063|นางเพ็ญทิวา รักรอด|N01|Immediately|01-NOV-16|31-OCT-16|00:00:07.043|Completed
D|Supplier Interface|290063|นางเพ็ญทิวา รักรอด|P01|Immediately|01-NOV-16|31-OCT-16|00:00:07.043|Completed
D|Supplier Interface|290066|ปณิดา นุภาพ|HO1|Immediately|01-NOV-16|31-OCT-16|00:00:07.044|Completed
D|Supplier Interface|290066|ปณิดา นุภาพ|N01|Immediately|01-NOV-16|31-OCT-16|00:00:07.044|Completed
D|Supplier Interface|290066|ปณิดา นุภาพ|P01|Immediately|01-NOV-16|31-OCT-16|00:00:07.044|Completed
D|Supplier Interface|290067|ปรียาภรณ์   แก้วทอง|HO1|Immediately|01-NOV-16|31-OCT-16|00:00:07.045|Completed
D|Supplier Interface|290067|ปรียาภรณ์   แก้วทอง|N01|Immediately|01-NOV-16|31-OCT-16|00:00:07.045|Completed
D|Supplier Interface|290067|ปรียาภรณ์   แก้วทอง|P01|Immediately|01-NOV-16|31-OCT-16|00:00:07.046|Completed
D|Supplier Interface|290068|ปัญญาวัฒน์   เจริญธนไพบูรณ์|HO1|Immediately|01-NOV-16|31-OCT-16|00:00:07.046|Completed
D|Supplier Interface|290068|ปัญญาวัฒน์   เจริญธนไพบูรณ์|N01|Immediately|01-NOV-16|31-OCT-16|00:00:07.046|Completed
D|Supplier Interface|290068|ปัญญาวัฒน์   เจริญธนไพบูรณ์|P01|Immediately|01-NOV-16|31-OCT-16|00:00:07.047|Completed
D|Supplier Interface|290069|ปัทมา เจ๊ะหน๊ะ|HO1|Immediately|01-NOV-16|31-OCT-16|00:00:07.047|Completed
D|Supplier Interface|290069|ปัทมา เจ๊ะหน๊ะ|N01|Immediately|01-NOV-16|31-OCT-16|00:00:07.048|Completed
D|Supplier Interface|290069|ปัทมา เจ๊ะหน๊ะ|P01|Immediately|01-NOV-16|31-OCT-16|00:00:07.048|Completed
D|Supplier Interface|290070|ปิยกานต์ บุษบา|HO1|Immediately|01-NOV-16|31-OCT-16|00:00:07.048|Completed
D|Supplier Interface|290070|ปิยกานต์ บุษบา|N01|Immediately|01-NOV-16|31-OCT-16|00:00:07.049|Completed
D|Supplier Interface|290070|ปิยกานต์ บุษบา|P01|Immediately|01-NOV-16|31-OCT-16|00:00:07.050|Completed
D|Supplier Interface|290071|ผกาวรรณ  แก้วเขียว|HO1|Immediately|01-NOV-16|31-OCT-16|00:00:07.050|Completed
D|Supplier Interface|290071|ผกาวรรณ  แก้วเขียว|N01|Immediately|01-NOV-16|31-OCT-16|00:00:07.050|Completed
D|Supplier Interface|290071|ผกาวรรณ  แก้วเขียว|P01|Immediately|01-NOV-16|31-OCT-16|00:00:07.051|Completed
D|Supplier Interface|290073|พัฒณา  มะลิวัลย์|HO2|Immediately|01-NOV-16|31-OCT-16|00:00:07.051|Completed
D|Supplier Interface|290073|พัฒณา  มะลิวัลย์|N02|Immediately|01-NOV-16|31-OCT-16|00:00:07.052|Completed
D|Supplier Interface|290073|พัฒณา  มะลิวัลย์|P02|Immediately|01-NOV-16|31-OCT-16|00:00:07.052|Completed
D|Supplier Interface|290074|ภานุวัฒน์ ชัยชูชาติ|HO1|Immediately|01-NOV-16|31-OCT-16|00:00:07.052|Completed
D|Supplier Interface|290074|ภานุวัฒน์ ชัยชูชาติ|N01|Immediately|01-NOV-16|31-OCT-16|00:00:07.053|Completed
D|Supplier Interface|290074|ภานุวัฒน์ ชัยชูชาติ|P01|Immediately|01-NOV-16|31-OCT-16|00:00:07.053|Completed
D|Supplier Interface|290075|ยุวดี  คีรีวงค์|HO1|Immediately|01-NOV-16|31-OCT-16|00:00:07.054|Completed
D|Supplier Interface|290075|ยุวดี  คีรีวงค์|N01|Immediately|01-NOV-16|31-OCT-16|00:00:07.054|Completed
D|Supplier Interface|290075|ยุวดี  คีรีวงค์|P01|Immediately|01-NOV-16|31-OCT-16|00:00:07.055|Completed
D|Supplier Interface|290076|รสสุคนธ์  โพธิ์ทอง|HO1|Immediately|01-NOV-16|31-OCT-16|00:00:07.055|Completed
D|Supplier Interface|290076|รสสุคนธ์  โพธิ์ทอง|N01|Immediately|01-NOV-16|31-OCT-16|00:00:07.055|Completed
D|Supplier Interface|290076|รสสุคนธ์  โพธิ์ทอง|P01|Immediately|01-NOV-16|31-OCT-16|00:00:07.056|Completed
D|Supplier Interface|290078|ศุภชัย จิตสกูล|HO1|Immediately|01-NOV-16|31-OCT-16|00:00:07.056|Completed
D|Supplier Interface|290078|ศุภชัย จิตสกูล|N01|Immediately|01-NOV-16|31-OCT-16|00:00:07.057|Completed
D|Supplier Interface|290078|ศุภชัย จิตสกูล|P01|Immediately|01-NOV-16|31-OCT-16|00:00:07.057|Completed
D|Supplier Interface|290079|สมาน  สุขจันทร์|HO1|Immediately|01-NOV-16|31-OCT-16|00:00:07.058|Completed
D|Supplier Interface|290079|สมาน  สุขจันทร์|N01|Immediately|01-NOV-16|31-OCT-16|00:00:07.058|Completed
D|Supplier Interface|290079|สมาน  สุขจันทร์|P01|Immediately|01-NOV-16|31-OCT-16|00:00:07.059|Completed
D|Supplier Interface|290080|สันติยา คงดี|HO1|Immediately|01-NOV-16|31-OCT-16|00:00:07.059|Completed
D|Supplier Interface|290080|สันติยา คงดี|N01|Immediately|01-NOV-16|31-OCT-16|00:00:07.060|Completed
