﻿OrgCode|GROUP_NAME|SOURCE|INVOICE_TYPE_LOOKUP_CODE|VENDOR_NUM|VENDOR_SITE_CODE|INVOICE_NUM|INVOICE_DATE|DOC_CATEGORY_CODE|INVOICE_CURRENCY_CODE|INVOICE_AMOUNT|GL_DATE|INVOICE_DESCRIPTION|TERMS_NAME|PAYMENT_METHOD_LOOKUP_CODE|LINE_NUMBER|LINE_TYPE_LOOKUP_CODE|LINE_AMOUNT|LINE_TAX_CODE|AWT_GROUP_NAME|DIST_CODE_CONCATINATED|LINE_DESCRIPTION|ACT_VENDOR_NUM|ACT_VENDOR_SITE_CODE|REPORTING_ENTITY|TAX_INVOICE_DATE|TAX_INVOICE_NUM|TAX_ACCT_PERIOD|WHT_ACCT_PERIOD|PHOR_NGOR_DOR|WHT_CONDITION|WHT_REVENUE_TYPE|WHT_REVENUE_NAME|PROJECT_NUMBER|PROJECT_TASK_NUMBER|EXPENDITURE_TYPE|EXPENDITURE_ORGANIZATION|EAI_CRTD_DTTM|PAYEE|MAIL_TO_NAME|MAIL_TO_ADDRESS1|MAIL_TO_ADDRESS2|MAIL_TO_ADDRESS3|MAIL_TO_ADDRESS4|PO_NUMBER|PO_LINE_NUMBER|RECEIPT_NUMBER|RECEIPT_LINE_NUMBER|PR NUMBER|PR LINE NUMBER|MATCH_OPTION|BILL_PLACEMENT_DATE
DTAC|FXTH_2W_20161221_0300|FXTH|STANDARD|124681|HO|SN16-0012|26/10/2016|IN10|THB|15814.17|21/12/2016||30 Days|CHECK|1|ITEM|15814.17||||||||||||||||||||21/12/2016|||||||||||10160024991|1|P|23/11/2016
DTAC|FXTH_2W_20161221_0300|FXTH|STANDARD|124681|HO|SN16-0013|23/11/2016|IN10|THB|21528.8|21/12/2016||30 Days|CHECK|1|ITEM|21528.8||||||||||||||||||||21/12/2016|||||||||||10160026433|1|P|14/12/2016
DTAC|FXTH_2W_20161221_0300|FXTH|STANDARD|253282|HO1|591212-001|12/12/2016|IN10|THB|44500|21/12/2016||30 Days|CHECK|1|ITEM|41588.78||||||||||||||||||||21/12/2016|||||||||||10160027851|1|P|19/12/2016
DTAC|FXTH_2W_20161221_0300|FXTH|STANDARD|145519|HO|1612-AR0001|09/12/2016|IN10|THB|384130|21/12/2016||30 Days|CHECK|1|ITEM|359000||||||||||||||||||||21/12/2016|||||||||||10160028497|1|P|19/12/2016
DTAC|FXTH_2W_20161221_0300|FXTH|STANDARD|174243|HO|TV-09000641|30/09/2016|IN10|THB|160500|21/12/2016||15|CHECK|1|ITEM|150000||||||||||||||||||||21/12/2016|||||||||||10160027276|1|P|20/12/2016
DTN|FXTH_2W_20161221_0300|FXTH|STANDARD|288516|DTAC-N|PTSIV5912-00001|16/12/2016|DTACN-IN|THB|34027.7|21/12/2016||45|CHECK|1|ITEM|31801.59||||||||||||||||||||21/12/2016|||||||||||8016011196|1|P|20/12/2016
DTN|FXTH_2W_20161221_0300|FXTH|STANDARD|100504|DTAC-N|PRCAT0020|29/12/2016|DTACN-IN|THB|197415|21/12/2016||15|CHECK|1|ITEM|184500||||||||||||||||||||21/12/2016|||||||||||8016011191|1|P|20/12/2016
DTN|FXTH_2W_20161221_0300|FXTH|STANDARD|100504|DTAC-N|PRTEC0145|29/12/2016|DTACN-IN|THB|1082305|21/12/2016||15|CHECK|1|ITEM|1011500||||||||||||||||||||21/12/2016|||||||||||8016011191|1|P|20/12/2016
DTAC|FXTH_2W_20161221_0300|FXTH|STANDARD|286746|HO|10160028224|21/11/2016|IN10|THB|44000|21/12/2016||30 Days|CHECK|1|ITEM|44000||||||||||||||||||||21/12/2016|||||||||||10160028224|1|P|20/12/2016
DTN|FXTH_2W_20161221_0300|FXTH|STANDARD|244095|DTAC-N|8016009117|21/09/2016|DTACN-IN|THB|45000|21/12/2016||15|CHECK|1|ITEM|45000||||||||||||||||||||21/12/2016|||||||||||8016009117|1|P|20/12/2016
DTAC|FXTH_2W_20161221_0300|FXTH|STANDARD|233866|HO|INV2016020014|23/02/2016|IN10|THB|72225|21/12/2016||15|CHECK|1|ITEM|67500||||||||||||||||||||21/12/2016|||||||||||10160028577|1|P|20/12/2016
DTAC|FXTH_2W_20161221_0300|FXTH|STANDARD|100350|HO|I161225|16/12/2016|IN10|THB|33705|21/12/2016||15|CHECK|1|ITEM|31500||||||||||||||||||||21/12/2016|||||||||||10160029049|1|P|20/12/2016
DTAC|FXTH_2W_20161221_0300|FXTH|STANDARD|288593|HO|IV5912/078|16/12/2016|IN10|THB|50718|21/12/2016||30 Days|CHECK|1|ITEM|47400||||||||||||||||||||21/12/2016|||||||||||10160029094|1|P|20/12/2016
DTAC|FXTH_2W_20161221_0300|FXTH|STANDARD|288593|HO|IV5912/079|16/12/2016|IN10|THB|56068|21/12/2016||45|CHECK|1|ITEM|52400||||||||||||||||||||21/12/2016|||||||||||10160029096|1|P|20/12/2016
DTAC|FXTH_2W_20161221_0300|FXTH|STANDARD|288593|HO|IV5912/080|16/12/2016|IN10|THB|61418|21/12/2016||60|CHECK|1|ITEM|57400||||||||||||||||||||21/12/2016|||||||||||10160029081|1|P|20/12/2016
DTAC|FXTH_2W_20161221_0300|FXTH|STANDARD|172135|HO|IV1601016|19/12/2016|IN10|THB|28890|21/12/2016||15|CHECK|1|ITEM|27000||||||||||||||||||||21/12/2016|||||||||||10160029054|1|P|20/12/2016
DTN|FXTH_2W_20161221_0300|FXTH|STANDARD|236513|DTAC-N|1901600512|01/12/2016|DTACN-IN|THB|363800|21/12/2016||30 Days|CHECK|1|ITEM|340000||||||||||||||||||||21/12/2016|||||||||||8016010920|1|P|20/12/2016
DTN|FXTH_2W_20161221_0300|FXTH|STANDARD|236835|DTAC-N|123/2016|15/09/2016|DTACN-IN|THB|55609.91|21/12/2016||15|CHECK|1|ITEM|55609.91||||||||||||||||||||21/12/2016|||||||||||8016010473|1|P|20/12/2016
DTN|FXTH_2W_20161221_0300|FXTH|STANDARD|236835|DTAC-N|DTAC_16_126|15/09/2016|DTACN-IN|THB|1941.54|21/12/2016||15|CHECK|1|ITEM|1814.52||||||||||||||||||||21/12/2016|||||||||||8016010470|1|P|20/12/2016
DTN|FXTH_2W_20161221_0300|FXTH|STANDARD|236835|DTAC-N|122/2016|15/09/2016|DTACN-IN|THB|102208.13|21/12/2016||15|CHECK|1|ITEM|102208.13||||||||||||||||||||21/12/2016|||||||||||8016010408|1|P|20/12/2016
DTN|FXTH_2W_20161221_0300|FXTH|STANDARD|236835|DTAC-N|117/2016|15/12/2016|DTACN-IN|THB|36290.15|21/12/2016||15|CHECK|1|ITEM|36290.15||||||||||||||||||||21/12/2016|||||||||||8016010471|1|P|20/12/2016
DTN|FXTH_2W_20161221_0300|FXTH|STANDARD|236835|DTAC-N|DTAC_16_144|28/09/2016|DTACN-IN|THB|156.65|21/12/2016||15|CHECK|1|ITEM|146.4||||||||||||||||||||21/12/2016|||||||||||8016010463|1|P|20/12/2016
DTN|FXTH_2W_20161221_0300|FXTH|STANDARD|236835|DTAC-N|DTAC_16_127|15/09/2016|DTACN-IN|THB|2590.82|21/12/2016||15|CHECK|1|ITEM|2421.33||||||||||||||||||||21/12/2016|||||||||||8016010411|1|P|20/12/2016
DTN|FXTH_2W_20161221_0300|FXTH|STANDARD|236835|DTAC-N|128-2016|28/09/2016|DTACN-IN|THB|4246.5|21/12/2016||15|CHECK|1|ITEM|4246.5||||||||||||||||||||21/12/2016|||||||||||8016010462|1|P|20/12/2016
DTN|FXTH_2W_20161221_0300|FXTH|STANDARD|236835|DTAC-N|DTAC_16_130|15/09/2016|DTACN-IN|THB|666.89|21/12/2016||15|CHECK|1|ITEM|623.26||||||||||||||||||||21/12/2016|||||||||||8016010453|1|P|20/12/2016
DTN|FXTH_2W_20161221_0300|FXTH|STANDARD|236835|DTAC-N|118/2016|15/09/2016|DTACN-IN|THB|48426.06|21/12/2016||15|CHECK|1|ITEM|48426.06||||||||||||||||||||21/12/2016|||||||||||8016010423|1|P|20/12/2016
DTN|FXTH_2W_20161221_0300|FXTH|STANDARD|236835|HO|121/2016|15/09/2016|DTACN-IN|THB|12465.18|21/12/2016||15|CHECK|1|ITEM|12465.18||||||||||||||||||||21/12/2016|||||||||||8016010459|1|P|20/12/2016
DTN|FXTH_2W_20161221_0300|FXTH|STANDARD|236835|DTAC-N|DTAC_16_128|15/09/2016|DTACN-IN|THB|1718.71|21/12/2016||15|CHECK|1|ITEM|1606.27||||||||||||||||||||21/12/2016|||||||||||8016010465|1|P|20/12/2016
DTN|FXTH_2W_20161221_0300|FXTH|STANDARD|236835|DTAC-N|119/2016|15/09/2016|DTACN-IN|THB|32125.41|21/12/2016||15|CHECK|1|ITEM|32125.41||||||||||||||||||||21/12/2016|||||||||||8016010468|1|P|20/12/2016
DTN|FXTH_2W_20161221_0300|FXTH|STANDARD|236835|DTAC-N|125/2016|15/09/2016|DTACN-IN|THB|26058.63|21/12/2016||15|CHECK|1|ITEM|26058.63||||||||||||||||||||21/12/2016|||||||||||8016010410|1|P|20/12/2016
DTN|FXTH_2W_20161221_0300|FXTH|STANDARD|236835|DTAC-N|DTAC_16_141|28/09/2016|DTACN-IN|THB|280.51|21/12/2016||15|CHECK|1|ITEM|262.16||||||||||||||||||||21/12/2016|||||||||||8016010444|1|P|20/12/2016
DTN|FXTH_2W_20161221_0300|FXTH|STANDARD|236835|DTAC-N|DTAC_16_132|15/09/2016|DTACN-IN|THB|2975.14|21/12/2016||15|CHECK|1|ITEM|2780.5||||||||||||||||||||21/12/2016|||||||||||8016010472|1|P|20/12/2016
DTN|FXTH_2W_20161221_0300|FXTH|STANDARD|236835|DTAC-N|DTAC_16_135|15/09/2016|DTACN-IN|THB|1394.16|21/12/2016||15|CHECK|1|ITEM|1302.95||||||||||||||||||||21/12/2016|||||||||||8016010409|1|P|20/12/2016
DTN|FXTH_2W_20161221_0300|FXTH|STANDARD|236835|DTAC-N|126/2016|28/09/2016|DTACN-IN|THB|5243|21/12/2016||15|CHECK|1|ITEM|5243||||||||||||||||||||21/12/2016|||||||||||8016010446|1|P|20/12/2016
DTN|FXTH_2W_20161221_0300|FXTH|STANDARD|236835|DTAC-N|DTAC_16_142|28/09/2016|DTACN-IN|THB|1703.98|21/12/2016||15|CHECK|1|ITEM|1592.5||||||||||||||||||||21/12/2016|||||||||||8016010425|1|P|20/12/2016
DTN|FXTH_2W_20161221_0300|FXTH|STANDARD|236835|DTAC-N|127/2016|28/09/2016|DTACN-IN|THB|31850|21/12/2016||15|CHECK|1|ITEM|31850||||||||||||||||||||21/12/2016|||||||||||8016010428|1|P|20/12/2016
DTN|FXTH_2W_20161221_0300|FXTH|STANDARD|236835|DTAC-N|DTAC_16_143|28/09/2016|DTACN-IN|THB|227.19|21/12/2016||15|CHECK|1|ITEM|212.33||||||||||||||||||||21/12/2016|||||||||||8016010461|1|P|20/12/2016
DTN|FXTH_2W_20161221_0300|FXTH|STANDARD|236835|DTAC-N|129/2016|28/09/2016|DTACN-IN|THB|2928|21/12/2016||15|CHECK|1|ITEM|2928||||||||||||||||||||21/12/2016|||||||||||8016010464|1|P|20/12/2016
DTN|FXTH_2W_20161221_0300|FXTH|STANDARD|236835|DTAC-N|DTAC_16_131|15/09/2016|DTACN-IN|THB|5468.15|21/12/2016||15|CHECK|1|ITEM|5110.42||||||||||||||||||||21/12/2016|||||||||||8016010406|1|P|20/12/2016
DTN|FXTH_2W_20161221_0300|FXTH|STANDARD|101387|DTAC-N|SIN2016000501|09/12/2016|DTACN-IN|THB|399110000|21/12/2016||15|CHECK|1|ITEM|373000000||||||||||||||||||||21/12/2016|||||||||||8016010882|1|P|20/12/2016
DTN|FXTH_2W_20161221_0300|FXTH|STANDARD|178410|DTAC-N|1216120279|01/12/2016|DTACN-IN|THB|758095|21/12/2016||30 Days|CHECK|1|ITEM|641000||||||||||||||||||||21/12/2016|||||||||||8016010918|1|P|20/12/2016
DTN|FXTH_2W_20161221_0300|FXTH|STANDARD|178410|DTAC-N|1216120279|01/12/2016|DTACN-IN|THB|758095|21/12/2016||30 Days|CHECK|2|ITEM|67500||||||||||||||||||||21/12/2016|||||||||||8016010918|1|P|20/12/2016
DTAC|FXTH_2W_20161221_0300|FXTH|STANDARD|124681|HO|SN16-0001|25/11/2016|IN10|THB|33131|21/12/2016||30 Days|CHECK|1|ITEM|33131||||||||||||||||||||21/12/2016|||||||||||10160026186|1|P|20/12/2016
DTAC|FXTH_2W_20161221_0300|FXTH|STANDARD|257216|HO|19356|25/11/2016|IN10|THB|41800|21/12/2016||30 Days|CHECK|1|ITEM|39065.44||||||||||||||||||||21/12/2016|||||||||||10160026456|1|P|20/12/2016
DTAC|FXTH_2W_20161221_0300|FXTH|STANDARD|257216|HO|19355|30/12/2016|IN10|THB|10800|21/12/2016||30 Days|CHECK|1|ITEM|10093.46||||||||||||||||||||21/12/2016|||||||||||10160026462|1|P|20/12/2016
DTAC|FXTH_2W_20161221_0300|FXTH|STANDARD|257216|HO|19179|18/11/2016|IN10|THB|53000|21/12/2016||30 Days|CHECK|1|ITEM|49532.74||||||||||||||||||||21/12/2016|||||||||||10160026455|1|P|20/12/2016
DTAC|FXTH_2W_20161221_0300|FXTH|STANDARD|124000|HO|08824|06/12/2016|IN10|THB|80000|21/12/2016||30 Days|CHECK|1|ITEM|74766.36||||||||||||||||||||21/12/2016|||||||||||10160027227|1|P|20/12/2016
DTAC|FXTH_2W_20161221_0300|FXTH|STANDARD|257216|HO|19431|28/11/2016|IN10|THB|9000|21/12/2016||30 Days|CHECK|1|ITEM|8411.22||||||||||||||||||||21/12/2016|||||||||||10160027240|1|P|20/12/2016
DTAC|FXTH_2W_20161221_0300|FXTH|STANDARD|103380|HO|1901600361|06/12/2016|IN10|THB|8566.96|21/12/2016||30 Days|CHECK|1|ITEM|8006.5||||||||||||||||||||21/12/2016|||||||||||10160027305|1|P|20/12/2016
PSB|FXTH_2W_20161221_0300|FXTH|STANDARD|171303|PSB|1901600371|09/12/2016|PB-IN|THB|7833314.2|21/12/2016||30 Days|CHECK|1|ITEM|7320854.39||||||||||||||||||||21/12/2016|||||||||||1216001142|1|P|20/12/2016
DTAC|FXTH_2W_20161221_0300|FXTH|STANDARD|239938|HO|9451|13/12/2016|IN10|THB|107000|21/12/2016||30 Days|CHECK|1|ITEM|100000||||||||||||||||||||21/12/2016|||||||||||10160028644|1|P|20/12/2016
DTAC|FXTH_2W_20161221_0300|FXTH|STANDARD|127058|HO|IV16120077|13/12/2016|IN10|THB|49755|21/12/2016||30 Days|CHECK|1|ITEM|46500||||||||||||||||||||21/12/2016|||||||||||10160029296|1|P|20/12/2016
DTAC|FXTH_2W_20161221_0300|FXTH|STANDARD|127058|HO|IV16120078|13/12/2016|IN10|THB|1990.2|21/12/2016||30 Days|CHECK|1|ITEM|1860||||||||||||||||||||21/12/2016|||||||||||10160029296|1|P|20/12/2016
DTAC|FXTH_2W_20161221_0300|FXTH|STANDARD|101616|HO|IV20161216-02|16/12/2016|IN10|THB|115025|21/12/2016||30 Days|CHECK|1|ITEM|107500||||||||||||||||||||21/12/2016|||||||||||10160029146|1|P|20/12/2016
DTAC|FXTH_2W_20161221_0300|FXTH|STANDARD|107535|HO|SPRBCMAIN11612-0019|14/12/2016|IN10|THB|7591650|21/12/2016||30 Days|CHECK|1|ITEM|7095000||||||||||||||||||||21/12/2016|||||||||||10160028492|1|P|20/12/2016
DTAC|FXTH_2W_20161221_0300|FXTH|STANDARD|202093|HO|IV-59-1209001|09/12/2016|IN10|THB|15400|21/12/2016||30 Days|CHECK|1|ITEM|14392.52||||||||||||||||||||21/12/2016|||||||||||10160029197|1|P|20/12/2016
DTAC|FXTH_2W_20161221_0300|FXTH|STANDARD|222195|HO|HQ-1612-003|09/12/2016|IN10|THB|6950|21/12/2016||30 Days|CHECK|1|ITEM|6495.33||||||||||||||||||||21/12/2016|||||||||||10160029200|1|P|20/12/2016
DTAC|FXTH_2W_20161221_0300|FXTH|STANDARD|100823|HO|10160026728|20/12/2016|IN10|THB|200000|21/12/2016||30 Days|CHECK|1|ITEM|200000||||||||||||||||||||21/12/2016|||||||||||10160026728|1|P|20/12/2016
DTAC|FXTH_2W_20161221_0300|FXTH|STANDARD|178310|HO|00424021|15/12/2016|IN10|THB|355240|21/12/2016||15|CHECK|1|ITEM|332000||||||||||||||||||||21/12/2016|||||||||||10160026820|1|P|20/12/2016
DTAC|FXTH_2W_20161221_0300|FXTH|STANDARD|193908|HO|100676127|07/12/2016|IN10|THB|28622500|21/12/2016||30 Days|CHECK|1|ITEM|26750000||||||||||||||||||||21/12/2016|||||||||||10160028031|1|P|20/12/2016