﻿OrgCode|GROUP_NAME|SOURCE|INVOICE_TYPE_LOOKUP_CODE|VENDOR_NUM|VENDOR_SITE_CODE|INVOICE_NUM|INVOICE_DATE|DOC_CATEGORY_CODE|INVOICE_CURRENCY_CODE|INVOICE_AMOUNT|GL_DATE|INVOICE_DESCRIPTION|TERMS_NAME|PAYMENT_METHOD_LOOKUP_CODE|LINE_NUMBER|LINE_TYPE_LOOKUP_CODE|LINE_AMOUNT|LINE_TAX_CODE|AWT_GROUP_NAME|DIST_CODE_CONCATINATED|LINE_DESCRIPTION|ACT_VENDOR_NUM|ACT_VENDOR_SITE_CODE|REPORTING_ENTITY|TAX_INVOICE_DATE|TAX_INVOICE_NUM|TAX_ACCT_PERIOD|WHT_ACCT_PERIOD|PHOR_NGOR_DOR|WHT_CONDITION|WHT_REVENUE_TYPE|WHT_REVENUE_NAME|PROJECT_NUMBER|PROJECT_TASK_NUMBER|EXPENDITURE_TYPE|EXPENDITURE_ORGANIZATION|EAI_CRTD_DTTM|PAYEE|MAIL_TO_NAME|MAIL_TO_ADDRESS1|MAIL_TO_ADDRESS2|MAIL_TO_ADDRESS3|MAIL_TO_ADDRESS4|PO_NUMBER|PO_LINE_NUMBER|RECEIPT_NUMBER|RECEIPT_LINE_NUMBER|PR NUMBER|PR LINE NUMBER|MATCH_OPTION|BILL_PLACEMENT_DATE
DTAC|FXTH_2W_20161220_0300|FXTH|STANDARD|124681|HO|SN16-0012|26/10/2016|IN10|THB|15814.17|20/12/2016||30 Days|CHECK|1|ITEM|15814.17||||||||||||||||||||20/12/2016|||||||||||10160024991|1|P|23/11/2016
DTAC|FXTH_2W_20161220_0300|FXTH|STANDARD|124681|HO|SN16-0013|23/11/2016|IN10|THB|21528.8|20/12/2016||30 Days|CHECK|1|ITEM|21528.8||||||||||||||||||||20/12/2016|||||||||||10160026433|1|P|14/12/2016
DTAC|FXTH_2W_20161220_0300|FXTH|STANDARD|153089|HO|100/4981|14/12/2016|IN10|THB|62060|20/12/2016||15|CHECK|1|ITEM|58000||||||||||||||||||||20/12/2016|||||||||||10160028404|1|P|19/12/2016
DTAC|FXTH_2W_20161220_0300|FXTH|STANDARD|237919|HO|INV16004|14/12/2016|IN10|THB|28890|20/12/2016||15|CHECK|1|ITEM|27000||||||||||||||||||||20/12/2016|||||||||||10160028018|1|P|19/12/2016
DTAC|FXTH_2W_20161220_0300|FXTH|STANDARD|184052|HO|IV590317|01/09/2016|IN10|THB|8094.55|20/12/2016||15|CHECK|1|ITEM|7565||||||||||||||||||||20/12/2016|||||||||||10160027764|1|P|19/12/2016
DTAC|FXTH_2W_20161220_0300|FXTH|STANDARD|101388|HO|BES160447|01/11/2016|IN10|THB|30446.53|20/12/2016||30 Days|CHECK|1|ITEM|28454.7||||||||||||||||||||20/12/2016|||||||||||10160025158|1|P|19/12/2016
DTN|FXTH_2W_20161220_0300|FXTH|STANDARD|271999|DTAC-N|I-1203BT/R16|15/12/2016|DTACN-IN|THB|47344.5|20/12/2016||30 Days|CHECK|1|ITEM|47344.5||||||||||||||||||||20/12/2016|||||||||||8016010974|1|P|19/12/2016
DTAC|FXTH_2W_20161220_0300|FXTH|STANDARD|252798|HO|009/0955|14/12/2016|IN10|THB|16700|20/12/2016||15|CHECK|1|ITEM|16700||||||||||||||||||||20/12/2016|||||||||||10160028449|1|P|19/12/2016
DTAC|FXTH_2W_20161220_0300|FXTH|STANDARD|267369|HO|29420|04/11/2016|IN10|USD|16960|20/12/2016||30 Days|CHECK|1|ITEM|4240||||||||||||||||||||20/12/2016|||||||||||10160025331|1|P|19/12/2016
DTAC|FXTH_2W_20161220_0300|FXTH|STANDARD|267369|HO|29420|04/11/2016|IN10|USD|16960|20/12/2016||30 Days|CHECK|1|ITEM|4240||||||||||||||||||||20/12/2016|||||||||||10160025331|2|P|19/12/2016
DTAC|FXTH_2W_20161220_0300|FXTH|STANDARD|267369|HO|29420|04/11/2016|IN10|USD|16960|20/12/2016||30 Days|CHECK|1|ITEM|8480||||||||||||||||||||20/12/2016|||||||||||10160025331|3|P|19/12/2016
DTAC|FXTH_2W_20161220_0300|FXTH|STANDARD|100808|HO|ปว./5900377|13/12/2016|IN10|THB|31925|20/12/2016||30 Days|CHECK|1|ITEM|31925||||||||||||||||||||20/12/2016|||||||||||10160028659|1|P|19/12/2016
DTAC|FXTH_2W_20161220_0300|FXTH|STANDARD|107535|HO|SPRBCMAIN11612-001|13/12/2016|IN10|THB|156755|20/12/2016||30 Days|CHECK|1|ITEM|146500||||||||||||||||||||20/12/2016|||||||||||10160028495|1|P|19/12/2016
DTAC|FXTH_2W_20161220_0300|FXTH|STANDARD|272308|HO|DTAC-011216|16/12/2016|IN10|THB|29400|20/12/2016||15|CHECK|1|ITEM|29400||||||||||||||||||||20/12/2016|||||||||||10160028198|1|P|19/12/2016
DTAC|FXTH_2W_20161220_0300|FXTH|STANDARD|101058|HO|10160027881|15/12/2016|IN10|THB|3608.25|20/12/2016||15|CHECK|1|ITEM|3608.25||||||||||||||||||||20/12/2016|||||||||||10160027881|1|P|19/12/2016
DTAC|FXTH_2W_20161220_0300|FXTH|STANDARD|185147|HO|10160028355|15/12/2016|IN10|THB|26315.79|20/12/2016||15|CHECK|1|ITEM|26315.79||||||||||||||||||||20/12/2016|||||||||||10160028355|1|P|19/12/2016
DTAC|FXTH_2W_20161220_0300|FXTH|STANDARD|102555|HO|IN-DDP16004311|13/12/2016|IN10|THB|171200|20/12/2016||30 Days|CHECK|1|ITEM|160000||||||||||||||||||||20/12/2016|||||||||||10160026616|1|P|19/12/2016
DTAC|FXTH_2W_20161220_0300|FXTH|STANDARD|220593|HO|KT0119697/1|30/11/2016|IN10|THB|1605000|20/12/2016||30 Days|CHECK|1|ITEM|500000||||||||||||||||||||20/12/2016|||||||||||10160024697|1|P|19/12/2016
DTAC|FXTH_2W_20161220_0300|FXTH|STANDARD|220593|HO|KT0119697/1|30/11/2016|IN10|THB|1605000|20/12/2016||30 Days|CHECK|1|ITEM|1000000||||||||||||||||||||20/12/2016|||||||||||10160024697|2|P|19/12/2016
DTAC|FXTH_2W_20161220_0300|FXTH|STANDARD|102555|HO|IN-DDP16004309|13/12/2016|IN10|THB|149800|20/12/2016||30 Days|CHECK|1|ITEM|140000||||||||||||||||||||20/12/2016|||||||||||10160027722|1|P|19/12/2016
DTAC|FXTH_2W_20161220_0300|FXTH|STANDARD|220593|HO|KT0119698/1|30/11/2016|IN10|THB|16050|20/12/2016||30 Days|CHECK|1|ITEM|15000||||||||||||||||||||20/12/2016|||||||||||10160024697|3|P|19/12/2016
DTAC|FXTH_2W_20161220_0300|FXTH|STANDARD|100228|HO|ISO-OOOD4597|06/12/2016|IN10|THB|214000|20/12/2016||30 Days|CHECK|1|ITEM|200000||||||||||||||||||||20/12/2016|||||||||||10160027724|1|P|19/12/2016
DTAC|FXTH_2W_20161220_0300|FXTH|STANDARD|102555|HO|IN-DDP16004310|13/12/2016|IN10|THB|85600|20/12/2016||30 Days|CHECK|1|ITEM|80000||||||||||||||||||||20/12/2016|||||||||||10160027721|1|P|19/12/2016
DTAC|FXTH_2W_20161220_0300|FXTH|STANDARD|102555|HO|IN-DDP16004297|08/12/2016|IN10|THB|149800|20/12/2016||30 Days|CHECK|1|ITEM|140000||||||||||||||||||||20/12/2016|||||||||||10160027013|1|P|19/12/2016
DTAC|FXTH_2W_20161220_0300|FXTH|STANDARD|100771|HO|CS-5912030|19/12/2016|IN10|THB|85600|20/12/2016||30 Days|CHECK|1|ITEM|80000||||||||||||||||||||20/12/2016|||||||||||10160028515|1|P|19/12/2016
DTAC|FXTH_2W_20161220_0300|FXTH|STANDARD|171291|HO|INV0013365744|08/12/2016|IN10|THB|287500|20/12/2016||30 Days|CHECK|1|ITEM|287500||||||||||||||||||||20/12/2016|||||||||||10160028447|1|P|19/12/2016
DTAC|FXTH_2W_20161220_0300|FXTH|STANDARD|175587|HO|11/019|01/12/2016|IN10|THB|15000|20/12/2016||30 Days|CHECK|1|ITEM|15000||||||||||||||||||||20/12/2016|||||||||||10160028596|1|P|19/12/2016
DTAC|FXTH_2W_20161220_0300|FXTH|STANDARD|253282|HO|591212-001|12/12/2016|IN10|THB|44500|20/12/2016||30 Days|CHECK|1|ITEM|41588.78||||||||||||||||||||20/12/2016|||||||||||10160027851|1|P|19/12/2016
DTAC|FXTH_2W_20161220_0300|FXTH|STANDARD|100690|HO|IV5912032|19/12/2016|IN10|THB|149800|20/12/2016||30 Days|CHECK|1|ITEM|140000||||||||||||||||||||20/12/2016|||||||||||10160027014|1|P|19/12/2016
DTAC|FXTH_2W_20161220_0300|FXTH|STANDARD|220593|HO|KT0119643-1|30/11/2016|IN10|THB|202.23|20/12/2016||30 Days|CHECK|1|ITEM|189||||||||||||||||||||20/12/2016|||||||||||10160023943|8|P|19/12/2016
DTAC|FXTH_2W_20161220_0300|FXTH|STANDARD|184717|HO|IV5900311.1|19/12/2016|IN10|THB|53500|20/12/2016||30 Days|CHECK|1|ITEM|50000||||||||||||||||||||20/12/2016|||||||||||10160027727|1|P|19/12/2016
DTN|FXTH_2W_20161220_0300|FXTH|STANDARD|101387|DTAC-N|SIN2016000500|09/12/2016|DTACN-IN|THB|605642.43|20/12/2016||15|CHECK|1|ITEM|605642.43||||||||||||||||||||20/12/2016|||||||||||8016010881|1|P|19/12/2016
DTAC|FXTH_2W_20161220_0300|FXTH|STANDARD|220593|HO|KT0119710/1|01/12/2016|IN10|THB|4012.5|20/12/2016||30 Days|CHECK|1|ITEM|3750||||||||||||||||||||20/12/2016|||||||||||10160023943|4|P|19/12/2016
DTAC|FXTH_2W_20161220_0300|FXTH|STANDARD|220593|HO|KT0119642/1|30/11/2016|IN10|THB|20223|20/12/2016||30 Days|CHECK|1|ITEM|18900||||||||||||||||||||20/12/2016|||||||||||10160023943|7|P|19/12/2016
DTAC|FXTH_2W_20161220_0300|FXTH|STANDARD|101331|HO|SIN2016000190|15/12/2016|IN10|THB|4815000|20/12/2016||15|CHECK|1|ITEM|4500000||||||||||||||||||||20/12/2016|||||||||||10160028662|1|P|19/12/2016
DTN|FXTH_2W_20161220_0300|FXTH|STANDARD|145519|DTAC-N|1612-AR0001|09/12/2016|DTACN-IN|THB|384130|20/12/2016||30 Days|CHECK|1|ITEM|359000||||||||||||||||||||20/12/2016|||||||||||10160028497|1|P|19/12/2016
PSB|FXTH_2W_20161220_0300|FXTH|STANDARD|101387|PSB|SIN2016000524|15/12/2016|PB-IN|THB|45579.84|20/12/2016||15|CHECK|1|ITEM|42597.98||||||||||||||||||||20/12/2016|||||||||||1216001168|1|P|19/12/2016
PSB|FXTH_2W_20161220_0300|FXTH|STANDARD|101387|PSB|SIN2016000525|15/12/2016|PB-IN|THB|162562.31|20/12/2016||15|CHECK|1|ITEM|151927.39||||||||||||||||||||20/12/2016|||||||||||1216001168|1|P|19/12/2016
DTAC|FXTH_2W_20161220_0300|FXTH|STANDARD|220593|HO|KT0119696/1|30/11/2016|IN10|THB|2996|20/12/2016||30 Days|CHECK|1|ITEM|2800||||||||||||||||||||20/12/2016|||||||||||10160024549|4|P|19/12/2016
DTAC|FXTH_2W_20161220_0300|FXTH|STANDARD|100207|HO|IAMPW1600890|06/12/2016|IN10|THB|214000|20/12/2016||30 Days|CHECK|1|ITEM|200000||||||||||||||||||||20/12/2016|||||||||||10160027723|1|P|19/12/2016
DTAC|FXTH_2W_20161220_0300|FXTH|STANDARD|107535|HO|SPRBCMAIN11612-0020|14/12/2016|IN10|THB|696570|20/12/2016||30 Days|CHECK|1|ITEM|651000||||||||||||||||||||20/12/2016|||||||||||10160028493|1|P|19/12/2016
DTAC|FXTH_2W_20161220_0300|FXTH|STANDARD|222253|HO|10160028521|16/12/2016|IN10|THB|3609|20/12/2016||30 Days|CHECK|1|ITEM|3609||||||||||||||||||||20/12/2016|||||||||||10160028521|1|P|19/12/2016
DTAC|FXTH_2W_20161220_0300|FXTH|STANDARD|220593|HO|KT0119640/1|30/11/2016|IN10|THB|1605|20/12/2016||30 Days|CHECK|1|ITEM|1500||||||||||||||||||||20/12/2016|||||||||||10160023943|6|P|19/12/2016
DTAC|FXTH_2W_20161220_0300|FXTH|STANDARD|220593|HO|KT0119693/1|30/11/2016|IN10|THB|2675|20/12/2016||30 Days|CHECK|1|ITEM|2500||||||||||||||||||||20/12/2016|||||||||||10160024549|2|P|19/12/2016
DTAC|FXTH_2W_20161220_0300|FXTH|STANDARD|101331|HO|SIN2016000180|09/12/2016|IN10|THB|4135779.69|20/12/2016||15|CHECK|1|ITEM|4135779.69||||||||||||||||||||20/12/2016|||||||||||10160027835|1|P|19/12/2016
DTAC|FXTH_2W_20161220_0300|FXTH|STANDARD|220593|HO|KT0119694/1|30/11/2016|IN10|THB|299600|20/12/2016||30 Days|CHECK|1|ITEM|280000||||||||||||||||||||20/12/2016|||||||||||10160024549|3|P|19/12/2016
DTN|FXTH_2W_20161220_0300|FXTH|STANDARD|101387|DTAC-N|SIN2016000502|09/12/2016|DTACN-IN|THB|1200|20/12/2016||15|CHECK|1|ITEM|1200||||||||||||||||||||20/12/2016|||||||||||8016010883|1|P|19/12/2016
PSB|FXTH_2W_20161220_0300|FXTH|STANDARD|101387|PSB|SIN2016000504|09/12/2016|PB-IN|THB|300|20/12/2016||15|CHECK|1|ITEM|300||||||||||||||||||||20/12/2016|||||||||||1216001148|1|P|19/12/2016
DTAC|FXTH_2W_20161220_0300|FXTH|STANDARD|220593|HO|KT0119644/1|30/11/2016|IN10|THB|450684|20/12/2016||30 Days|CHECK|1|ITEM|421200||||||||||||||||||||20/12/2016|||||||||||10160023943|1|P|19/12/2016
DTAC|FXTH_2W_20161220_0300|FXTH|STANDARD|107535|HO|SPRBCMAIN11612-0021|14/12/2016|IN10|THB|671960|20/12/2016||30 Days|CHECK|1|ITEM|628000||||||||||||||||||||20/12/2016|||||||||||10160028489|1|P|19/12/2016
DTAC|FXTH_2W_20161220_0300|FXTH|STANDARD|171291|HO|INV0013365745|08/12/2016|IN10|THB|361000|20/12/2016||30 Days|CHECK|1|ITEM|361000||||||||||||||||||||20/12/2016|||||||||||10160028448|1|P|19/12/2016
DTN|FXTH_2W_20161220_0300|FXTH|STANDARD|101387|DTAC-N|SIN2016000522|15/12/2016|DTACN-IN|THB|21227963.23|20/12/2016||15|CHECK|1|ITEM|19839217.97||||||||||||||||||||20/12/2016|||||||||||8016011069|1|P|19/12/2016
DTN|FXTH_2W_20161220_0300|FXTH|STANDARD|101387|DTAC-N|SIN2016000523|15/12/2016|DTACN-IN|THB|12788834.17|20/12/2016||15|CHECK|1|ITEM|11952181.47||||||||||||||||||||20/12/2016|||||||||||8016011069|1|P|19/12/2016
DTAC|FXTH_2W_20161220_0300|FXTH|STANDARD|220593|HO|KT0119700/1|30/11/2016|IN10|THB|3745|20/12/2016||30 Days|CHECK|1|ITEM|3500||||||||||||||||||||20/12/2016|||||||||||10160024549|6|P|19/12/2016
DTAC|FXTH_2W_20161220_0300|FXTH|STANDARD|220593|HO|KT0119645/1|30/11/2016|IN10|THB|4506.84|20/12/2016||30 Days|CHECK|1|ITEM|4212||||||||||||||||||||20/12/2016|||||||||||10160023943|2|P|19/12/2016
DTAC|FXTH_2W_20161220_0300|FXTH|STANDARD|220593|HO|KT0119639/1|30/11/2016|IN10|THB|160500|20/12/2016||30 Days|CHECK|1|ITEM|150000||||||||||||||||||||20/12/2016|||||||||||10160023943|5|P|19/12/2016
DTAC|FXTH_2W_20161220_0300|FXTH|STANDARD|220593|HO|KT0119637/1|30/11/2016|IN10|THB|401250|20/12/2016||30 Days|CHECK|1|ITEM|375000||||||||||||||||||||20/12/2016|||||||||||10160023943|3|P|19/12/2016
DTAC|FXTH_2W_20161220_0300|FXTH|STANDARD|220593|HO|KT0119699/1|30/11/2016|IN10|THB|374500|20/12/2016||30 Days|CHECK|1|ITEM|350000||||||||||||||||||||20/12/2016|||||||||||10160024549|5|P|19/12/2016
DTAC|FXTH_2W_20161220_0300|FXTH|STANDARD|220593|HO|KT0119695/1|30/11/2016|IN10|THB|267500|20/12/2016||30 Days|CHECK|1|ITEM|250000||||||||||||||||||||20/12/2016|||||||||||10160024549|1|P|19/12/2016