﻿OrgCode|GROUP_NAME|SOURCE|INVOICE_TYPE_LOOKUP_CODE|VENDOR_NUM|VENDOR_SITE_CODE|INVOICE_NUM|INVOICE_DATE|DOC_CATEGORY_CODE|INVOICE_CURRENCY_CODE|INVOICE_AMOUNT|GL_DATE|INVOICE_DESCRIPTION|TERMS_NAME|PAYMENT_METHOD_LOOKUP_CODE|LINE_NUMBER|LINE_TYPE_LOOKUP_CODE|LINE_AMOUNT|LINE_TAX_CODE|AWT_GROUP_NAME|DIST_CODE_CONCATINATED|LINE_DESCRIPTION|ACT_VENDOR_NUM|ACT_VENDOR_SITE_CODE|REPORTING_ENTITY|TAX_INVOICE_DATE|TAX_INVOICE_NUM|TAX_ACCT_PERIOD|WHT_ACCT_PERIOD|PHOR_NGOR_DOR|WHT_CONDITION|WHT_REVENUE_TYPE|WHT_REVENUE_NAME|PROJECT_NUMBER|PROJECT_TASK_NUMBER|EXPENDITURE_TYPE|EXPENDITURE_ORGANIZATION|EAI_CRTD_DTTM|PAYEE|MAIL_TO_NAME|MAIL_TO_ADDRESS1|MAIL_TO_ADDRESS2|MAIL_TO_ADDRESS3|MAIL_TO_ADDRESS4|PO_NUMBER|PO_LINE_NUMBER|RECEIPT_NUMBER|RECEIPT_LINE_NUMBER|PR NUMBER|PR LINE NUMBER|MATCH_OPTION|BILL_PLACEMENT_DATE
DTAC|FXTH_2W_20161215_0300|FXTH|STANDARD|124681|HO|SN16-0012|26/10/2016|IN10|THB|15814.17|15/12/2016||30 Days|CHECK|1|ITEM|15814.17||||||||||||||||||||15/12/2016|||||||||||10160024991|1|P|23/11/2016
DTN|FXTH_2W_20161215_0300|FXTH|STANDARD|101387|DTAC-N|SIN2016000486|22/11/2016|DTACN-IN|THB|60951210.14|15/12/2016||30 Days|CHECK|1|ITEM|606363.83||||||||||||||||||||15/12/2016|||||||||||8016010432|1|P|14/12/2016
DTN|FXTH_2W_20161215_0300|FXTH|STANDARD|101387|DTAC-N|SIN2016000486|22/11/2016|DTACN-IN|THB|60951210.14|15/12/2016||30 Days|CHECK|1|ITEM|37826537.74||||||||||||||||||||15/12/2016|||||||||||8016010432|2|P|14/12/2016
DTN|FXTH_2W_20161215_0300|FXTH|STANDARD|101387|DTAC-N|SIN2016000486|22/11/2016|DTACN-IN|THB|60951210.14|15/12/2016||30 Days|CHECK|1|ITEM|18530846.22||||||||||||||||||||15/12/2016|||||||||||8016010432|3|P|14/12/2016
DTAC|FXTH_2W_20161215_0300|FXTH|STANDARD|191232|HO|IN2016011002|25/11/2016|IN10|THB|703953|15/12/2016||15|CHECK|1|ITEM|209100||||||||||||||||||||15/12/2016|||||||||||10160025753|1|P|14/12/2016
DTAC|FXTH_2W_20161215_0300|FXTH|STANDARD|191232|HO|IN2016011002|25/11/2016|IN10|THB|703953|15/12/2016||15|CHECK|1|ITEM|173400||||||||||||||||||||15/12/2016|||||||||||10160025753|2|P|14/12/2016
DTAC|FXTH_2W_20161215_0300|FXTH|STANDARD|191232|HO|IN2016011002|25/11/2016|IN10|THB|703953|15/12/2016||15|CHECK|1|ITEM|40800||||||||||||||||||||15/12/2016|||||||||||10160025753|3|P|14/12/2016
DTAC|FXTH_2W_20161215_0300|FXTH|STANDARD|191232|HO|IN2016011002|25/11/2016|IN10|THB|703953|15/12/2016||15|CHECK|1|ITEM|71400||||||||||||||||||||15/12/2016|||||||||||10160025753|4|P|14/12/2016
DTAC|FXTH_2W_20161215_0300|FXTH|STANDARD|191232|HO|IN2016011002|25/11/2016|IN10|THB|703953|15/12/2016||15|CHECK|1|ITEM|10200||||||||||||||||||||15/12/2016|||||||||||10160025753|5|P|14/12/2016
DTAC|FXTH_2W_20161215_0300|FXTH|STANDARD|191232|HO|IN2016011002|25/11/2016|IN10|THB|703953|15/12/2016||15|CHECK|1|ITEM|51000||||||||||||||||||||15/12/2016|||||||||||10160025753|6|P|14/12/2016
DTAC|FXTH_2W_20161215_0300|FXTH|STANDARD|191232|HO|IN2016011002|25/11/2016|IN10|THB|703953|15/12/2016||15|CHECK|1|ITEM|102000||||||||||||||||||||15/12/2016|||||||||||10160025753|7|P|14/12/2016
DTN|FXTH_2W_20161215_0300|FXTH|STANDARD|101387|DTAC-N|SIN2016000485|22/11/2016|DTACN-IN|THB|34451507.45|15/12/2016||30 Days|CHECK|1|ITEM|11482.09||||||||||||||||||||15/12/2016|||||||||||8016010449|1|P|14/12/2016
DTN|FXTH_2W_20161215_0300|FXTH|STANDARD|101387|DTAC-N|SIN2016000485|22/11/2016|DTACN-IN|THB|34451507.45|15/12/2016||30 Days|CHECK|1|ITEM|18874260||||||||||||||||||||15/12/2016|||||||||||8016010449|2|P|14/12/2016
DTN|FXTH_2W_20161215_0300|FXTH|STANDARD|101387|DTAC-N|SIN2016000485|22/11/2016|DTACN-IN|THB|34451507.45|15/12/2016||30 Days|CHECK|1|ITEM|1777356||||||||||||||||||||15/12/2016|||||||||||8016010449|3|P|14/12/2016
DTN|FXTH_2W_20161215_0300|FXTH|STANDARD|101387|DTAC-N|SIN2016000485|22/11/2016|DTACN-IN|THB|34451507.45|15/12/2016||30 Days|CHECK|1|ITEM|350850.6||||||||||||||||||||15/12/2016|||||||||||8016010449|4|P|14/12/2016
DTN|FXTH_2W_20161215_0300|FXTH|STANDARD|101387|DTAC-N|SIN2016000485|22/11/2016|DTACN-IN|THB|34451507.45|15/12/2016||30 Days|CHECK|1|ITEM|4258327.82||||||||||||||||||||15/12/2016|||||||||||8016010449|5|P|14/12/2016
DTN|FXTH_2W_20161215_0300|FXTH|STANDARD|101387|DTAC-N|SIN2016000485|22/11/2016|DTACN-IN|THB|34451507.45|15/12/2016||30 Days|CHECK|1|ITEM|2848148||||||||||||||||||||15/12/2016|||||||||||8016010449|6|P|14/12/2016
DTN|FXTH_2W_20161215_0300|FXTH|STANDARD|101387|DTAC-N|SIN2016000485|22/11/2016|DTACN-IN|THB|34451507.45|15/12/2016||30 Days|CHECK|1|ITEM|4077246||||||||||||||||||||15/12/2016|||||||||||8016010449|9|P|14/12/2016
DTN|FXTH_2W_20161215_0300|FXTH|STANDARD|101387|DTAC-N|SIN2016000487|22/11/2016|DTACN-IN|THB|15700695.93|15/12/2016||30 Days|CHECK|1|ITEM|9536313.6||||||||||||||||||||15/12/2016|||||||||||8016010449|7|P|14/12/2016
DTN|FXTH_2W_20161215_0300|FXTH|STANDARD|101387|DTAC-N|SIN2016000487|22/11/2016|DTACN-IN|THB|15700695.93|15/12/2016||30 Days|CHECK|1|ITEM|5137234||||||||||||||||||||15/12/2016|||||||||||8016010449|8|P|14/12/2016
DTAC|FXTH_2W_20161215_0300|FXTH|STANDARD|250094|HO|201608594/95|03/12/2016|IN10|THB|576.18|15/12/2016||30 Days|CHECK|1|ITEM|211.38||||||||||||||||||||15/12/2016|||||||||||10160026922|2|P|14/12/2016
DTAC|FXTH_2W_20161215_0300|FXTH|STANDARD|250094|HO|201608594/95|03/12/2016|IN10|THB|576.18|15/12/2016||30 Days|CHECK|2|ITEM|327.1||||||||||||||||||||15/12/2016|||||||||||10160026922|2|P|14/12/2016
DTN|FXTH_2W_20161215_0300|FXTH|STANDARD|101387|DTAC-N|SIN2016000489|22/11/2016|DTACN-IN|THB|97367064.38|15/12/2016||30 Days|CHECK|1|ITEM|5934342||||||||||||||||||||15/12/2016|||||||||||8016010452|1|P|14/12/2016
DTN|FXTH_2W_20161215_0300|FXTH|STANDARD|101387|DTAC-N|SIN2016000489|22/11/2016|DTACN-IN|THB|97367064.38|15/12/2016||30 Days|CHECK|1|ITEM|326112||||||||||||||||||||15/12/2016|||||||||||8016010452|4|P|14/12/2016
DTN|FXTH_2W_20161215_0300|FXTH|STANDARD|101387|DTAC-N|SIN2016000489|22/11/2016|DTACN-IN|THB|97367064.38|15/12/2016||30 Days|CHECK|1|ITEM|7619183.27||||||||||||||||||||15/12/2016|||||||||||8016010452|7|P|14/12/2016
DTN|FXTH_2W_20161215_0300|FXTH|STANDARD|101387|DTAC-N|SIN2016000489|22/11/2016|DTACN-IN|THB|97367064.38|15/12/2016||30 Days|CHECK|1|ITEM|3988742.16||||||||||||||||||||15/12/2016|||||||||||8016010452|8|P|14/12/2016
DTN|FXTH_2W_20161215_0300|FXTH|STANDARD|101387|DTAC-N|SIN2016000489|22/11/2016|DTACN-IN|THB|97367064.38|15/12/2016||30 Days|CHECK|1|ITEM|27784001||||||||||||||||||||15/12/2016|||||||||||8016010452|9|P|14/12/2016
DTN|FXTH_2W_20161215_0300|FXTH|STANDARD|101387|DTAC-N|SIN2016000489|22/11/2016|DTACN-IN|THB|97367064.38|15/12/2016||30 Days|CHECK|1|ITEM|27176||||||||||||||||||||15/12/2016|||||||||||8016010452|11|P|14/12/2016
DTN|FXTH_2W_20161215_0300|FXTH|STANDARD|101387|DTAC-N|SIN2016000489|22/11/2016|DTACN-IN|THB|97367064.38|15/12/2016||30 Days|CHECK|1|ITEM|45317700||||||||||||||||||||15/12/2016|||||||||||8016010452|13|P|14/12/2016
DTN|FXTH_2W_20161215_0300|FXTH|STANDARD|101387|DTAC-N|SIN2016000490|22/11/2016|DTACN-IN|THB|125264623.32|15/12/2016||30 Days|CHECK|1|ITEM|9916835.01||||||||||||||||||||15/12/2016|||||||||||8016010452|3|P|14/12/2016
DTN|FXTH_2W_20161215_0300|FXTH|STANDARD|101387|DTAC-N|SIN2016000490|22/11/2016|DTACN-IN|THB|125264623.32|15/12/2016||30 Days|CHECK|1|ITEM|4125343.43||||||||||||||||||||15/12/2016|||||||||||8016010452|6|P|14/12/2016
DTN|FXTH_2W_20161215_0300|FXTH|STANDARD|101387|DTAC-N|SIN2016000490|22/11/2016|DTACN-IN|THB|125264623.32|15/12/2016||30 Days|CHECK|1|ITEM|2111199.46||||||||||||||||||||15/12/2016|||||||||||8016010452|10|P|14/12/2016
DTN|FXTH_2W_20161215_0300|FXTH|STANDARD|101387|DTAC-N|SIN2016000490|22/11/2016|DTACN-IN|THB|125264623.32|15/12/2016||30 Days|CHECK|1|ITEM|100916363.52||||||||||||||||||||15/12/2016|||||||||||8016010452|12|P|14/12/2016
DTN|FXTH_2W_20161215_0300|FXTH|STANDARD|101387|DTAC-N|SIN2016000491|22/11/2016|DTACN-IN|THB|86455821.31|15/12/2016||30 Days|CHECK|1|ITEM|64722685||||||||||||||||||||15/12/2016|||||||||||8016010452|2|P|14/12/2016
DTN|FXTH_2W_20161215_0300|FXTH|STANDARD|101387|DTAC-N|SIN2016000491|22/11/2016|DTACN-IN|THB|86455821.31|15/12/2016||30 Days|CHECK|1|ITEM|16077148||||||||||||||||||||15/12/2016|||||||||||8016010452|5|P|14/12/2016
DTAC|FXTH_2W_20161215_0300|FXTH|STANDARD|100452|HO|SVUC/5912001|06/12/2016|IN10|THB|2889000|15/12/2016||30 Days|CHECK|1|ITEM|2700000||||||||||||||||||||15/12/2016|||||||||||10160027064|1|P|14/12/2016
DTN|FXTH_2W_20161215_0300|FXTH|STANDARD|176664|DTAC-N|SIN2016000317|06/12/2016|DTACN-IN|THB|483070.25|15/12/2016||15|CHECK|1|ITEM|451467.52||||||||||||||||||||15/12/2016|||||||||||8016010609|1|P|14/12/2016
DTAC|FXTH_2W_20161215_0300|FXTH|STANDARD|220977|HO|W-IN-17-5911-0017579|04/12/2016|IN10|THB|426.93|15/12/2016||15|CHECK|1|ITEM|399||||||||||||||||||||15/12/2016|||||||||||10160027885|1|P|14/12/2016
DTAC|FXTH_2W_20161215_0300|FXTH|STANDARD|220977|HO|W-IN-17-5911-0017580|04/12/2016|IN10|THB|426.93|15/12/2016||15|CHECK|1|ITEM|399||||||||||||||||||||15/12/2016|||||||||||10160027885|1|P|14/12/2016
DTAC|FXTH_2W_20161215_0300|FXTH|STANDARD|220977|HO|W-IN-17-5911-0017581|04/12/2016|IN10|THB|426.93|15/12/2016||15|CHECK|1|ITEM|399||||||||||||||||||||15/12/2016|||||||||||10160027885|1|P|14/12/2016
DTAC|FXTH_2W_20161215_0300|FXTH|STANDARD|220977|HO|W-IN-17-5911-0017582|04/12/2016|IN10|THB|426.93|15/12/2016||15|CHECK|1|ITEM|399||||||||||||||||||||15/12/2016|||||||||||10160027885|1|P|14/12/2016
DTAC|FXTH_2W_20161215_0300|FXTH|STANDARD|220977|HO|W-IN-17-5911-0017583|04/12/2016|IN10|THB|426.93|15/12/2016||15|CHECK|1|ITEM|399||||||||||||||||||||15/12/2016|||||||||||10160027885|1|P|14/12/2016
DTAC|FXTH_2W_20161215_0300|FXTH|STANDARD|220977|HO|W-IN-17-5911-0017584|04/12/2016|IN10|THB|426.93|15/12/2016||15|CHECK|1|ITEM|399||||||||||||||||||||15/12/2016|||||||||||10160027885|1|P|14/12/2016
DTAC|FXTH_2W_20161215_0300|FXTH|STANDARD|220977|HO|W-IN-17-5911-0017585|04/12/2016|IN10|THB|426.93|15/12/2016||15|CHECK|1|ITEM|399||||||||||||||||||||15/12/2016|||||||||||10160027885|1|P|14/12/2016
DTAC|FXTH_2W_20161215_0300|FXTH|STANDARD|220977|HO|W-IN-17-5911-0076495|04/12/2016|IN10|THB|426.93|15/12/2016||15|CHECK|1|ITEM|399||||||||||||||||||||15/12/2016|||||||||||10160027885|1|P|14/12/2016
DTAC|FXTH_2W_20161215_0300|FXTH|STANDARD|220977|HO|W-IN-17-5911-0076496|04/12/2016|IN10|THB|593.85|15/12/2016||15|CHECK|1|ITEM|555||||||||||||||||||||15/12/2016|||||||||||10160027885|1|P|14/12/2016
DTAC|FXTH_2W_20161215_0300|FXTH|STANDARD|220977|HO|W-IN-17-5911-0076497|04/12/2016|IN10|THB|426.93|15/12/2016||15|CHECK|1|ITEM|399||||||||||||||||||||15/12/2016|||||||||||10160027885|1|P|14/12/2016
DTAC|FXTH_2W_20161215_0300|FXTH|STANDARD|220977|HO|W-IN-17-5911-0076498|04/12/2016|IN10|THB|426.93|15/12/2016||15|CHECK|1|ITEM|399||||||||||||||||||||15/12/2016|||||||||||10160027885|1|P|14/12/2016
DTAC|FXTH_2W_20161215_0300|FXTH|STANDARD|220977|HO|W-IN-17-5911-0076499|04/12/2016|IN10|THB|426.93|15/12/2016||15|CHECK|1|ITEM|399||||||||||||||||||||15/12/2016|||||||||||10160027885|1|P|14/12/2016
DTAC|FXTH_2W_20161215_0300|FXTH|STANDARD|220977|HO|W-IN-17-5911-0076501|04/12/2016|IN10|THB|426.93|15/12/2016||15|CHECK|1|ITEM|399||||||||||||||||||||15/12/2016|||||||||||10160027885|1|P|14/12/2016
DTAC|FXTH_2W_20161215_0300|FXTH|STANDARD|220977|HO|W-IN-17-5911-0380118|04/12/2016|IN10|THB|426.93|15/12/2016||15|CHECK|1|ITEM|399||||||||||||||||||||15/12/2016|||||||||||10160027885|1|P|14/12/2016
DTAC|FXTH_2W_20161215_0300|FXTH|STANDARD|220977|HO|W-IN-17-5911-0380119|04/12/2016|IN10|THB|426.93|15/12/2016||15|CHECK|1|ITEM|399||||||||||||||||||||15/12/2016|||||||||||10160027885|1|P|14/12/2016
DTAC|FXTH_2W_20161215_0300|FXTH|STANDARD|220977|HO|W-IN-17-5911-0380120|04/12/2016|IN10|THB|449.4|15/12/2016||15|CHECK|1|ITEM|420||||||||||||||||||||15/12/2016|||||||||||10160027885|1|P|14/12/2016
DTAC|FXTH_2W_20161215_0300|FXTH|STANDARD|220977|HO|W-IN-17-5911-0380121|04/12/2016|IN10|THB|426.93|15/12/2016||15|CHECK|1|ITEM|399||||||||||||||||||||15/12/2016|||||||||||10160027885|1|P|14/12/2016
DTAC|FXTH_2W_20161215_0300|FXTH|STANDARD|220977|HO|W-IN-17-5911-0380122|04/12/2016|IN10|THB|426.93|15/12/2016||15|CHECK|1|ITEM|399||||||||||||||||||||15/12/2016|||||||||||10160027885|1|P|14/12/2016
DTAC|FXTH_2W_20161215_0300|FXTH|STANDARD|220977|HO|W-IN-17-5911-0380123|04/12/2016|IN10|THB|426.93|15/12/2016||15|CHECK|1|ITEM|399||||||||||||||||||||15/12/2016|||||||||||10160027885|1|P|14/12/2016
DTAC|FXTH_2W_20161215_0300|FXTH|STANDARD|288344|HO|IV161130-02|30/11/2016|IN10|THB|39900|15/12/2016||30 Days|CHECK|1|ITEM|37289.72||||||||||||||||||||15/12/2016|||||||||||10160026440|1|P|14/12/2016
DTAC|FXTH_2W_20161215_0300|FXTH|STANDARD|289178|HO|IV5912001|01/12/2016|IN10|THB|34999.7|15/12/2016||30 Days|CHECK|1|ITEM|32710||||||||||||||||||||15/12/2016|||||||||||10160026431|1|P|14/12/2016
DTAC|FXTH_2W_20161215_0300|FXTH|STANDARD|124681|HO|SN16-0013|23/11/2016|IN10|THB|21528.8|15/12/2016||30 Days|CHECK|1|ITEM|21528.8||||||||||||||||||||15/12/2016|||||||||||10160026433|1|P|14/12/2016
DTAC|FXTH_2W_20161215_0300|FXTH|STANDARD|289683|HO|INV201612001|07/12/2016|IN10|THB|19500|15/12/2016||30 Days|CHECK|1|ITEM|18224.3||||||||||||||||||||15/12/2016|||||||||||10160026952|1|P|14/12/2016
DTAC|FXTH_2W_20161215_0300|FXTH|STANDARD|289178|HO|IV5911001|17/11/2016|IN10|THB|34999.7|15/12/2016||30 Days|CHECK|1|ITEM|32710||||||||||||||||||||15/12/2016|||||||||||10160025243|1|P|14/12/2016
DTN|FXTH_2W_20161215_0300|FXTH|STANDARD|184906|DTAC-N|1901601221|07/09/2016|DTACN-IN|THB|23871|15/12/2016||30 Days|CHECK|1|ITEM|23871||||||||||||||||||||15/12/2016|||||||||||8016010034|1|P|02/12/2016
DTN|FXTH_2W_20161215_0300|FXTH|STANDARD|289347|DTAC-N|MISB/IB/00009268|30/11/2016|DTACN-IN|USD|6057.22|15/12/2016||30 Days|CHECK|1|ITEM|6057.22||||||||||||||||||||15/12/2016|||||||||||8016010877|1|P|14/12/2016
DTN|FXTH_2W_20161215_0300|FXTH|STANDARD|184906|DTAC-N|1901601167|31/08/2016|DTACN-IN|THB|66270.42|15/12/2016||30 Days|CHECK|1|ITEM|66270.42||||||||||||||||||||15/12/2016|||||||||||8016010038|1|P|02/12/2016
DTN|FXTH_2W_20161215_0300|FXTH|STANDARD|MMRFT|DTAC-N|D04-AR-INV-0215|13/12/2016|DTACN-IN|USD|1015432.71|15/12/2016||30 Days|CHECK|1|ITEM|1015432.71||||||||||||||||||||15/12/2016|||||||||||8016010868|1|P|14/12/2016
DTN|FXTH_2W_20161215_0300|FXTH|STANDARD|184906|DTAC-N|1901601243|07/09/2016|DTACN-IN|THB|168465.8|15/12/2016||30 Days|CHECK|1|ITEM|168465.8||||||||||||||||||||15/12/2016|||||||||||8016010036|1|P|02/12/2016
DTN|FXTH_2W_20161215_0300|FXTH|STANDARD|184906|DTAC-N|1901601231|07/09/2016|DTACN-IN|THB|99549.7|15/12/2016||30 Days|CHECK|1|ITEM|99549.7||||||||||||||||||||15/12/2016|||||||||||8016010032|1|P|02/12/2016
DTAC|FXTH_2W_20161215_0300|FXTH|STANDARD|220977|HO|W-IN-17-5911-0076500|04/12/2016|IN10|THB|522.16|15/12/2016||15|CHECK|1|ITEM|488||||||||||||||||||||15/12/2016|||||||||||10160027942|1|P|14/12/2016
DTAC|FXTH_2W_20161215_0300|FXTH|STANDARD|220977|HO|W-IN-17-5911-0160921|04/12/2016|IN10|THB|522.16|15/12/2016||15|CHECK|1|ITEM|488||||||||||||||||||||15/12/2016|||||||||||10160027942|1|P|14/12/2016
DTAC|FXTH_2W_20161215_0300|FXTH|STANDARD|220977|HO|W-IN-17-5911-0193889|04/12/2016|IN10|THB|522.16|15/12/2016||15|CHECK|1|ITEM|488||||||||||||||||||||15/12/2016|||||||||||10160027942|1|P|14/12/2016
DTAC|FXTH_2W_20161215_0300|FXTH|STANDARD|220977|HO|W-IN-17-5911-0380124|04/12/2016|IN10|THB|522.16|15/12/2016||15|CHECK|1|ITEM|488||||||||||||||||||||15/12/2016|||||||||||10160027942|1|P|14/12/2016
DTN|FXTH_2W_20161215_0300|FXTH|STANDARD|184906|DTAC-N|1901601233|07/09/2016|DTACN-IN|THB|90295.69|15/12/2016||30 Days|CHECK|1|ITEM|90295.69||||||||||||||||||||15/12/2016|||||||||||8016010040|1|P|02/12/2016
DTN|FXTH_2W_20161215_0300|FXTH|STANDARD|MMROM|DTAC-N|IC/Voice/DTAC/October/2016/001|23/11/2016|DTACN-IN|USD|177289.5|15/12/2016||30 Days|CHECK|1|ITEM|177289.5||||||||||||||||||||15/12/2016|||||||||||8016010873|1|P|14/12/2016
DTAC|FXTH_2W_20161215_0300|FXTH|STANDARD|100089|HO|16GA042|18/11/2016|IN10|THB|123852.5|15/12/2016||30 Days|CHECK|1|ITEM|115750||||||||||||||||||||15/12/2016|||||||||||10160027789|1|P|14/12/2016
DTAC|FXTH_2W_20161215_0300|FXTH|STANDARD|100089|HO|16GA043|18/11/2016|IN10|THB|16306.8|15/12/2016||30 Days|CHECK|1|ITEM|15240||||||||||||||||||||15/12/2016|||||||||||10160027789|1|P|14/12/2016
DTAC|FXTH_2W_20161215_0300|FXTH|STANDARD|100089|HO|16GA044|18/11/2016|IN10|THB|190770.3|15/12/2016||30 Days|CHECK|1|ITEM|178290||||||||||||||||||||15/12/2016|||||||||||10160027789|1|P|14/12/2016
DTN|FXTH_2W_20161215_0300|FXTH|STANDARD|238411|DTAC-N|5210305508|05/12/2016|DTACN-IN|USD|109176.59|15/12/2016||30 Days|CHECK|1|ITEM|109176.59||||||||||||||||||||15/12/2016|||||||||||8016010875|1|P|14/12/2016
DTN|FXTH_2W_20161215_0300|FXTH|STANDARD|207491|DTAC-N|VIGSS-020465-1|01/12/2016|DTACN-IN|USD|695.52|15/12/2016||30 Days|CHECK|1|ITEM|695.52||||||||||||||||||||15/12/2016|||||||||||8016010874|1|P|14/12/2016
DTAC|FXTH_2W_20161215_0300|FXTH|STANDARD|100089|HO|16PG113|18/11/2016|IN10|THB|58000|15/12/2016||30 Days|CHECK|1|ITEM|58000||||||||||||||||||||15/12/2016|||||||||||10160027794|1|P|14/12/2016
DTAC|FXTH_2W_20161215_0300|FXTH|STANDARD|100089|HO|16PG114|18/11/2016|IN10|THB|2500|15/12/2016||30 Days|CHECK|1|ITEM|2500||||||||||||||||||||15/12/2016|||||||||||10160027794|1|P|14/12/2016
DTAC|FXTH_2W_20161215_0300|FXTH|STANDARD|100089|HO|16PG115|18/11/2016|IN10|THB|160550|15/12/2016||30 Days|CHECK|1|ITEM|160550||||||||||||||||||||15/12/2016|||||||||||10160027794|1|P|14/12/2016
DTAC|FXTH_2W_20161215_0300|FXTH|STANDARD|100089|HO|16PG116|18/11/2016|IN10|THB|34800|15/12/2016||30 Days|CHECK|1|ITEM|34800||||||||||||||||||||15/12/2016|||||||||||10160027794|1|P|14/12/2016
DTAC|FXTH_2W_20161215_0300|FXTH|STANDARD|100089|HO|16PG117|18/11/2016|IN10|THB|7500|15/12/2016||30 Days|CHECK|1|ITEM|7500||||||||||||||||||||15/12/2016|||||||||||10160027794|1|P|14/12/2016
DTAC|FXTH_2W_20161215_0300|FXTH|STANDARD|100089|HO|16PG118|18/11/2016|IN10|THB|11420|15/12/2016||30 Days|CHECK|1|ITEM|11420||||||||||||||||||||15/12/2016|||||||||||10160027794|1|P|14/12/2016
DTAC|FXTH_2W_20161215_0300|FXTH|STANDARD|100089|HO|16PG119|18/11/2016|IN10|THB|11420|15/12/2016||30 Days|CHECK|1|ITEM|11420||||||||||||||||||||15/12/2016|||||||||||10160027794|1|P|14/12/2016