﻿OrgCode|GROUP_NAME|SOURCE|INVOICE_TYPE_LOOKUP_CODE|VENDOR_NUM|VENDOR_SITE_CODE|INVOICE_NUM|INVOICE_DATE|DOC_CATEGORY_CODE|INVOICE_CURRENCY_CODE|INVOICE_AMOUNT|GL_DATE|INVOICE_DESCRIPTION|TERMS_NAME|PAYMENT_METHOD_LOOKUP_CODE|LINE_NUMBER|LINE_TYPE_LOOKUP_CODE|LINE_AMOUNT|LINE_TAX_CODE|AWT_GROUP_NAME|DIST_CODE_CONCATINATED|LINE_DESCRIPTION|ACT_VENDOR_NUM|ACT_VENDOR_SITE_CODE|REPORTING_ENTITY|TAX_INVOICE_DATE|TAX_INVOICE_NUM|TAX_ACCT_PERIOD|WHT_ACCT_PERIOD|PHOR_NGOR_DOR|WHT_CONDITION|WHT_REVENUE_TYPE|WHT_REVENUE_NAME|PROJECT_NUMBER|PROJECT_TASK_NUMBER|EXPENDITURE_TYPE|EXPENDITURE_ORGANIZATION|EAI_CRTD_DTTM|PAYEE|MAIL_TO_NAME|MAIL_TO_ADDRESS1|MAIL_TO_ADDRESS2|MAIL_TO_ADDRESS3|MAIL_TO_ADDRESS4|PO_NUMBER|PO_LINE_NUMBER|RECEIPT_NUMBER|RECEIPT_LINE_NUMBER|PR NUMBER|PR LINE NUMBER|MATCH_OPTION|BILL_PLACEMENT_DATE
DTAC|FXTH_2W_20161222_0300|FXTH|STANDARD|124681|HO|SN16-0012|26/10/2016|IN10|THB|15814.17|22/12/2016||30 Days|CHECK|1|ITEM|15814.17||||||||||||||||||||22/12/2016|||||||||||10160024991|1|P|23/11/2016
DTAC|FXTH_2W_20161222_0300|FXTH|STANDARD|124681|HO|SN16-0013|23/11/2016|IN10|THB|21528.8|22/12/2016||30 Days|CHECK|1|ITEM|21528.8||||||||||||||||||||22/12/2016|||||||||||10160026433|1|P|14/12/2016
DTAC|FXTH_2W_20161222_0300|FXTH|STANDARD|253282|HO1|591212-001|12/12/2016|IN10|THB|44500|22/12/2016||30 Days|CHECK|1|ITEM|41588.78||||||||||||||||||||22/12/2016|||||||||||10160027851|1|P|19/12/2016
DTAC|FXTH_2W_20161222_0300|FXTH|STANDARD|145519|HO|1612-AR0001|09/12/2016|IN10|THB|384130|22/12/2016||30 Days|CHECK|1|ITEM|359000||||||||||||||||||||22/12/2016|||||||||||10160028497|1|P|19/12/2016
DTAC|FXTH_2W_20161222_0300|FXTH|STANDARD|174243|HO|TV-09000641|30/09/2016|IN10|THB|160500|22/12/2016||15|CHECK|1|ITEM|150000||||||||||||||||||||22/12/2016|||||||||||10160027276|1|P|20/12/2016
DTN|FXTH_2W_20161222_0300|FXTH|STANDARD|288516|DTAC-N|PTSIV5912-00001|16/12/2016|DTACN-IN|THB|34027.7|22/12/2016||45|CHECK|1|ITEM|31801.59||||||||||||||||||||22/12/2016|||||||||||8016011196|1|P|20/12/2016
DTN|FXTH_2W_20161222_0300|FXTH|STANDARD|100504|DTAC-N|PRCAT0020|29/12/2016|DTACN-IN|THB|197415|22/12/2016||15|CHECK|1|ITEM|184500||||||||||||||||||||22/12/2016|||||||||||8016011191|1|P|20/12/2016
DTN|FXTH_2W_20161222_0300|FXTH|STANDARD|100504|DTAC-N|PRTEC0145|29/12/2016|DTACN-IN|THB|1082305|22/12/2016||15|CHECK|1|ITEM|1011500||||||||||||||||||||22/12/2016|||||||||||8016011191|1|P|20/12/2016
DTAC|FXTH_2W_20161222_0300|FXTH|STANDARD|286746|HO|10160028224|21/11/2016|IN10|THB|44000|22/12/2016||30 Days|CHECK|1|ITEM|44000||||||||||||||||||||22/12/2016|||||||||||10160028224|1|P|20/12/2016
DTN|FXTH_2W_20161222_0300|FXTH|STANDARD|244095|DTAC-N|8016009117|21/09/2016|DTACN-IN|THB|45000|22/12/2016||15|CHECK|1|ITEM|45000||||||||||||||||||||22/12/2016|||||||||||8016009117|1|P|20/12/2016
DTAC|FXTH_2W_20161222_0300|FXTH|STANDARD|233866|HO|INV2016020014|23/02/2016|IN10|THB|72225|22/12/2016||15|CHECK|1|ITEM|67500||||||||||||||||||||22/12/2016|||||||||||10160028577|1|P|20/12/2016
DTAC|FXTH_2W_20161222_0300|FXTH|STANDARD|100350|HO|I161225|16/12/2016|IN10|THB|33705|22/12/2016||15|CHECK|1|ITEM|31500||||||||||||||||||||22/12/2016|||||||||||10160029049|1|P|20/12/2016
DTAC|FXTH_2W_20161222_0300|FXTH|STANDARD|288593|HO|IV5912/078|16/12/2016|IN10|THB|50718|22/12/2016||30 Days|CHECK|1|ITEM|47400||||||||||||||||||||22/12/2016|||||||||||10160029094|1|P|20/12/2016
DTAC|FXTH_2W_20161222_0300|FXTH|STANDARD|288593|HO|IV5912/079|16/12/2016|IN10|THB|56068|22/12/2016||45|CHECK|1|ITEM|52400||||||||||||||||||||22/12/2016|||||||||||10160029096|1|P|20/12/2016
DTAC|FXTH_2W_20161222_0300|FXTH|STANDARD|288593|HO|IV5912/080|16/12/2016|IN10|THB|61418|22/12/2016||60|CHECK|1|ITEM|57400||||||||||||||||||||22/12/2016|||||||||||10160029081|1|P|20/12/2016
DTAC|FXTH_2W_20161222_0300|FXTH|STANDARD|172135|HO|IV1601016|19/12/2016|IN10|THB|28890|22/12/2016||15|CHECK|1|ITEM|27000||||||||||||||||||||22/12/2016|||||||||||10160029054|1|P|20/12/2016
DTN|FXTH_2W_20161222_0300|FXTH|STANDARD|236513|DTAC-N|1901600512|01/12/2016|DTACN-IN|THB|363800|22/12/2016||30 Days|CHECK|1|ITEM|340000||||||||||||||||||||22/12/2016|||||||||||8016010920|1|P|20/12/2016
DTN|FXTH_2W_20161222_0300|FXTH|STANDARD|236835|DTAC-N|123/2016|15/09/2016|DTACN-IN|THB|55609.91|22/12/2016||15|CHECK|1|ITEM|55609.91||||||||||||||||||||22/12/2016|||||||||||8016010473|1|P|20/12/2016
DTN|FXTH_2W_20161222_0300|FXTH|STANDARD|236835|DTAC-N|DTAC_16_126|15/09/2016|DTACN-IN|THB|1941.54|22/12/2016||15|CHECK|1|ITEM|1814.52||||||||||||||||||||22/12/2016|||||||||||8016010470|1|P|20/12/2016
DTN|FXTH_2W_20161222_0300|FXTH|STANDARD|236835|DTAC-N|122/2016|15/09/2016|DTACN-IN|THB|102208.13|22/12/2016||15|CHECK|1|ITEM|102208.13||||||||||||||||||||22/12/2016|||||||||||8016010408|1|P|20/12/2016
DTN|FXTH_2W_20161222_0300|FXTH|STANDARD|236835|DTAC-N|117/2016|15/12/2016|DTACN-IN|THB|36290.15|22/12/2016||15|CHECK|1|ITEM|36290.15||||||||||||||||||||22/12/2016|||||||||||8016010471|1|P|20/12/2016
DTN|FXTH_2W_20161222_0300|FXTH|STANDARD|236835|DTAC-N|DTAC_16_144|28/09/2016|DTACN-IN|THB|156.65|22/12/2016||15|CHECK|1|ITEM|146.4||||||||||||||||||||22/12/2016|||||||||||8016010463|1|P|20/12/2016
DTN|FXTH_2W_20161222_0300|FXTH|STANDARD|236835|DTAC-N|DTAC_16_127|15/09/2016|DTACN-IN|THB|2590.82|22/12/2016||15|CHECK|1|ITEM|2421.33||||||||||||||||||||22/12/2016|||||||||||8016010411|1|P|20/12/2016
DTN|FXTH_2W_20161222_0300|FXTH|STANDARD|236835|DTAC-N|128-2016|28/09/2016|DTACN-IN|THB|4246.5|22/12/2016||15|CHECK|1|ITEM|4246.5||||||||||||||||||||22/12/2016|||||||||||8016010462|1|P|20/12/2016
DTN|FXTH_2W_20161222_0300|FXTH|STANDARD|236835|DTAC-N|DTAC_16_130|15/09/2016|DTACN-IN|THB|666.89|22/12/2016||15|CHECK|1|ITEM|623.26||||||||||||||||||||22/12/2016|||||||||||8016010453|1|P|20/12/2016
DTN|FXTH_2W_20161222_0300|FXTH|STANDARD|236835|DTAC-N|118/2016|15/09/2016|DTACN-IN|THB|48426.06|22/12/2016||15|CHECK|1|ITEM|48426.06||||||||||||||||||||22/12/2016|||||||||||8016010423|1|P|20/12/2016
DTN|FXTH_2W_20161222_0300|FXTH|STANDARD|236835|HO|121/2016|15/09/2016|DTACN-IN|THB|12465.18|22/12/2016||15|CHECK|1|ITEM|12465.18||||||||||||||||||||22/12/2016|||||||||||8016010459|1|P|20/12/2016
DTN|FXTH_2W_20161222_0300|FXTH|STANDARD|236835|DTAC-N|DTAC_16_128|15/09/2016|DTACN-IN|THB|1718.71|22/12/2016||15|CHECK|1|ITEM|1606.27||||||||||||||||||||22/12/2016|||||||||||8016010465|1|P|20/12/2016
DTN|FXTH_2W_20161222_0300|FXTH|STANDARD|236835|DTAC-N|119/2016|15/09/2016|DTACN-IN|THB|32125.41|22/12/2016||15|CHECK|1|ITEM|32125.41||||||||||||||||||||22/12/2016|||||||||||8016010468|1|P|20/12/2016
DTN|FXTH_2W_20161222_0300|FXTH|STANDARD|236835|DTAC-N|125/2016|15/09/2016|DTACN-IN|THB|26058.63|22/12/2016||15|CHECK|1|ITEM|26058.63||||||||||||||||||||22/12/2016|||||||||||8016010410|1|P|20/12/2016
DTN|FXTH_2W_20161222_0300|FXTH|STANDARD|236835|DTAC-N|DTAC_16_141|28/09/2016|DTACN-IN|THB|280.51|22/12/2016||15|CHECK|1|ITEM|262.16||||||||||||||||||||22/12/2016|||||||||||8016010444|1|P|20/12/2016
DTN|FXTH_2W_20161222_0300|FXTH|STANDARD|236835|DTAC-N|DTAC_16_132|15/09/2016|DTACN-IN|THB|2975.14|22/12/2016||15|CHECK|1|ITEM|2780.5||||||||||||||||||||22/12/2016|||||||||||8016010472|1|P|20/12/2016
DTN|FXTH_2W_20161222_0300|FXTH|STANDARD|236835|DTAC-N|DTAC_16_135|15/09/2016|DTACN-IN|THB|1394.16|22/12/2016||15|CHECK|1|ITEM|1302.95||||||||||||||||||||22/12/2016|||||||||||8016010409|1|P|20/12/2016
DTN|FXTH_2W_20161222_0300|FXTH|STANDARD|236835|DTAC-N|126/2016|28/09/2016|DTACN-IN|THB|5243|22/12/2016||15|CHECK|1|ITEM|5243||||||||||||||||||||22/12/2016|||||||||||8016010446|1|P|20/12/2016
DTN|FXTH_2W_20161222_0300|FXTH|STANDARD|236835|DTAC-N|DTAC_16_142|28/09/2016|DTACN-IN|THB|1703.98|22/12/2016||15|CHECK|1|ITEM|1592.5||||||||||||||||||||22/12/2016|||||||||||8016010425|1|P|20/12/2016
DTN|FXTH_2W_20161222_0300|FXTH|STANDARD|236835|DTAC-N|127/2016|28/09/2016|DTACN-IN|THB|31850|22/12/2016||15|CHECK|1|ITEM|31850||||||||||||||||||||22/12/2016|||||||||||8016010428|1|P|20/12/2016
DTN|FXTH_2W_20161222_0300|FXTH|STANDARD|236835|DTAC-N|DTAC_16_143|28/09/2016|DTACN-IN|THB|227.19|22/12/2016||15|CHECK|1|ITEM|212.33||||||||||||||||||||22/12/2016|||||||||||8016010461|1|P|20/12/2016
DTN|FXTH_2W_20161222_0300|FXTH|STANDARD|236835|DTAC-N|129/2016|28/09/2016|DTACN-IN|THB|2928|22/12/2016||15|CHECK|1|ITEM|2928||||||||||||||||||||22/12/2016|||||||||||8016010464|1|P|20/12/2016
DTN|FXTH_2W_20161222_0300|FXTH|STANDARD|236835|DTAC-N|DTAC_16_131|15/09/2016|DTACN-IN|THB|5468.15|22/12/2016||15|CHECK|1|ITEM|5110.42||||||||||||||||||||22/12/2016|||||||||||8016010406|1|P|20/12/2016
DTN|FXTH_2W_20161222_0300|FXTH|STANDARD|101387|DTAC-N|SIN2016000501|09/12/2016|DTACN-IN|THB|399110000|22/12/2016||15|CHECK|1|ITEM|373000000||||||||||||||||||||22/12/2016|||||||||||8016010882|1|P|20/12/2016
DTN|FXTH_2W_20161222_0300|FXTH|STANDARD|178410|DTAC-N|1216120279|01/12/2016|DTACN-IN|THB|758095|22/12/2016||30 Days|CHECK|1|ITEM|641000||||||||||||||||||||22/12/2016|||||||||||8016010918|1|P|20/12/2016
DTN|FXTH_2W_20161222_0300|FXTH|STANDARD|178410|DTAC-N|1216120279|01/12/2016|DTACN-IN|THB|758095|22/12/2016||30 Days|CHECK|2|ITEM|67500||||||||||||||||||||22/12/2016|||||||||||8016010918|1|P|20/12/2016
DTAC|FXTH_2W_20161222_0300|FXTH|STANDARD|124681|HO|SN16-0001|25/11/2016|IN10|THB|33131|22/12/2016||30 Days|CHECK|1|ITEM|33131||||||||||||||||||||22/12/2016|||||||||||10160026186|1|P|20/12/2016
DTAC|FXTH_2W_20161222_0300|FXTH|STANDARD|257216|HO|19356|25/11/2016|IN10|THB|41800|22/12/2016||30 Days|CHECK|1|ITEM|39065.44||||||||||||||||||||22/12/2016|||||||||||10160026456|1|P|20/12/2016
DTAC|FXTH_2W_20161222_0300|FXTH|STANDARD|257216|HO|19355|30/12/2016|IN10|THB|10800|22/12/2016||30 Days|CHECK|1|ITEM|10093.46||||||||||||||||||||22/12/2016|||||||||||10160026462|1|P|20/12/2016
DTAC|FXTH_2W_20161222_0300|FXTH|STANDARD|257216|HO|19179|18/11/2016|IN10|THB|53000|22/12/2016||30 Days|CHECK|1|ITEM|49532.74||||||||||||||||||||22/12/2016|||||||||||10160026455|1|P|20/12/2016
DTAC|FXTH_2W_20161222_0300|FXTH|STANDARD|124000|HO|08824|06/12/2016|IN10|THB|80000|22/12/2016||30 Days|CHECK|1|ITEM|74766.36||||||||||||||||||||22/12/2016|||||||||||10160027227|1|P|20/12/2016
DTAC|FXTH_2W_20161222_0300|FXTH|STANDARD|257216|HO|19431|28/11/2016|IN10|THB|9000|22/12/2016||30 Days|CHECK|1|ITEM|8411.22||||||||||||||||||||22/12/2016|||||||||||10160027240|1|P|20/12/2016
DTAC|FXTH_2W_20161222_0300|FXTH|STANDARD|103380|HO|1901600361|06/12/2016|IN10|THB|8566.96|22/12/2016||30 Days|CHECK|1|ITEM|8006.5||||||||||||||||||||22/12/2016|||||||||||10160027305|1|P|20/12/2016
PSB|FXTH_2W_20161222_0300|FXTH|STANDARD|171303|PSB|1901600371|09/12/2016|PB-IN|THB|7833314.2|22/12/2016||30 Days|CHECK|1|ITEM|7320854.39||||||||||||||||||||22/12/2016|||||||||||1216001142|1|P|20/12/2016
DTAC|FXTH_2W_20161222_0300|FXTH|STANDARD|239938|HO|9451|13/12/2016|IN10|THB|107000|22/12/2016||30 Days|CHECK|1|ITEM|100000||||||||||||||||||||22/12/2016|||||||||||10160028644|1|P|20/12/2016
DTAC|FXTH_2W_20161222_0300|FXTH|STANDARD|127058|HO|IV16120077|13/12/2016|IN10|THB|49755|22/12/2016||30 Days|CHECK|1|ITEM|46500||||||||||||||||||||22/12/2016|||||||||||10160029296|1|P|20/12/2016
DTAC|FXTH_2W_20161222_0300|FXTH|STANDARD|127058|HO|IV16120078|13/12/2016|IN10|THB|1990.2|22/12/2016||30 Days|CHECK|1|ITEM|1860||||||||||||||||||||22/12/2016|||||||||||10160029296|1|P|20/12/2016
DTAC|FXTH_2W_20161222_0300|FXTH|STANDARD|101616|HO|IV20161216-02|16/12/2016|IN10|THB|115025|22/12/2016||30 Days|CHECK|1|ITEM|107500||||||||||||||||||||22/12/2016|||||||||||10160029146|1|P|20/12/2016
DTAC|FXTH_2W_20161222_0300|FXTH|STANDARD|107535|HO|SPRBCMAIN11612-0019|14/12/2016|IN10|THB|7591650|22/12/2016||30 Days|CHECK|1|ITEM|7095000||||||||||||||||||||22/12/2016|||||||||||10160028492|1|P|20/12/2016
DTAC|FXTH_2W_20161222_0300|FXTH|STANDARD|202093|HO|IV-59-1209001|09/12/2016|IN10|THB|15400|22/12/2016||30 Days|CHECK|1|ITEM|14392.52||||||||||||||||||||22/12/2016|||||||||||10160029197|1|P|20/12/2016
DTAC|FXTH_2W_20161222_0300|FXTH|STANDARD|222195|HO|HQ-1612-003|09/12/2016|IN10|THB|6950|22/12/2016||30 Days|CHECK|1|ITEM|6495.33||||||||||||||||||||22/12/2016|||||||||||10160029200|1|P|20/12/2016
DTAC|FXTH_2W_20161222_0300|FXTH|STANDARD|100823|HO|10160026728|20/12/2016|IN10|THB|200000|22/12/2016||30 Days|CHECK|1|ITEM|200000||||||||||||||||||||22/12/2016|||||||||||10160026728|1|P|20/12/2016
DTAC|FXTH_2W_20161222_0300|FXTH|STANDARD|178310|HO|00424021|15/12/2016|IN10|THB|355240|22/12/2016||15|CHECK|1|ITEM|332000||||||||||||||||||||22/12/2016|||||||||||10160026820|1|P|20/12/2016
DTAC|FXTH_2W_20161222_0300|FXTH|STANDARD|193908|HO|100676127|07/12/2016|IN10|THB|28622500|22/12/2016||30 Days|CHECK|1|ITEM|26750000||||||||||||||||||||22/12/2016|||||||||||10160028031|1|P|20/12/2016
DTAC|FXTH_2W_20161222_0300|FXTH|STANDARD|222195|HO|HQ-1612-002|09/12/2016|IN10|THB|16050|22/12/2016||30 Days|CHECK|1|ITEM|15000||||||||||||||||||||22/12/2016|||||||||||10160029118|1|P|20/12/2016
DTN|FXTH_2W_20161222_0300|FXTH|STANDARD|214537|DTAC-N|F4816110937|28/11/2016|DTACN-IN|USD|15725|22/12/2016||30 Days|CHECK|1|ITEM|15725||||||||||||||||||||22/12/2016|||||||||||8016010857|1|P|21/12/2016
DTN|FXTH_2W_20161222_0300|FXTH|STANDARD|182903|DTAC-N|201600001705|01/11/2016|DTACN-IN|USD|8500|22/12/2016||30 Days|CHECK|1|ITEM|8500||||||||||||||||||||22/12/2016|||||||||||8016011219|1|P|21/12/2016
DTN|FXTH_2W_20161222_0300|FXTH|STANDARD|182903|DTAC-N|20161258728|09/12/2016|DTACN-IN|USD|22000|22/12/2016||30 Days|CHECK|1|ITEM|22000||||||||||||||||||||22/12/2016|||||||||||8016011030|1|P|21/12/2016
DTN|FXTH_2W_20161222_0300|FXTH|STANDARD|101339|DTAC-N|SIN2015000193|07/12/2016|DTACN-IN|THB|282281.62|22/12/2016||30 Days|CHECK|1|ITEM|263814.6||||||||||||||||||||22/12/2016|||||||||||8016010739|1|P|20/12/2016
DTN|FXTH_2W_20161222_0300|FXTH|STANDARD|101339|DTAC-N|SIN2016000194|07/12/2016|DTACN-IN|THB|226096482.58|22/12/2016||30 Days|CHECK|1|ITEM|211305123.9||||||||||||||||||||22/12/2016|||||||||||8016010739|2|P|20/12/2016
DTN|FXTH_2W_20161222_0300|FXTH|STANDARD|101339|DTAC-N|SIN2016000195|07/12/2016|DTACN-IN|THB|8963784.08|22/12/2016||30 Days|CHECK|1|ITEM|8377368.3||||||||||||||||||||22/12/2016|||||||||||8016010739|3|P|20/12/2016
DTN|FXTH_2W_20161222_0300|FXTH|STANDARD|101339|DTAC-N|SIN2016000196|07/12/2016|DTACN-IN|THB|206357.41|22/12/2016||30 Days|CHECK|1|ITEM|192857.4||||||||||||||||||||22/12/2016|||||||||||8016010739|4|P|20/12/2016
DTN|FXTH_2W_20161222_0300|FXTH|STANDARD|101339|DTAC-N|SIN2016000199|07/12/2016|DTACN-IN|THB|453570.11|22/12/2016||30 Days|CHECK|1|ITEM|423897.3||||||||||||||||||||22/12/2016|||||||||||8016010739|6|P|20/12/2016
DTN|FXTH_2W_20161222_0300|FXTH|STANDARD|101339|DTAC-N|SIN2016000200|07/12/2016|DTACN-IN|THB|1511886.79|22/12/2016||30 Days|CHECK|1|ITEM|1412978.31||||||||||||||||||||22/12/2016|||||||||||8016010739|5|P|20/12/2016
DTAC|FXTH_2W_20161222_0300|FXTH|STANDARD|238373|HO|IX161200136|09/12/2016|IN10|THB|42000|22/12/2016||30 Days|CHECK|1|ITEM|39252.34||||||||||||||||||||22/12/2016|||||||||||10160027408|1|P|21/12/2016
DTAC|FXTH_2W_20161222_0300|FXTH|STANDARD|101331|HO|SIN2016000186|15/12/2016|IN10|THB|74000|22/12/2016||30 Days|CHECK|1|ITEM|69158.88||||||||||||||||||||22/12/2016|||||||||||10160027278|1|P|21/12/2016
DTN|FXTH_2W_20161222_0300|FXTH|STANDARD|182903|DTAC-N|201600001914|01/12/2016|DTACN-IN|USD|8500|22/12/2016||30 Days|CHECK|1|ITEM|8500||||||||||||||||||||22/12/2016|||||||||||8016011220|1|P|21/12/2016
DTN|FXTH_2W_20161222_0300|FXTH|STANDARD|193283|DTAC-N|387783|05/12/2016|DTACN-IN|USD|148.55|22/12/2016||30 Days|CHECK|1|ITEM|148.55||||||||||||||||||||22/12/2016|||||||||||8016011172|2|P|21/12/2016
DTN|FXTH_2W_20161222_0300|FXTH|STANDARD|193283|DTAC-N|388166|05/12/2016|DTACN-IN|USD|2176.82|22/12/2016||30 Days|CHECK|1|ITEM|2176.82||||||||||||||||||||22/12/2016|||||||||||8016011172|1|P|21/12/2016
DTAC|FXTH_2W_20161222_0300|FXTH|STANDARD|100808|HO|ปว./5900364|22/11/2016|IN10|THB|665|22/12/2016||30 Days|CHECK|1|ITEM|665||||||||||||||||||||22/12/2016|||||||||||10160026961|1|P|21/12/2016
DTAC|FXTH_2W_20161222_0300|FXTH|STANDARD|172746|HO|4190894|09/12/2016|IN10|NOK|60000|22/12/2016||30 Days|CHECK|1|ITEM|60000||||||||||||||||||||22/12/2016|||||||||||10160028605|1|P|21/12/2016
DTN|FXTH_2W_20161222_0300|FXTH|STANDARD|101387|DTAC-N|SIN2016000528|16/12/2016|DTACN-IN|THB|26685330.27|22/12/2016||15|CHECK|1|ITEM|3413220||||||||||||||||||||22/12/2016|||||||||||8016011072|1|P|21/12/2016
DTN|FXTH_2W_20161222_0300|FXTH|STANDARD|101387|DTAC-N|SIN2016000528|16/12/2016|DTACN-IN|THB|26685330.27|22/12/2016||15|CHECK|1|ITEM|8697799||||||||||||||||||||22/12/2016|||||||||||8016011072|2|P|21/12/2016
DTN|FXTH_2W_20161222_0300|FXTH|STANDARD|101387|DTAC-N|SIN2016000528|16/12/2016|DTACN-IN|THB|26685330.27|22/12/2016||15|CHECK|1|ITEM|12828542||||||||||||||||||||22/12/2016|||||||||||8016011072|3|P|21/12/2016
DTAC|FXTH_2W_20161222_0300|FXTH|STANDARD|101331|HO|SIN2016000189|15/12/2016|IN10|THB|642000|22/12/2016||15|CHECK|1|ITEM|600000||||||||||||||||||||22/12/2016|||||||||||10160029083|1|P|21/12/2016
DTN|FXTH_2W_20161222_0300|FXTH|STANDARD|100726|DTAC-N|0000589049226|07/12/2016|DTACN-IN|THB|321000|22/12/2016||15|CHECK|1|ITEM|300000||||||||||||||||||||22/12/2016|||||||||||8016011295|1|P|21/12/2016
DTAC|FXTH_2W_20161222_0300|FXTH|STANDARD|100808|HO|ปว./5900362|22/11/2016|IN10|THB|1995|22/12/2016||30 Days|CHECK|1|ITEM|1995||||||||||||||||||||22/12/2016|||||||||||10160026971|1|P|21/12/2016
DTAC|FXTH_2W_20161222_0300|FXTH|STANDARD|101331|HO|SIN2016000188|15/12/2016|IN10|THB|1938736.5|22/12/2016||15|CHECK|1|ITEM|1811903.27||||||||||||||||||||22/12/2016|||||||||||10160029064|1|P|21/12/2016
DTAC|FXTH_2W_20161222_0300|FXTH|STANDARD|173044|HO|KS/081525|19/12/2016|IN10|THB|160500|22/12/2016||30 Days|CHECK|1|ITEM|150000||||||||||||||||||||22/12/2016|||||||||||10160027012|1|P|21/12/2016
DTAC|FXTH_2W_20161222_0300|FXTH|STANDARD|100587|HO|PA/158620|19/12/2016|IN10|THB|82390|22/12/2016||30 Days|CHECK|1|ITEM|77000||||||||||||||||||||22/12/2016|||||||||||10160026614|1|P|21/12/2016
DTAC|FXTH_2W_20161222_0300|FXTH|STANDARD|252798|HO|009/0951|20/12/2016|IN10|THB|31700|22/12/2016||15|CHECK|1|ITEM|31700||||||||||||||||||||22/12/2016|||||||||||10160029339|1|P|21/12/2016
DTAC|FXTH_2W_20161222_0300|FXTH|STANDARD|221849|HO|IV5912005|14/12/2016|IN10|THB|875795|22/12/2016||15|CHECK|1|ITEM|818500||||||||||||||||||||22/12/2016|||||||||||10160029039|1|P|21/12/2016
DTAC|FXTH_2W_20161222_0300|FXTH|STANDARD|221849|HO|RE5912014|14/12/2016|IN10|THB|208650|22/12/2016||15|CHECK|1|ITEM|195000||||||||||||||||||||22/12/2016|||||||||||10160029042|1|P|21/12/2016
DTAC|FXTH_2W_20161222_0300|FXTH|STANDARD|101164|HO|10160027019|20/12/2016|IN10|THB|7218|22/12/2016||30 Days|CHECK|1|ITEM|7218||||||||||||||||||||22/12/2016|||||||||||10160027019|1|P|21/12/2016
DTAC|FXTH_2W_20161222_0300|FXTH|STANDARD|183680|HO|17-545|18/11/2016|IN10|THB|26750|22/12/2016||30 Days|CHECK|1|ITEM|25000||||||||||||||||||||22/12/2016|||||||||||10160027130|1|P|21/12/2016
DTAC|FXTH_2W_20161222_0300|FXTH|STANDARD|220170|HO|IVDTC2016-532|08/12/2016|IN10|THB|258000|22/12/2016||30 Days|CHECK|1|ITEM|258000||||||||||||||||||||22/12/2016|||||||||||10160028365|1|P|21/12/2016
DTAC|FXTH_2W_20161222_0300|FXTH|STANDARD|220170|HO|IVDTC2016-533|08/12/2016|IN10|THB|2000|22/12/2016||30 Days|CHECK|1|ITEM|2000||||||||||||||||||||22/12/2016|||||||||||10160028365|2|P|21/12/2016
DTAC|FXTH_2W_20161222_0300|FXTH|STANDARD|282847|HO|5912010|19/12/2016|IN10|THB|214000|22/12/2016||30 Days|CHECK|1|ITEM|200000||||||||||||||||||||22/12/2016|||||||||||10160029242|1|P|21/12/2016
DTN|FXTH_2W_20161222_0300|FXTH|STANDARD|101387|DTAC-N|SIN2016000513|15/12/2016|DTACN-IN|THB|768932.04|22/12/2016||15|CHECK|1|ITEM|718628.07||||||||||||||||||||22/12/2016|||||||||||8016011213|2|P|21/12/2016
DTN|FXTH_2W_20161222_0300|FXTH|STANDARD|101387|DTAC-N|SIN2016000515|15/12/2016|DTACN-IN|THB|430172.68|22/12/2016||15|CHECK|1|ITEM|402030.54||||||||||||||||||||22/12/2016|||||||||||8016011213|1|P|21/12/2016
DTN|FXTH_2W_20161222_0300|FXTH|STANDARD|101387|DTAC-N|SIN2016000517|15/12/2016|DTACN-IN|THB|852013.13|22/12/2016||15|CHECK|1|ITEM|796273.95||||||||||||||||||||22/12/2016|||||||||||8016011213|3|P|21/12/2016
DTAC|FXTH_2W_20161222_0300|FXTH|STANDARD|252926|HO|SOVS912404|19/12/2016|IN10|THB|214000|22/12/2016||30 Days|CHECK|1|ITEM|200000||||||||||||||||||||22/12/2016|||||||||||10160028513|1|P|21/12/2016
DTAC|FXTH_2W_20161222_0300|FXTH|STANDARD|100204|HO|590010700|19/12/2016|IN10|THB|64200|22/12/2016||30 Days|CHECK|1|ITEM|60000||||||||||||||||||||22/12/2016|||||||||||10160028159|1|P|21/12/2016
DTAC|FXTH_2W_20161222_0300|FXTH|STANDARD|100587|HO|PA/158623|19/12/2016|IN10|THB|160500|22/12/2016||30 Days|CHECK|1|ITEM|150000||||||||||||||||||||22/12/2016|||||||||||10160028151|1|P|21/12/2016
DTAC|FXTH_2W_20161222_0300|FXTH|STANDARD|100587|HO|PA/158621|19/12/2016|IN10|THB|214000|22/12/2016||30 Days|CHECK|1|ITEM|200000||||||||||||||||||||22/12/2016|||||||||||10160027719|1|P|21/12/2016
DTAC|FXTH_2W_20161222_0300|FXTH|STANDARD|100587|HO|PA/158622|19/12/2016|IN10|THB|214000|22/12/2016||30 Days|CHECK|1|ITEM|200000||||||||||||||||||||22/12/2016|||||||||||10160027720|1|P|21/12/2016
DTAC|FXTH_2W_20161222_0300|FXTH|STANDARD|100587|HO|MA/509718|19/12/2016|IN10|THB|160500|22/12/2016||30 Days|CHECK|1|ITEM|150000||||||||||||||||||||22/12/2016|||||||||||10160026612|1|P|21/12/2016
DTAC|FXTH_2W_20161222_0300|FXTH|STANDARD|100207|HO|ISO-00004629|20/12/2016|IN10|THB|284620|22/12/2016||30 Days|CHECK|1|ITEM|266000||||||||||||||||||||22/12/2016|||||||||||10160026346|1|P|21/12/2016
DTAC|FXTH_2W_20161222_0300|FXTH|STANDARD|101331|HO|SIN2016000187|15/12/2016|IN10|THB|131359.25|22/12/2016||15|CHECK|1|ITEM|122765.65||||||||||||||||||||22/12/2016|||||||||||10160029286|1|P|21/12/2016
DTAC|FXTH_2W_20161222_0300|FXTH|STANDARD|100207|HO|IAMPW1600891|06/12/2016|IN10|THB|64200|22/12/2016||30 Days|CHECK|1|ITEM|60000||||||||||||||||||||22/12/2016|||||||||||10160028158|1|P|21/12/2016
DTAC|FXTH_2W_20161222_0300|FXTH|STANDARD|100207|HO|IPP-00018944|20/12/2016|IN10|THB|1882761.3|22/12/2016||30 Days|CHECK|1|ITEM|1759590||||||||||||||||||||22/12/2016|||||||||||10160026345|1|P|21/12/2016
DTAC|FXTH_2W_20161222_0300|FXTH|STANDARD|100692|HO|10143175|19/12/2016|IN10|THB|107000|22/12/2016||30 Days|CHECK|1|ITEM|100000||||||||||||||||||||22/12/2016|||||||||||10160029614|1|P|21/12/2016
DTAC|FXTH_2W_20161222_0300|FXTH|STANDARD|213588|HO|INV5912007|15/12/2016|IN10|THB|214000|22/12/2016||30 Days|CHECK|1|ITEM|200000||||||||||||||||||||22/12/2016|||||||||||10160029617|1|P|21/12/2016
DTAC|FXTH_2W_20161222_0300|FXTH|STANDARD|209659|HO|23005648|20/12/2016|IN10|THB|214000|22/12/2016||60|CHECK|1|ITEM|200000||||||||||||||||||||22/12/2016|||||||||||10160026613|1|P|21/12/2016
DTAC|FXTH_2W_20161222_0300|FXTH|STANDARD|100938|HO|1901600217|19/12/2016|IN10|THB|455000|22/12/2016||30 Days|CHECK|1|ITEM|455000||||||||||||||||||||22/12/2016|||||||||||10160026348|1|P|21/12/2016
DTAC|FXTH_2W_20161222_0300|FXTH|STANDARD|213588|HO|INV5912006|15/12/2016|IN10|THB|107000|22/12/2016||30 Days|CHECK|1|ITEM|100000||||||||||||||||||||22/12/2016|||||||||||10160029616|1|P|21/12/2016
DTAC|FXTH_2W_20161222_0300|FXTH|STANDARD|101331|HO|SIN2016000192|15/12/2016|IN10|THB|2707022.84|22/12/2016||15|CHECK|1|ITEM|2529927.88||||||||||||||||||||22/12/2016|||||||||||10160029154|2|P|21/12/2016
DTAC|FXTH_2W_20161222_0300|FXTH|STANDARD|101331|HO|SIN2016000193|15/12/2016|IN10|THB|295431.33|22/12/2016||15|CHECK|1|ITEM|276104.05||||||||||||||||||||22/12/2016|||||||||||10160029154|3|P|21/12/2016
DTAC|FXTH_2W_20161222_0300|FXTH|STANDARD|101331|HO|SIN2016000191|15/12/2016|IN10|THB|10614467.98|22/12/2016||15|CHECK|1|ITEM|9920063.54||||||||||||||||||||22/12/2016|||||||||||10160029154|1|P|21/12/2016
DTAC|FXTH_2W_20161222_0300|FXTH|STANDARD|282847|HO|5912010|19/12/2016|IN10|THB|214000|22/12/2016||30 Days|CHECK|1|ITEM|200000||||||||||||||||||||22/12/2016|||||||||||10160028511|1|P|21/12/2016