04-sep-2017 08:10:01|46946526|04-sep-2017 08:05:00|TACPO302_V2|TAC Purchase Orders Summary Report ( For Excel )|, 201, , , APPROVED, , , , 4210, , , , , N, N, ALL, 3000, , B, , Distribution Line, Distribution Line, 04A00407001, O13O1115DD, , , , , |SITTHISN : SITTHISAK, Mr. NINGCHAROEN
04-sep-2017 08:10:01|46955110|04-sep-2017 08:07:01|FNDWF_NTF_RESEND|Resend Failed/Error Workflow Notifications|FAILED, , |DTAC
04-sep-2017 08:10:01|46955111|04-sep-2017 08:07:02|FNDWF_NTF_RESEND|Resend Failed/Error Workflow Notifications|FAILED, , |DTAC
04-sep-2017 08:10:01|46955168|04-sep-2017 08:10:00|FNDWFBG|Workflow Background Process|APEXP, , , Y, Y, Y|DTAC
