07-sep-2017 16:40:01|46993588|07-sep-2017 16:39:20|DTH2H005_V2|TAC: H2H Interface Inbound Payment Result from Citibank||DTAC
07-sep-2017 16:40:01|46993531|07-sep-2017 16:36:01|DTH2H005_FTP|TAC: H2H sftp file ACK from Citibank||DTAC
07-sep-2017 16:40:01|46993572|07-sep-2017 16:38:20|DTH2H005_V2|TAC: H2H Interface Inbound Payment Result from Citibank||DTAC
07-sep-2017 16:40:01|46993515|07-sep-2017 16:34:01|DTH2H005_FTP|TAC: H2H sftp file ACK from Citibank||DTAC
07-sep-2017 16:40:01|46993527|07-sep-2017 16:35:36|DTH2H005_V2|TAC: H2H Interface Inbound Payment Result from Citibank||DTAC
07-sep-2017 16:40:01|46993539|07-sep-2017 16:37:02|DTH2H005_FTP|TAC: H2H sftp file ACK from Citibank||DTAC
07-sep-2017 16:40:01|46993566|07-sep-2017 16:38:03|DTH2H005_FTP|TAC: H2H sftp file ACK from Citibank||DTAC
07-sep-2017 16:40:01|46993536|07-sep-2017 16:36:49|DTH2H005_V2|TAC: H2H Interface Inbound Payment Result from Citibank||DTAC
07-sep-2017 16:40:01|46993442|07-sep-2017 16:37:42|FNDWF_NTF_RESEND|Resend Failed/Error Workflow Notifications|FAILED, , |DTAC
07-sep-2017 16:40:01|46993443|07-sep-2017 16:37:42|FNDWF_NTF_RESEND|Resend Failed/Error Workflow Notifications|FAILED, , |DTAC
07-sep-2017 16:40:01|46993590|07-sep-2017 16:39:56|TACOM004|TAC Despatch Note (Packing Slip Report)|298, 980004, N, D, DRAFT, BOTH, INV, , , , 2, Y, N, TAC_DIVISION_CODE|KANCHANK : KANCHANAT, Miss KIJJAPOOL
