02-sep-2017 08:10:01|46925133|02-sep-2017 08:05:00|TACPO302_V2|TAC Purchase Orders Summary Report ( For Excel )|, 201, , , APPROVED, , , , 4210, , , , , N, N, ALL, 3000, , B, , Distribution Line, Distribution Line, 04A00407001, O13O1115DD, , , , , |SITTHISN : SITTHISAK, Mr. NINGCHAROEN
02-sep-2017 08:10:01|46936896|02-sep-2017 08:04:51|FNDWF_NTF_RESEND|Resend Failed/Error Workflow Notifications|FAILED, , |DTAC
02-sep-2017 08:10:01|46936897|02-sep-2017 08:04:51|FNDWF_NTF_RESEND|Resend Failed/Error Workflow Notifications|FAILED, , |DTAC
02-sep-2017 08:10:01|46936957|02-sep-2017 08:10:00|FNDWFBG|Workflow Background Process|APEXP, , , Y, Y, Y|DTAC
