02-sep-2017 20:50:02|46932813|02-sep-2017 18:15:00|FNDGSCST|Gather Schema Statistics|ALL, 10, , NOBACKUP, , LASTRUN, GATHER, , Y|DTAC
02-sep-2017 20:50:02|46942352|02-sep-2017 20:47:48|FNDWF_NTF_RESEND|Resend Failed/Error Workflow Notifications|FAILED, , |DTAC
02-sep-2017 20:50:02|46942353|02-sep-2017 20:47:48|FNDWF_NTF_RESEND|Resend Failed/Error Workflow Notifications|FAILED, , |DTAC
02-sep-2017 20:50:02|46942425|02-sep-2017 20:49:32|TACGL101_V1|TAC Account Analysis with Subledger Detail|1008, 101, THB, AUG-17, AUG-17, 08.10793.0000.00000.000000.00.000.000000.000000, 08.10793.0000.00000.000000.00.000.000000.000000, , , SEQUENCE|PARISASR : PARISA, Miss SRION
