01-sep-2017 08:30:01|46911448|01-sep-2017 08:30:00|TAC_CONCURRENT_MONITOR_MAIL|TAC CONCURRENT MONITOR DETAIL MAIL|(None)|SYSADMIN
01-sep-2017 08:30:01|46911470|01-sep-2017 08:05:00|TACPO302_V2|TAC Purchase Orders Summary Report ( For Excel )|, 201, , , APPROVED, , , , 4210, , , , , N, N, ALL, 3000, , B, , Distribution Line, Distribution Line, 04A00407001, O13O1115DD, , , , , |SITTHISN : SITTHISAK, Mr. NINGCHAROEN
01-sep-2017 08:30:01|46911577|01-sep-2017 08:30:00|TACPO304|TAC Receipt Transaction Detail Report|, , 2014/01/01 00:00:00, 2018/12/31 00:00:00, 101, , , 3000, , 4210, B, , , , , , , , 04A03015001, O13O1115DD, |SITTHISN : SITTHISAK, Mr. NINGCHAROEN
01-sep-2017 08:30:01|46924925|01-sep-2017 08:30:00|TAC_MAIL_APPROVE_CHECK|TAC Mail Approve Check|5|DTAC
01-sep-2017 08:30:01|46925000|01-sep-2017 08:22:33|FNDWF_NTF_RESEND|Resend Failed/Error Workflow Notifications|FAILED, , |DTAC
01-sep-2017 08:30:01|46925001|01-sep-2017 08:22:34|FNDWF_NTF_RESEND|Resend Failed/Error Workflow Notifications|FAILED, , |DTAC
01-sep-2017 08:30:01|46925087|01-sep-2017 08:30:00|FNDWFBG|Workflow Background Process|APEXP, , , Y, Y, Y|DTAC
