05-sep-2017 19:00:01|46962891|05-sep-2017 18:15:00|FNDGSCST|Gather Schema Statistics|ALL, 10, , NOBACKUP, , LASTRUN, GATHER, , Y|DTAC
05-sep-2017 19:00:01|46971384|05-sep-2017 19:00:00|TAC_EDIT_WRONG_DATA_FA|TAC Edit Wrong Data FA|(None)|DTAC
05-sep-2017 19:00:01|46971842|05-sep-2017 19:00:00|TAC_EXP_SA_ERP_PEUGEOT|TAC Export Sales Data from ERP to Peugeot|MOBILE ATM, 7|DTAC
05-sep-2017 19:00:01|46971843|05-sep-2017 19:00:00|TAC_EXP_SA_ERP_PEUGEOT|TAC Export Sales Data from ERP to Peugeot|MOBILE ATM, 7|DTAC
05-sep-2017 19:00:01|46972279|05-sep-2017 18:58:14|FNDWF_NTF_RESEND|Resend Failed/Error Workflow Notifications|FAILED, , |DTAC
05-sep-2017 19:00:01|46972280|05-sep-2017 18:58:14|FNDWF_NTF_RESEND|Resend Failed/Error Workflow Notifications|FAILED, , |DTAC
05-sep-2017 19:00:01|46972346|05-sep-2017 18:59:48|POXPOPDF|PO Output for Communication|R, , , , , , , , , N, , , , , , , View, N, Y, N, 392371, 0, IN PROCESS, STANDARD, , |TANYONGW : TANYONG, Miss WONGSRIPUEK
