03-sep-2017 09:30:01|46946723|03-sep-2017 09:30:00|TAC_MAIL_APPROVE_CHECK|TAC Mail Approve Check|5|DTAC
03-sep-2017 09:30:01|46946835|03-sep-2017 09:25:15|FNDWF_NTF_RESEND|Resend Failed/Error Workflow Notifications|FAILED, , |DTAC
03-sep-2017 09:30:01|46946836|03-sep-2017 09:25:15|FNDWF_NTF_RESEND|Resend Failed/Error Workflow Notifications|FAILED, , |DTAC
