02-sep-2017 18:40:01|46932813|02-sep-2017 18:15:00|FNDGSCST|Gather Schema Statistics|ALL, 10, , NOBACKUP, , LASTRUN, GATHER, , Y|DTAC
02-sep-2017 18:40:01|46941354|02-sep-2017 18:35:44|FNDWF_NTF_RESEND|Resend Failed/Error Workflow Notifications|FAILED, , |DTAC
02-sep-2017 18:40:01|46941355|02-sep-2017 18:35:44|FNDWF_NTF_RESEND|Resend Failed/Error Workflow Notifications|FAILED, , |DTAC
