ACTUAL |TARGET|RUNNING|PENDING|STATUS|CONCURRENT_NAME
0|0|0|0|Deactivated|Apache Listener for cygnus32:8000
0|0|0|0|Deactivated|Apache Listener for cygnus33:8000
1|1|0|0||C AQCART Service
0|0|0|0||CRP Inquiry Manager
0|0|0|0||Collections Manager
1|1|0|0||Conflict Resolution Manager
0|0|0|0||Contracts Core Concurrent Manager
0|0|0|0||Debug Service
0|0|0|0|Deactivated|Forms Listener for cygnus32:9000
0|0|0|0|Deactivated|Forms Listener for cygnus33:9000
1|1|0|0||INV Remote Procedure Manager
1|1|0|0||Internal Manager
0|0|0|0||Internal Monitor: CYGNUS22
0|0|0|0||Internal Monitor: CYGNUS23
0|0|0|0||Internal Monitor: CYGNUS32
0|0|0|0||Internal Monitor: CYGNUS33
8|8|2|0||Inventory Manager
0|0|0|0||MRP Manager
0|0|0|0|Deactivated|MWA001
1|1|0|0||Marketing Data Mining Manager
0|0|0|0|Deactivated|Metrics Client for cygnus32:9100
0|0|0|0|Deactivated|Metrics Client for cygnus33:9100
0|0|0|0|Deactivated|Metrics Server for cygnus32:9200
0|0|0|0|Deactivated|Metrics Server for cygnus33:9200
0|0|0|0|Deactivated|OAM Generic Collection Service:CYGNUS32
0|0|0|0|Deactivated|OAM Generic Collection Service:CYGNUS33
1|1|0|0||OAM Metrics Collection Manager
3|3|0|0||Output Post Processor
4|4|0|0||PO Document Approval Manager
4|4|0|0||Receiving Transaction Manager
0|0|0|0|Deactivated|Reports Server for cygnus32:7000
0|0|0|0|Deactivated|Reports Server for cygnus33:7000
1|1|0|0||Scheduler/Prereleaser Manager
1|1|0|0||Service Manager: CYGNUS22
0|0|0|0||Service Manager: CYGNUS23
0|0|0|0||Service Manager: CYGNUS32
0|0|0|0||Service Manager: CYGNUS33
25|25|1|5||Standard Manager
0|0|0|0||Transaction Manager ( Internal use only )
0|0|0|0|Deactivated|Transportation Manager
0|0|0|0|Deactivated|WMS Task Archiving Manager
1|1|0|0||Workflow Agent Listener Service
7|7|0|2||Workflow Background Concurrent
1|1|0|0||Workflow Document Web Services Service
0|0|0|0||Workflow Mailer
1|1|0|0||Workflow Mailer Service
0|0|0|0||Workflow Summary Mailer
