H|01-sep-2017 08:30:01|290|28|262
D|01-sep-2017 08:30:01|4406|56387|331sgu488txzu|APPS|468887|47|cygnus22|applprod|ACTIVE|C_AQCT_SVC|Service Management|SYS$USERS|
D|01-sep-2017 08:30:01|2729|17291|3w2vs7k0qw9yp|APPS|447|47|cygnus22|applprod|ACTIVE|FNDWF_NTF_RESEND|Concurrent Request|SYS$USERS|
D|01-sep-2017 08:30:01|4828|9631|3w2vs7k0qw9yp|APPS|447|47|cygnus22|applprod|ACTIVE|FNDWF_NTF_RESEND|Concurrent Request|SYS$USERS|
D|01-sep-2017 08:30:01|4413|11911|497wh6n7hu14f|APPS|88|47|cygnus22.tac.co.th|applprod|ACTIVE|WFMLRSVC|Service Management|PROD|JDBC Thin Client
D|01-sep-2017 08:30:01|2737|18551|ay44jj6hphbuz|APPS|29|47|cygnus22|applprod|ACTIVE|||SYS$USERS|
D|01-sep-2017 08:30:01|1885|45|ay44jj6hphbuz|APPS|27|47|cygnus22|applprod|ACTIVE|||SYS$USERS|
D|01-sep-2017 08:30:01|2324|8737|ay44jj6hphbuz|APPS|19|47|cygnus22|applprod|ACTIVE|||SYS$USERS|
D|01-sep-2017 08:30:01|1680|855|ay44jj6hphbuz|APPS|16|47|cygnus22|applprod|ACTIVE|||SYS$USERS|
D|01-sep-2017 08:30:01|2121|22237|ay44jj6hphbuz|APPS|13|47|cygnus22|applprod|ACTIVE|||SYS$USERS|
D|01-sep-2017 08:30:01|2303|163|dsphq1qsnymv8|APPS|10|47|cygnus22.tac.co.th|applprod|ACTIVE|JDBC Thin Client||PROD|JDBC Thin Client
