H|05-sep-2017 09:10:01|373|20|353
D|05-sep-2017 09:10:01|4406|56387|331sgu488txzu|APPS|816887|47|cygnus22|applprod|ACTIVE|C_AQCT_SVC|Service Management|SYS$USERS|
D|05-sep-2017 09:10:01|4413|11911|497wh6n7hu14f|APPS|109|47|cygnus22.tac.co.th|applprod|ACTIVE|WFMLRSVC|Service Management|PROD|JDBC Thin Client
D|05-sep-2017 09:10:01|2305|3719|497wh6n7hu14f|APPS|91|47|cygnus22.tac.co.th|applprod|ACTIVE|FNDCPOPP|Service Management|PROD|JDBC Thin Client
D|05-sep-2017 09:10:01|3979|30513|d7cy9jrvngb77|APPS|48|47|cygnus22.tac.co.th|applprod|ACTIVE|APPS:SVC:GSM:WFMLRSVC:1641093|ACTIVE|PROD|JDBC Thin Client
D|05-sep-2017 09:10:01|2121|22237|ay44jj6hphbuz|APPS|26|47|cygnus22|applprod|ACTIVE|||SYS$USERS|
D|05-sep-2017 09:10:01|2737|18551|ay44jj6hphbuz|APPS|26|47|cygnus22|applprod|ACTIVE|||SYS$USERS|
D|05-sep-2017 09:10:01|1885|45|ay44jj6hphbuz|APPS|24|47|cygnus22|applprod|ACTIVE|||SYS$USERS|
D|05-sep-2017 09:10:01|1680|855|ay44jj6hphbuz|APPS|21|47|cygnus22|applprod|ACTIVE|||SYS$USERS|
D|05-sep-2017 09:10:01|2324|8737|ay44jj6hphbuz|APPS|15|47|cygnus22|applprod|ACTIVE|||SYS$USERS|
D|05-sep-2017 09:10:01|2938|247|ay44jj6hphbuz|APPS|8|47|cygnus22|applprod|ACTIVE|||SYS$USERS|
