H|01-sep-2017 23:40:01|329|27|302
D|01-sep-2017 23:40:01|4406|56387|331sgu488txzu|APPS|523486|47|cygnus22|applprod|ACTIVE|C_AQCT_SVC|Service Management|SYS$USERS|
D|01-sep-2017 23:40:01|1283|26199|1gtszrvcvumay|APPS|24612|47|cygnus23.tac.co.th|applprod|ACTIVE|pa.prjbu.server.ProjectBudgetUsageSumAM|13574|SYS$USERS|JDBC Thin Client
D|01-sep-2017 23:40:01|3982|64301|1gtszrvcvumay|APPS|24329|47|cygnus23.tac.co.th|applprod|ACTIVE|pa.prjbu.server.ProjectBudgetUsageSumAM|13574|SYS$USERS|JDBC Thin Client
D|01-sep-2017 23:40:01|852|63365|1gtszrvcvumay|APPS|23851|47|cygnus23.tac.co.th|applprod|ACTIVE|pa.prjbu.server.ProjectBudgetUsageSumAM|13574|SYS$USERS|JDBC Thin Client
D|01-sep-2017 23:40:01|1281|22685|5kjggun8scdf6|APPS|1502|47|cygnus22|applprod|ACTIVE|TAC_PO_RESENDING_NOTIFICATION|Concurrent Request|SYS$USERS|
D|01-sep-2017 23:40:01|4858|841|2fscznpgutn7k|APPS|279|3|cygnus22|applprod|ACTIVE|FNDWF_NTF_RESEND|Concurrent Request|SYS$USERS|
D|01-sep-2017 23:40:01|1485|46203|2fscznpgutn7k|APPS|279|3|cygnus22|applprod|ACTIVE|FNDWF_NTF_RESEND|Concurrent Request|SYS$USERS|
D|01-sep-2017 23:40:01|3979|30513|d7cy9jrvngb77|APPS|76|47|cygnus22.tac.co.th|applprod|ACTIVE|APPS:SVC:GSM:WFMLRSVC:1641093|ACTIVE|PROD|JDBC Thin Client
D|01-sep-2017 23:40:01|4413|11911|497wh6n7hu14f|APPS|73|47|cygnus22.tac.co.th|applprod|ACTIVE|WFMLRSVC|Service Management|PROD|JDBC Thin Client
D|01-sep-2017 23:40:01|2121|22237|ay44jj6hphbuz|APPS|23|47|cygnus22|applprod|ACTIVE|||SYS$USERS|
