H|03-sep-2017 15:50:01|298|25|273
D|03-sep-2017 15:50:01|4406|56387|331sgu488txzu|APPS|668086|47|cygnus22|applprod|ACTIVE|C_AQCT_SVC|Service Management|SYS$USERS|
D|03-sep-2017 15:50:01|675|59981|56u50jsq0t9u7|APPS|149|7|cygnus22|applprod|ACTIVE|POXACRCR|Concurrent Request|SYS$USERS|
D|03-sep-2017 15:50:01|2305|3719|497wh6n7hu14f|APPS|91|47|cygnus22.tac.co.th|applprod|ACTIVE|FNDCPOPP|Service Management|PROD|JDBC Thin Client
D|03-sep-2017 15:50:01|4413|11911|497wh6n7hu14f|APPS|72|47|cygnus22.tac.co.th|applprod|ACTIVE|WFMLRSVC|Service Management|PROD|JDBC Thin Client
D|03-sep-2017 15:50:01|1281|147|56u50jsq0t9u7|APPS|70|7|cygnus22|applprod|ACTIVE|POXACRCR|Concurrent Request|SYS$USERS|
D|03-sep-2017 15:50:01|1885|45|ay44jj6hphbuz|APPS|28|47|cygnus22|applprod|ACTIVE|||SYS$USERS|
D|03-sep-2017 15:50:01|2737|18551|ay44jj6hphbuz|APPS|25|47|cygnus22|applprod|ACTIVE|||SYS$USERS|
D|03-sep-2017 15:50:01|3979|30513|d7cy9jrvngb77|APPS|22|47|cygnus22.tac.co.th|applprod|ACTIVE|APPS:SVC:GSM:WFMLRSVC:1641093|ACTIVE|PROD|JDBC Thin Client
D|03-sep-2017 15:50:01|2121|22237|ay44jj6hphbuz|APPS|19|47|cygnus22|applprod|ACTIVE|||SYS$USERS|
D|03-sep-2017 15:50:01|2324|8737|ay44jj6hphbuz|APPS|19|47|cygnus22|applprod|ACTIVE|||SYS$USERS|
