H|07-sep-2017 15:40:01|602|21|581
D|07-sep-2017 15:40:01|4406|56387|331sgu488txzu|APPS|1013087|47|cygnus22|applprod|ACTIVE|C_AQCT_SVC|Service Management|SYS$USERS|
D|07-sep-2017 15:40:01|4413|11911|497wh6n7hu14f|APPS|107|47|cygnus22.tac.co.th|applprod|ACTIVE|WFMLRSVC|Service Management|PROD|JDBC Thin Client
D|07-sep-2017 15:40:01|3979|30513|d7cy9jrvngb77|APPS|72|47|cygnus22.tac.co.th|applprod|ACTIVE|APPS:SVC:GSM:WFMLRSVC:1641093|ACTIVE|PROD|JDBC Thin Client
D|07-sep-2017 15:40:01|2542|14213|amm54y9cdyzyr|APPS|70|3|DTH32879616L|t879616|ACTIVE|SQL Developer||SYS$USERS|SQL Developer
D|07-sep-2017 15:40:01|2305|3719|497wh6n7hu14f|APPS|60|47|cygnus22.tac.co.th|applprod|ACTIVE|FNDCPOPP|Service Management|PROD|JDBC Thin Client
D|07-sep-2017 15:40:01|429|39109|8b9svdgavagm5|APPS|37|47|cygnus22|applprod|ACTIVE|TACAP016_V3|Concurrent Request|SYS$USERS|
D|07-sep-2017 15:40:01|2737|18551|ay44jj6hphbuz|APPS|28|47|cygnus22|applprod|ACTIVE|||SYS$USERS|
D|07-sep-2017 15:40:01|1680|855|ay44jj6hphbuz|APPS|23|47|cygnus22|applprod|ACTIVE|||SYS$USERS|
D|07-sep-2017 15:40:01|1885|45|ay44jj6hphbuz|APPS|22|47|cygnus22|applprod|ACTIVE|||SYS$USERS|
D|07-sep-2017 15:40:01|2324|8737|ay44jj6hphbuz|APPS|19|47|cygnus22|applprod|ACTIVE|||SYS$USERS|
