H|01-sep-2017 16:00:01|603|34|569
D|01-sep-2017 16:00:01|4406|56387|331sgu488txzu|APPS|495887|47|cygnus22|applprod|ACTIVE|C_AQCT_SVC|Service Management|SYS$USERS|
D|01-sep-2017 16:00:01|2305|3719|497wh6n7hu14f|APPS|115|47|cygnus22.tac.co.th|applprod|ACTIVE|FNDCPOPP|Service Management|PROD|JDBC Thin Client
D|01-sep-2017 16:00:01|3979|30513|d7cy9jrvngb77|APPS|79|47|cygnus22.tac.co.th|applprod|ACTIVE|APPS:SVC:GSM:WFMLRSVC:1641093|ACTIVE|PROD|JDBC Thin Client
D|01-sep-2017 16:00:01|4413|11911|497wh6n7hu14f|APPS|41|47|cygnus22.tac.co.th|applprod|ACTIVE|WFMLRSVC|Service Management|PROD|JDBC Thin Client
D|01-sep-2017 16:00:01|2737|18551|ay44jj6hphbuz|APPS|27|47|cygnus22|applprod|ACTIVE|||SYS$USERS|
D|01-sep-2017 16:00:01|2724|14887|7b5w34atn8q1h|APPS|14|47|cygnus22.tac.co.th|applprod|ACTIVE|JDBC Thin Client||PROD|JDBC Thin Client
D|01-sep-2017 16:00:01|9|18209|7b5w34atn8q1h|APPS|14|47|cygnus22.tac.co.th|applprod|ACTIVE|JDBC Thin Client||PROD|JDBC Thin Client
D|01-sep-2017 16:00:01|1680|855|ay44jj6hphbuz|APPS|12|47|cygnus22|applprod|ACTIVE|||SYS$USERS|
D|01-sep-2017 16:00:01|1885|45|ay44jj6hphbuz|APPS|12|47|cygnus22|applprod|ACTIVE|||SYS$USERS|
D|01-sep-2017 16:00:01|3143|1429|ay44jj6hphbuz|APPS|10|47|cygnus22|applprod|ACTIVE|||SYS$USERS|
