H|05-sep-2017 21:30:01|270|27|243
D|05-sep-2017 21:30:01|4406|56387|331sgu488txzu|APPS|861286|47|cygnus22|applprod|ACTIVE|C_AQCT_SVC|Service Management|SYS$USERS|
D|05-sep-2017 21:30:01|3583|14875|g8yufjcvfkhzq|APPS|896|3|cygnus22|applprod|ACTIVE|TACDMS07|Concurrent Request|SYS$USERS|
D|05-sep-2017 21:30:01|3979|30513|d7cy9jrvngb77|APPS|105|47|cygnus22.tac.co.th|applprod|ACTIVE|APPS:SVC:GSM:WFMLRSVC:1641093|ACTIVE|PROD|JDBC Thin Client
D|05-sep-2017 21:30:01|4413|11911|497wh6n7hu14f|APPS|61|47|cygnus22.tac.co.th|applprod|ACTIVE|WFMLRSVC|Service Management|PROD|JDBC Thin Client
D|05-sep-2017 21:30:01|2737|18551|ay44jj6hphbuz|APPS|28|47|cygnus22|applprod|ACTIVE|||SYS$USERS|
D|05-sep-2017 21:30:01|1680|855|ay44jj6hphbuz|APPS|26|47|cygnus22|applprod|ACTIVE|||SYS$USERS|
D|05-sep-2017 21:30:01|2324|8737|ay44jj6hphbuz|APPS|26|47|cygnus22|applprod|ACTIVE|||SYS$USERS|
D|05-sep-2017 21:30:01|1885|45|ay44jj6hphbuz|APPS|22|47|cygnus22|applprod|ACTIVE|||SYS$USERS|
D|05-sep-2017 21:30:01|2121|22237|ay44jj6hphbuz|APPS|22|47|cygnus22|applprod|ACTIVE|||SYS$USERS|
D|05-sep-2017 21:30:01|2305|3719|497wh6n7hu14f|APPS|21|47|cygnus22.tac.co.th|applprod|ACTIVE|FNDCPOPP|Service Management|PROD|JDBC Thin Client
