H|06-sep-2017 13:30:01|483|28|455
D|06-sep-2017 13:30:01|4406|56387|331sgu488txzu|APPS|918886|47|cygnus22|applprod|ACTIVE|C_AQCT_SVC|Service Management|SYS$USERS|
D|06-sep-2017 13:30:01|1065|43277|2fscznpgutn7k|APPS|187|3|cygnus22|applprod|ACTIVE|FNDWF_NTF_RESEND|Concurrent Request|SYS$USERS|
D|06-sep-2017 13:30:01|3979|30513|d7cy9jrvngb77|APPS|59|47|cygnus22.tac.co.th|applprod|ACTIVE|APPS:SVC:GSM:WFMLRSVC:1641093|ACTIVE|PROD|JDBC Thin Client
D|06-sep-2017 13:30:01|4413|11911|497wh6n7hu14f|APPS|54|47|cygnus22.tac.co.th|applprod|ACTIVE|WFMLRSVC|Service Management|PROD|JDBC Thin Client
D|06-sep-2017 13:30:01|2305|3719|497wh6n7hu14f|APPS|34|47|cygnus22.tac.co.th|applprod|ACTIVE|FNDCPOPP|Service Management|PROD|JDBC Thin Client
D|06-sep-2017 13:30:01|1885|45|ay44jj6hphbuz|APPS|22|47|cygnus22|applprod|ACTIVE|||SYS$USERS|
D|06-sep-2017 13:30:01|2121|22237|ay44jj6hphbuz|APPS|14|47|cygnus22|applprod|ACTIVE|||SYS$USERS|
D|06-sep-2017 13:30:01|1680|855|ay44jj6hphbuz|APPS|12|47|cygnus22|applprod|ACTIVE|||SYS$USERS|
D|06-sep-2017 13:30:01|2737|18551|ay44jj6hphbuz|APPS|12|47|cygnus22|applprod|ACTIVE|||SYS$USERS|
D|06-sep-2017 13:30:01|3143|1429|ay44jj6hphbuz|APPS|10|47|cygnus22|applprod|ACTIVE|||SYS$USERS|
