H|03-sep-2017 01:20:01|247|21|226
D|03-sep-2017 01:20:01|4406|56387|331sgu488txzu|APPS|615886|47|cygnus22|applprod|ACTIVE|C_AQCT_SVC|Service Management|SYS$USERS|
D|03-sep-2017 01:20:01|1497|45925|3qs0jhdb8yndj|SYS|240|3|hydrus22|oracle|ACTIVE|sqlplus@hydrus22 (TNS V1-V3)||SYS$USERS|sqlplus@hydrus22 (TNS V1-V3)
D|03-sep-2017 01:20:01|2305|3719|497wh6n7hu14f|APPS|97|47|cygnus22.tac.co.th|applprod|ACTIVE|FNDCPOPP|Service Management|PROD|JDBC Thin Client
D|03-sep-2017 01:20:01|3979|30513|d7cy9jrvngb77|APPS|97|47|cygnus22.tac.co.th|applprod|ACTIVE|APPS:SVC:GSM:WFMLRSVC:1641093|ACTIVE|PROD|JDBC Thin Client
D|03-sep-2017 01:20:01|1885|45|ay44jj6hphbuz|APPS|19|47|cygnus22|applprod|ACTIVE|||SYS$USERS|
D|03-sep-2017 01:20:01|2121|22237|ay44jj6hphbuz|APPS|16|47|cygnus22|applprod|ACTIVE|||SYS$USERS|
D|03-sep-2017 01:20:01|4413|11911|497wh6n7hu14f|APPS|15|47|cygnus22.tac.co.th|applprod|ACTIVE|WFMLRSVC|Service Management|PROD|JDBC Thin Client
D|03-sep-2017 01:20:01|2724|14887|7b5w34atn8q1h|APPS|14|47|cygnus22.tac.co.th|applprod|ACTIVE|JDBC Thin Client||PROD|JDBC Thin Client
D|03-sep-2017 01:20:01|9|18209|7b5w34atn8q1h|APPS|13|47|cygnus22.tac.co.th|applprod|ACTIVE|JDBC Thin Client||PROD|JDBC Thin Client
D|03-sep-2017 01:20:01|1680|855|ay44jj6hphbuz|APPS|12|47|cygnus22|applprod|ACTIVE|||SYS$USERS|
