H|05-sep-2017 14:00:01|576|27|549
D|05-sep-2017 14:00:01|4406|56387|331sgu488txzu|APPS|834286|47|cygnus22|applprod|ACTIVE|C_AQCT_SVC|Service Management|SYS$USERS|
D|05-sep-2017 14:00:01|2305|3719|497wh6n7hu14f|APPS|85|47|cygnus22.tac.co.th|applprod|ACTIVE|FNDCPOPP|Service Management|PROD|JDBC Thin Client
D|05-sep-2017 14:00:01|4413|11911|497wh6n7hu14f|APPS|83|47|cygnus22.tac.co.th|applprod|ACTIVE|WFMLRSVC|Service Management|PROD|JDBC Thin Client
D|05-sep-2017 14:00:01|1885|45|ay44jj6hphbuz|APPS|25|47|cygnus22|applprod|ACTIVE|||SYS$USERS|
D|05-sep-2017 14:00:01|3979|30513|d7cy9jrvngb77|APPS|23|47|cygnus22.tac.co.th|applprod|ACTIVE|APPS:SVC:GSM:WFMLRSVC:1641093|ACTIVE|PROD|JDBC Thin Client
D|05-sep-2017 14:00:01|2121|22237|ay44jj6hphbuz|APPS|22|47|cygnus22|applprod|ACTIVE|||SYS$USERS|
D|05-sep-2017 14:00:01|4212|28109|dsphq1qsnymv8|APPS|22|47|cygnus22.tac.co.th|applprod|ACTIVE|JDBC Thin Client||PROD|JDBC Thin Client
D|05-sep-2017 14:00:01|2737|18551|ay44jj6hphbuz|APPS|17|47|cygnus22|applprod|ACTIVE|||SYS$USERS|
D|05-sep-2017 14:00:01|3772|427|ay44jj6hphbuz|APPS|16|47|cygnus22|applprod|ACTIVE|||SYS$USERS|
D|05-sep-2017 14:00:01|4203|10551|ay44jj6hphbuz|APPS|15|47|cygnus22|applprod|ACTIVE|||SYS$USERS|
