H|01-sep-2017 04:30:01|245|22|223
D|01-sep-2017 04:30:01|4406|56387|331sgu488txzu|APPS|454487|47|cygnus22|applprod|ACTIVE|C_AQCT_SVC|Service Management|SYS$USERS|
D|01-sep-2017 04:30:01|1488|45035|12fuqzrw93whn|APPS|1181|47|cygnus22|applprod|ACTIVE|DTINVHUB003|Concurrent Request|SYS$USERS|
D|01-sep-2017 04:30:01|3979|30513|d7cy9jrvngb77|APPS|31|47|cygnus22.tac.co.th|applprod|ACTIVE|APPS:SVC:GSM:WFMLRSVC:1641093|ACTIVE|PROD|JDBC Thin Client
D|01-sep-2017 04:30:01|2324|8737|ay44jj6hphbuz|APPS|26|47|cygnus22|applprod|ACTIVE|||SYS$USERS|
D|01-sep-2017 04:30:01|1680|855|ay44jj6hphbuz|APPS|24|47|cygnus22|applprod|ACTIVE|||SYS$USERS|
D|01-sep-2017 04:30:01|4212|28109|dsphq1qsnymv8|APPS|19|47|cygnus22.tac.co.th|applprod|ACTIVE|JDBC Thin Client||PROD|JDBC Thin Client
D|01-sep-2017 04:30:01|2121|22237|ay44jj6hphbuz|APPS|18|47|cygnus22|applprod|ACTIVE|||SYS$USERS|
D|01-sep-2017 04:30:01|9|18209|7b5w34atn8q1h|APPS|10|47|cygnus22.tac.co.th|applprod|ACTIVE|JDBC Thin Client||PROD|JDBC Thin Client
D|01-sep-2017 04:30:01|4203|10551|ay44jj6hphbuz|APPS|9|47|cygnus22|applprod|ACTIVE|||SYS$USERS|
D|01-sep-2017 04:30:01|2938|247|ay44jj6hphbuz|APPS|7|47|cygnus22|applprod|ACTIVE|||SYS$USERS|
