H|05-sep-2017 15:10:01|603|19|584
D|05-sep-2017 15:10:01|4406|56387|331sgu488txzu|APPS|838487|47|cygnus22|applprod|ACTIVE|C_AQCT_SVC|Service Management|SYS$USERS|
D|05-sep-2017 15:10:01|2305|3719|497wh6n7hu14f|APPS|84|47|cygnus22.tac.co.th|applprod|ACTIVE|FNDCPOPP|Service Management|PROD|JDBC Thin Client
D|05-sep-2017 15:10:01|3979|30513|d7cy9jrvngb77|APPS|61|47|cygnus22.tac.co.th|applprod|ACTIVE|APPS:SVC:GSM:WFMLRSVC:1641093|ACTIVE|PROD|JDBC Thin Client
D|05-sep-2017 15:10:01|1680|855|ay44jj6hphbuz|APPS|29|47|cygnus22|applprod|ACTIVE|||SYS$USERS|
D|05-sep-2017 15:10:01|1885|45|ay44jj6hphbuz|APPS|21|47|cygnus22|applprod|ACTIVE|||SYS$USERS|
D|05-sep-2017 15:10:01|2737|18551|ay44jj6hphbuz|APPS|21|47|cygnus22|applprod|ACTIVE|||SYS$USERS|
D|05-sep-2017 15:10:01|2724|14887|7b5w34atn8q1h|APPS|17|47|cygnus22.tac.co.th|applprod|ACTIVE|JDBC Thin Client||PROD|JDBC Thin Client
D|05-sep-2017 15:10:01|9|18209|7b5w34atn8q1h|APPS|17|47|cygnus22.tac.co.th|applprod|ACTIVE|JDBC Thin Client||PROD|JDBC Thin Client
D|05-sep-2017 15:10:01|2332|9377|bkwhrx0wp68cx|APPS|13|3|cygnus22|applprod|ACTIVE|RVCTP|Concurrent Request|SYS$USERS|
D|05-sep-2017 15:10:01|3143|1429|ay44jj6hphbuz|APPS|10|47|cygnus22|applprod|ACTIVE|||SYS$USERS|
