H|04-sep-2017 20:00:02|348|33|315
D|04-sep-2017 20:00:02|4406|56387|331sgu488txzu|APPS|769488|47|cygnus22|applprod|ACTIVE|C_AQCT_SVC|Service Management|SYS$USERS|
D|04-sep-2017 20:00:02|1052|59311|d7tbsnt3nrm17|APPS|1051|6|cygnus22|applprod|ACTIVE|DTH2H005_V2|Concurrent Request|SYS$USERS|
D|04-sep-2017 20:00:02|660|49043|d7tbsnt3nrm17|APPS|981|6|cygnus22|applprod|ACTIVE|DTH2H005_V2|Concurrent Request|SYS$USERS|
D|04-sep-2017 20:00:02|3368|62487|d7tbsnt3nrm17|APPS|955|6|cygnus22|applprod|ACTIVE|DTH2H005_V2|Concurrent Request|SYS$USERS|
D|04-sep-2017 20:00:02|3979|30513|d7cy9jrvngb77|APPS|59|47|cygnus22.tac.co.th|applprod|ACTIVE|APPS:SVC:GSM:WFMLRSVC:1641093|ACTIVE|PROD|JDBC Thin Client
D|04-sep-2017 20:00:02|2305|3719|497wh6n7hu14f|APPS|46|47|cygnus22.tac.co.th|applprod|ACTIVE|FNDCPOPP|Service Management|PROD|JDBC Thin Client
D|04-sep-2017 20:00:02|4413|11911|497wh6n7hu14f|APPS|42|47|cygnus22.tac.co.th|applprod|ACTIVE|WFMLRSVC|Service Management|PROD|JDBC Thin Client
D|04-sep-2017 20:00:02|2737|18551|ay44jj6hphbuz|APPS|25|47|cygnus22|applprod|ACTIVE|||SYS$USERS|
D|04-sep-2017 20:00:02|2121|22237|ay44jj6hphbuz|APPS|21|47|cygnus22|applprod|ACTIVE|||SYS$USERS|
D|04-sep-2017 20:00:02|4212|28109|dsphq1qsnymv8|APPS|21|47|cygnus22.tac.co.th|applprod|ACTIVE|JDBC Thin Client||PROD|JDBC Thin Client
