H|04-sep-2017 17:30:01|639|28|611
D|04-sep-2017 17:30:01|4406|56387|331sgu488txzu|APPS|760486|47|cygnus22|applprod|ACTIVE|C_AQCT_SVC|Service Management|SYS$USERS|
D|04-sep-2017 17:30:01|2305|3719|497wh6n7hu14f|APPS|48|47|cygnus22.tac.co.th|applprod|ACTIVE|FNDCPOPP|Service Management|PROD|JDBC Thin Client
D|04-sep-2017 17:30:01|3979|30513|d7cy9jrvngb77|APPS|30|47|cygnus22.tac.co.th|applprod|ACTIVE|APPS:SVC:GSM:WFMLRSVC:1641093|ACTIVE|PROD|JDBC Thin Client
D|04-sep-2017 17:30:01|1680|855|ay44jj6hphbuz|APPS|25|47|cygnus22|applprod|ACTIVE|||SYS$USERS|
D|04-sep-2017 17:30:01|2121|22237|ay44jj6hphbuz|APPS|22|47|cygnus22|applprod|ACTIVE|||SYS$USERS|
D|04-sep-2017 17:30:01|1885|45|ay44jj6hphbuz|APPS|18|47|cygnus22|applprod|ACTIVE|||SYS$USERS|
D|04-sep-2017 17:30:01|4839|58047|7nt72rdyd0y80|WMUSER|17|3|titan32|wmuser|ACTIVE|JDBC Thin Client||SYS$USERS|JDBC Thin Client
D|04-sep-2017 17:30:01|4413|11911|497wh6n7hu14f|APPS|14|47|cygnus22.tac.co.th|applprod|ACTIVE|WFMLRSVC|Service Management|PROD|JDBC Thin Client
D|04-sep-2017 17:30:01|4212|28109|dsphq1qsnymv8|APPS|12|47|cygnus22.tac.co.th|applprod|ACTIVE|JDBC Thin Client||PROD|JDBC Thin Client
D|04-sep-2017 17:30:01|2324|8737|ay44jj6hphbuz|APPS|10|47|cygnus22|applprod|ACTIVE|||SYS$USERS|
