H|01-sep-2017 01:40:01|252|22|230
D|01-sep-2017 01:40:01|4406|56387|331sgu488txzu|APPS|444287|47|cygnus22|applprod|ACTIVE|C_AQCT_SVC|Service Management|SYS$USERS|
D|01-sep-2017 01:40:01|3787|56617|2bzu8t5g99z0k|APPS|1163|3|cygnus22|applprod|ACTIVE|TAC_FA007_TEXT_RP|Concurrent Request|SYS$USERS|
D|01-sep-2017 01:40:01|3979|30513|d7cy9jrvngb77|APPS|104|47|cygnus22.tac.co.th|applprod|ACTIVE|APPS:SVC:GSM:WFMLRSVC:1641093|ACTIVE|PROD|JDBC Thin Client
D|01-sep-2017 01:40:01|4413|11911|497wh6n7hu14f|APPS|64|47|cygnus22.tac.co.th|applprod|ACTIVE|WFMLRSVC|Service Management|PROD|JDBC Thin Client
D|01-sep-2017 01:40:01|2324|8737|ay44jj6hphbuz|APPS|29|47|cygnus22|applprod|ACTIVE|||SYS$USERS|
D|01-sep-2017 01:40:01|1680|855|ay44jj6hphbuz|APPS|28|47|cygnus22|applprod|ACTIVE|||SYS$USERS|
D|01-sep-2017 01:40:01|2121|22237|ay44jj6hphbuz|APPS|23|47|cygnus22|applprod|ACTIVE|||SYS$USERS|
D|01-sep-2017 01:40:01|9|18209|7b5w34atn8q1h|APPS|12|47|cygnus22.tac.co.th|applprod|ACTIVE|JDBC Thin Client||PROD|JDBC Thin Client
D|01-sep-2017 01:40:01|2724|14887|7b5w34atn8q1h|APPS|11|47|cygnus22.tac.co.th|applprod|ACTIVE|JDBC Thin Client||PROD|JDBC Thin Client
D|01-sep-2017 01:40:01|2737|18551|ay44jj6hphbuz|APPS|10|47|cygnus22|applprod|ACTIVE|||SYS$USERS|
