H|02-sep-2017 17:00:01|402|28|374
D|02-sep-2017 17:00:01|4406|56387|331sgu488txzu|APPS|585887|47|cygnus22|applprod|ACTIVE|C_AQCT_SVC|Service Management|SYS$USERS|
D|02-sep-2017 17:00:01|3979|30513|d7cy9jrvngb77|APPS|59|47|cygnus22.tac.co.th|applprod|ACTIVE|APPS:SVC:GSM:WFMLRSVC:1641093|ACTIVE|PROD|JDBC Thin Client
D|02-sep-2017 17:00:01|4413|11911|497wh6n7hu14f|APPS|55|47|cygnus22.tac.co.th|applprod|ACTIVE|WFMLRSVC|Service Management|PROD|JDBC Thin Client
D|02-sep-2017 17:00:01|2324|8737|ay44jj6hphbuz|APPS|26|47|cygnus22|applprod|ACTIVE|||SYS$USERS|
D|02-sep-2017 17:00:01|2737|18551|ay44jj6hphbuz|APPS|21|47|cygnus22|applprod|ACTIVE|||SYS$USERS|
D|02-sep-2017 17:00:01|2121|22237|ay44jj6hphbuz|APPS|14|47|cygnus22|applprod|ACTIVE|||SYS$USERS|
D|02-sep-2017 17:00:01|4212|28109|dsphq1qsnymv8|APPS|14|47|cygnus22.tac.co.th|applprod|ACTIVE|JDBC Thin Client||PROD|JDBC Thin Client
D|02-sep-2017 17:00:01|2305|3719|497wh6n7hu14f|APPS|12|47|cygnus22.tac.co.th|applprod|ACTIVE|FNDCPOPP|Service Management|PROD|JDBC Thin Client
D|02-sep-2017 17:00:01|3772|427|ay44jj6hphbuz|APPS|10|47|cygnus22|applprod|ACTIVE|||SYS$USERS|
D|02-sep-2017 17:00:01|2938|247|ay44jj6hphbuz|APPS|7|47|cygnus22|applprod|ACTIVE|||SYS$USERS|
