H|05-sep-2017 15:50:01|572|25|547
D|05-sep-2017 15:50:01|4406|56387|331sgu488txzu|APPS|840886|47|cygnus22|applprod|ACTIVE|C_AQCT_SVC|Service Management|SYS$USERS|
D|05-sep-2017 15:50:01|1904|45265|0z318y6g3uagc|APPS|143|47|cygnus22|applprod|ACTIVE|INCTCW|Concurrent Request|SYS$USERS|
D|05-sep-2017 15:50:01|2305|3719|497wh6n7hu14f|APPS|84|47|cygnus22.tac.co.th|applprod|ACTIVE|FNDCPOPP|Service Management|PROD|JDBC Thin Client
D|05-sep-2017 15:50:01|4413|11911|497wh6n7hu14f|APPS|51|47|cygnus22.tac.co.th|applprod|ACTIVE|WFMLRSVC|Service Management|PROD|JDBC Thin Client
D|05-sep-2017 15:50:01|1680|855|ay44jj6hphbuz|APPS|21|47|cygnus22|applprod|ACTIVE|||SYS$USERS|
D|05-sep-2017 15:50:01|2724|14887|7b5w34atn8q1h|APPS|17|47|cygnus22.tac.co.th|applprod|ACTIVE|JDBC Thin Client||PROD|JDBC Thin Client
D|05-sep-2017 15:50:01|9|18209|7b5w34atn8q1h|APPS|17|47|cygnus22.tac.co.th|applprod|ACTIVE|JDBC Thin Client||PROD|JDBC Thin Client
D|05-sep-2017 15:50:01|2737|18551|ay44jj6hphbuz|APPS|15|47|cygnus22|applprod|ACTIVE|||SYS$USERS|
D|05-sep-2017 15:50:01|3772|427|ay44jj6hphbuz|APPS|10|47|cygnus22|applprod|ACTIVE|||SYS$USERS|
D|05-sep-2017 15:50:01|4203|10551|ay44jj6hphbuz|APPS|10|47|cygnus22|applprod|ACTIVE|||SYS$USERS|
