H|03-sep-2017 12:10:01|300|22|278
D|03-sep-2017 12:10:01|4406|56387|331sgu488txzu|APPS|654887|47|cygnus22|applprod|ACTIVE|C_AQCT_SVC|Service Management|SYS$USERS|
D|03-sep-2017 12:10:01|1887|41229|2fscznpgutn7k|APPS|403|47|cygnus22|applprod|ACTIVE|FNDWF_NTF_RESEND|Concurrent Request|SYS$USERS|
D|03-sep-2017 12:10:01|2305|3719|497wh6n7hu14f|APPS|94|47|cygnus22.tac.co.th|applprod|ACTIVE|FNDCPOPP|Service Management|PROD|JDBC Thin Client
D|03-sep-2017 12:10:01|3979|30513|d7cy9jrvngb77|APPS|85|47|cygnus22.tac.co.th|applprod|ACTIVE|APPS:SVC:GSM:WFMLRSVC:1641093|ACTIVE|PROD|JDBC Thin Client
D|03-sep-2017 12:10:01|2121|22237|ay44jj6hphbuz|APPS|29|47|cygnus22|applprod|ACTIVE|||SYS$USERS|
D|03-sep-2017 12:10:01|2324|8737|ay44jj6hphbuz|APPS|26|47|cygnus22|applprod|ACTIVE|||SYS$USERS|
D|03-sep-2017 12:10:01|1680|855|ay44jj6hphbuz|APPS|25|47|cygnus22|applprod|ACTIVE|||SYS$USERS|
D|03-sep-2017 12:10:01|2737|18551|ay44jj6hphbuz|APPS|15|47|cygnus22|applprod|ACTIVE|||SYS$USERS|
D|03-sep-2017 12:10:01|848|247|d7cy9jrvngb77|APPS|9|47|cygnus22.tac.co.th|applprod|ACTIVE|APPS:SVC:GSM:WFALSNRSVC:1641090|ACTIVE|PROD|JDBC Thin Client
D|03-sep-2017 12:10:01|2938|247|ay44jj6hphbuz|APPS|8|47|cygnus22|applprod|ACTIVE|||SYS$USERS|
