H|05-sep-2017 20:20:02|300|26|274
D|05-sep-2017 20:20:02|4406|56387|331sgu488txzu|APPS|857088|47|cygnus22|applprod|ACTIVE|C_AQCT_SVC|Service Management|SYS$USERS|
D|05-sep-2017 20:20:02|1082|42851|g8yufjcvfkhzq|APPS|300|3|cygnus22|applprod|ACTIVE|TACDMS07|Concurrent Request|SYS$USERS|
D|05-sep-2017 20:20:02|2751|2513|3qs0jhdb8yndj|SYS|241|3|hydrus22|oracle|ACTIVE|sqlplus@hydrus22 (TNS V1-V3)||SYS$USERS|sqlplus@hydrus22 (TNS V1-V3)
D|05-sep-2017 20:20:02|3979|30513|d7cy9jrvngb77|APPS|67|47|cygnus22.tac.co.th|applprod|ACTIVE|APPS:SVC:GSM:WFMLRSVC:1641093|ACTIVE|PROD|JDBC Thin Client
D|05-sep-2017 20:20:02|2737|18551|ay44jj6hphbuz|APPS|29|47|cygnus22|applprod|ACTIVE|||SYS$USERS|
D|05-sep-2017 20:20:02|1680|855|ay44jj6hphbuz|APPS|28|47|cygnus22|applprod|ACTIVE|||SYS$USERS|
D|05-sep-2017 20:20:02|2324|8737|ay44jj6hphbuz|APPS|28|47|cygnus22|applprod|ACTIVE|||SYS$USERS|
D|05-sep-2017 20:20:02|1885|45|ay44jj6hphbuz|APPS|24|47|cygnus22|applprod|ACTIVE|||SYS$USERS|
D|05-sep-2017 20:20:02|2121|22237|ay44jj6hphbuz|APPS|24|47|cygnus22|applprod|ACTIVE|||SYS$USERS|
D|05-sep-2017 20:20:02|4413|11911|497wh6n7hu14f|APPS|23|47|cygnus22.tac.co.th|applprod|ACTIVE|WFMLRSVC|Service Management|PROD|JDBC Thin Client
