H|04-sep-2017 17:10:01|622|27|595
D|04-sep-2017 17:10:01|4406|56387|331sgu488txzu|APPS|759287|47|cygnus22|applprod|ACTIVE|C_AQCT_SVC|Service Management|SYS$USERS|
D|04-sep-2017 17:10:01|1497|22537|2sr4x6fv0zsrz|APPS|1186|6|cygnus22|applprod|ACTIVE|TACPOXACREC|Concurrent Request|SYS$USERS|
D|04-sep-2017 17:10:01|1264|16779|2sr4x6fv0zsrz|APPS|1163|6|cygnus22|applprod|ACTIVE|TACPOXACREC|Concurrent Request|SYS$USERS|
D|04-sep-2017 17:10:01|1700|43399|2sr4x6fv0zsrz|APPS|1135|6|cygnus22|applprod|ACTIVE|TACPOXACREC|Concurrent Request|SYS$USERS|
D|04-sep-2017 17:10:01|4413|11911|497wh6n7hu14f|APPS|116|47|cygnus22.tac.co.th|applprod|ACTIVE|WFMLRSVC|Service Management|PROD|JDBC Thin Client
D|04-sep-2017 17:10:01|2305|3719|497wh6n7hu14f|APPS|50|47|cygnus22.tac.co.th|applprod|ACTIVE|FNDCPOPP|Service Management|PROD|JDBC Thin Client
D|04-sep-2017 17:10:01|1885|45|ay44jj6hphbuz|APPS|29|47|cygnus22|applprod|ACTIVE|||SYS$USERS|
D|04-sep-2017 17:10:01|4212|28109|dsphq1qsnymv8|APPS|23|47|cygnus22.tac.co.th|applprod|ACTIVE|JDBC Thin Client||PROD|JDBC Thin Client
D|04-sep-2017 17:10:01|4839|58047|7nt72rdyd0y80|WMUSER|18|3|titan32|wmuser|ACTIVE|JDBC Thin Client||SYS$USERS|JDBC Thin Client
D|04-sep-2017 17:10:01|2737|18551|ay44jj6hphbuz|APPS|15|47|cygnus22|applprod|ACTIVE|||SYS$USERS|
