H|04-sep-2017 11:30:01|569|39|530
D|04-sep-2017 11:30:01|4406|56387|331sgu488txzu|APPS|738886|47|cygnus22|applprod|ACTIVE|C_AQCT_SVC|Service Management|SYS$USERS|
D|04-sep-2017 11:30:01|2095|12801|8dqryua7s035a|APPS|1489|3|cygnus22|applprod|ACTIVE|TAC_UTIL_EXP1_ON_HAND_SERIAL|Concurrent Request|SYS$USERS|
D|04-sep-2017 11:30:01|4397|37289|19yu4r9253mn7|APPS|970|3|cygnus22|applprod|ACTIVE|POXACRCR|Concurrent Request|SYS$USERS|
D|04-sep-2017 11:30:01|3375|30181|242nk97ghfwjv|WMUSER|676|3|hydrus23|oracle|ACTIVE|oracle@hydrus23 (TNS V1-V3)||SYS$USERS|oracle@hydrus23 (TNS V1-V3)
D|04-sep-2017 11:30:01|1899|16133|3w2vs7k0qw9yp|APPS|125|47|cygnus22|applprod|ACTIVE|FNDWF_NTF_RESEND|Concurrent Request|SYS$USERS|
D|04-sep-2017 11:30:01|4639|16059|7bzax7vf1y6ga|APPS|76|3|DTH32879616L|t879616|ACTIVE|SQL Developer||SYS$USERS|SQL Developer
D|04-sep-2017 11:30:01|3367|56967|7nt72rdyd0y80|WMUSER|57|3|titan32|wmuser|ACTIVE|JDBC Thin Client||SYS$USERS|JDBC Thin Client
D|04-sep-2017 11:30:01|2305|3719|497wh6n7hu14f|APPS|56|47|cygnus22.tac.co.th|applprod|ACTIVE|FNDCPOPP|Service Management|PROD|JDBC Thin Client
D|04-sep-2017 11:30:01|25|57527|2wpvp7w6ym6my|APPS|24|3|cygnus22|applprod|ACTIVE|TACPO_GRN|Concurrent Request|SYS$USERS|
D|04-sep-2017 11:30:01|4607|59743|g3051d7x074kq|APPS|23|3|cygnus22|applprod|ACTIVE|TACPO004|Concurrent Request|SYS$USERS|
