+---------------------------------------------------------------------------+
Application Object Library: Version : 11.5.0

Copyright (c) 1979, 1999, Oracle Corporation. All rights reserved.

 module: 
+---------------------------------------------------------------------------+

Current system time is 22-DEC-2016 18:46:53

+---------------------------------------------------------------------------+

Uploading from the data file TACAR_INVOUT_TCNX_NEW2.ldt
The file TACAR_INVOUT_TCNX_NEW2.ldt could not be opened for reading

+---------------------------------------------------------------------------+
Concurrent request completed
Current system time is 22-DEC-2016 18:46:53

+---------------------------------------------------------------------------+
