﻿OrgCode|GROUP_NAME|SOURCE|INVOICE_TYPE_LOOKUP_CODE|VENDOR_NUM|VENDOR_SITE_CODE|INVOICE_NUM|INVOICE_DATE|DOC_CATEGORY_CODE|INVOICE_CURRENCY_CODE|INVOICE_AMOUNT|GL_DATE|INVOICE_DESCRIPTION|TERMS_NAME|PAYMENT_METHOD_LOOKUP_CODE|LINE_NUMBER|LINE_TYPE_LOOKUP_CODE|LINE_AMOUNT|LINE_TAX_CODE|AWT_GROUP_NAME|DIST_CODE_CONCATINATED|LINE_DESCRIPTION|ACT_VENDOR_NUM|ACT_VENDOR_SITE_CODE|REPORTING_ENTITY|TAX_INVOICE_DATE|TAX_INVOICE_NUM|TAX_ACCT_PERIOD|WHT_ACCT_PERIOD|PHOR_NGOR_DOR|WHT_CONDITION|WHT_REVENUE_TYPE|WHT_REVENUE_NAME|PROJECT_NUMBER|PROJECT_TASK_NUMBER|EXPENDITURE_TYPE|EXPENDITURE_ORGANIZATION|EAI_CRTD_DTTM|PAYEE|MAIL_TO_NAME|MAIL_TO_ADDRESS1|MAIL_TO_ADDRESS2|MAIL_TO_ADDRESS3|MAIL_TO_ADDRESS4|PO_NUMBER|PO_LINE_NUMBER|RECEIPT_NUMBER|RECEIPT_LINE_NUMBER|PR NUMBER|PR LINE NUMBER|MATCH_OPTION|BILL_PLACEMENT_DATE
DTAC|FXTH_2W_20170108_0300|FXTH|STANDARD|238373|HO|IX161100260||IN10|THB|1000000|08/01/2017||30|CHECK|1|ITEM|934579.44||||||||||||||||||||08/01/2017|||||||||||10160025279|1|P|06/01/2017
DTAC|FXTH_2W_20170108_0300|FXTH|STANDARD|124681|HO|SN16-0012|26/10/2016|IN10|THB|15814.17|08/01/2017||30 Days|CHECK|1|ITEM|15814.17||||||||||||||||||||08/01/2017|||||||||||10160024991|1|P|23/11/2016
DTN|FXTH_2W_20170108_0300|FXTH|STANDARD|214537|DTAC-N|F4816110937|28/11/2016|DTACN-IN|USD|15725|08/01/2017||30 Days|CHECK|1|ITEM|15725||||||||||||||||||||08/01/2017|||||||||||8016010914|1|P|23/12/2016
DTAC|FXTH_2W_20170108_0300|FXTH|STANDARD|282847|HO|5912010|19/12/2016|IN10|THB|214000|08/01/2017||30 Days|CHECK|1|ITEM|200000||||||||||||||||||||08/01/2017|||||||||||10160028511|1|P|21/12/2016
DTN|FXTH_2W_20170108_0300|FXTH|STANDARD|182903|DTAC-N|201600001705|01/11/2016|DTACN-IN|USD|8500|08/01/2017||30 Days|CHECK|1|ITEM|8500||||||||||||||||||||08/01/2017|||||||||||8016011219|1|P|21/12/2016
DTAC|FXTH_2W_20170108_0300|FXTH|STANDARD|124681|HO|SN16-0013|23/11/2016|IN10|THB|21528.8|08/01/2017||30 Days|CHECK|1|ITEM|21528.8||||||||||||||||||||08/01/2017|||||||||||10160026433|1|P|14/12/2016
DTAC|FXTH_2W_20170108_0300|FXTH|STANDARD|127058|HO|IV16120108||IN10|THB|224700|08/01/2017||60|CHECK|1|ITEM|210000||||||||||||||||||||08/01/2017|||||||||||10160029858|1|P|06/01/2017
DTAC|FXTH_2W_20170108_0300|FXTH|STANDARD|201692|DTAC-N|7005415||IN10|THB|16098.15|08/01/2017||30|CHECK|1|ITEM|15045||||||||||||||||||||08/01/2017|||||||||||10160028595|1|P|06/01/2017
DTAC|FXTH_2W_20170108_0300|FXTH|STANDARD|101358|HO|116121109||IN10|THB|922763.16|08/01/2017||30|CHECK|1|ITEM|862395.48||||||||||||||||||||08/01/2017|||||||||||10160028611|1|P|06/01/2017
DTAC|FXTH_2W_20170108_0300|FXTH|STANDARD|234434|HO|IV5912097||IN10|THB|1159869.3|08/01/2017||30|CHECK|1|ITEM|1083990||||||||||||||||||||08/01/2017|||||||||||10160030312|1|P|06/01/2017
DTAC|FXTH_2W_20170108_0300|FXTH|STANDARD|260448|HO|SI1612-0011||IN10|THB|87150|08/01/2017||15|CHECK|1|ITEM|81448.6||||||||||||||||||||08/01/2017|||||||||||10160029989|1|P|06/01/2017