
SQL*Loader: Release 8.0.6.3.0 - Production on Tue Dec 13 10:26:33 2016

(c) Copyright 1999 Oracle Corporation.  All rights reserved.

Control File:   /erpapp/prod/prodappl/ap/11.5.0/bin/DTINVHUB007_44294141.ctl
Character Set UTF8 specified for all input.

Data File:      /MP/GERP_PROD/INVOICEHUB/INPUT/APINVOICE/INBOX/FXTH_2W_20161213_0300.txt
  Bad File:     /MP/GERP_PROD/INVOICEHUB/INPUT/APINVOICE/ERROR/FXTH_2W_20161213_0300.txt.bad
  Discard File:  none specified
 
 (Allow all discards)

Number to load: ALL
Number to skip: 1
Errors allowed: 50
Bind array:     64 rows, maximum of 65536 bytes
Continuation:    none specified
Path used:      Conventional

Table TAC_INVHUB_INVOICE_STG, loaded from every logical record.
Insert option in effect for this table: APPEND
TRAILING NULLCOLS option in effect

   Column Name                  Position   Len  Term Encl Datatype
------------------------------ ---------- ----- ---- ---- ---------------------
ORG_CODE                            FIRST     *   |       CHARACTER            
GROUP_NAME                           NEXT     *   |       CHARACTER            
SOURCE                               NEXT     *   |       CHARACTER            
INVOICE_TYPE_LOOKUP_CODE             NEXT     *   |       CHARACTER            
VENDOR_NUM                           NEXT     *   |       CHARACTER            
VENDOR_SITE_CODE                     NEXT     *   |       CHARACTER            
INVOICE_NUM                          NEXT     *   |       CHARACTER            
INVOICE_DATE                         NEXT     *   |       DATE DD/MM/YYYY      
DOC_CATEGORY_CODE                    NEXT     *   |       CHARACTER            
INVOICE_CURRENCY_CODE                NEXT     *   |       CHARACTER            
INVOICE_AMOUNT                       NEXT     *   |       CHARACTER            
GL_DATE                              NEXT     *   |       DATE DD/MM/YYYY      
INVOICE_DESCRIPTION                  NEXT     *   |       CHARACTER            
TERMS_NAME                           NEXT     *   |       CHARACTER            
PAYMENT_METHOD_LOOKUP_CODE           NEXT     *   |       CHARACTER            
LINE_NUMBER                          NEXT     *   |       CHARACTER            
LINE_TYPE_LOOKUP_CODE                NEXT     *   |       CHARACTER            
LINE_AMOUNT                          NEXT     *   |       CHARACTER            
LINE_TAX_CODE                        NEXT     *   |       CHARACTER            
AWT_GROUP_NAME                       NEXT     *   |       CHARACTER            
DIST_CODE_CONCATINATED               NEXT     *   |       CHARACTER            
LINE_DESCRIPTION                     NEXT     *   |       CHARACTER            
ACT_VENDOR_NUM                       NEXT     *   |       CHARACTER            
ACT_VENDOR_SITE_CODE                 NEXT     *   |       CHARACTER            
REPORTING_ENTITY                     NEXT     *   |       CHARACTER            
TAX_INVOICE_DATE                     NEXT     *   |       CHARACTER            
TAX_INVOICE_NUM                      NEXT     *   |       CHARACTER            
TAX_ACCT_PERIOD                      NEXT     *   |       CHARACTER            
WHT_ACCT_PERIOD                      NEXT     *   |       CHARACTER            
PHOR_NGOR_DOR                        NEXT     *   |       CHARACTER            
WHT_CONDITION                        NEXT     *   |       CHARACTER            
WHT_REVENUE_TYPE                     NEXT     *   |       CHARACTER            
WHT_REVENUE_NAME                     NEXT     *   |       CHARACTER            
PROJECT_NUMBER                       NEXT     *   |       CHARACTER            
PROJECT_TASK_NUMBER                  NEXT     *   |       CHARACTER            
EXPENDITURE_TYPE                     NEXT     *   |       CHARACTER            
EXPENDITURE_ORGANIZATION             NEXT     *   |       CHARACTER            
EAI_CRTD_DTTM                        NEXT     *   |       DATE DD/MM/YYYY      
PAYEE                                NEXT     *   |       CHARACTER            
MAIL_TO_NAME                         NEXT     *   |       CHARACTER            
MAIL_TO_ADDRESS1                     NEXT     *   |       CHARACTER            
MAIL_TO_ADDRESS2                     NEXT     *   |       CHARACTER            
MAIL_TO_ADDRESS3                     NEXT     *   |       CHARACTER            
MAIL_TO_ADDRESS4                     NEXT     *   |       CHARACTER            
PO_NUMBER                            NEXT     *   |       CHARACTER            
PO_LINE_NUMBER                       NEXT     *   |       CHARACTER            
RECEIPT_NUMBER                       NEXT     *   |       CHARACTER            
RECEIPT_LINE_NUMBER                  NEXT     *   |       CHARACTER            
PR_NUMBER                            NEXT     *   |       CHARACTER            
PR_LINE_NUMBER                       NEXT     *   |       CHARACTER            
MATCH_OPTION                         NEXT     *   |       CHARACTER            
BILL_PLACEMENT_DATE                  NEXT     *   |       DATE DD/MM/YYYY      
INTERFACE_PO_FLAG                    NEXT     *   |       CHARACTER            
INTERFACE_TYPE                       NEXT     *   |       CHARACTER            

INTERFACE_AP_FLAG              CONSTANT 'N'
FILE_NAME                      CONSTANT 'FXTH_2W_20161213_0300.txt'

Column INTERFACE_PO_FLAG had SQL string 
"DECODE(SUBSTR(:GROUP_NAME,6,2),'2W','N',
                                                            '3W','Y','N')"
 applied to it.
Column INTERFACE_TYPE had SQL string 
"DECODE(SUBSTR(:GROUP_NAME,6,2),'2W','2WAY',
                                                  '3W','3WAY','2WAY')"
 applied to it.


Table TAC_INVHUB_INVOICE_STG:
  1 Row successfully loaded.
  0 Rows not loaded due to data errors.
  0 Rows not loaded because all WHEN clauses were failed.
  0 Rows not loaded because all fields were null.


Space allocated for bind array:                  55840 bytes(4 rows)
Space allocated for memory besides bind array:        0 bytes

Total logical records skipped:          1
Total logical records read:             1
Total logical records rejected:         0
Total logical records discarded:        0

Run began on Tue Dec 13 10:26:33 2016
Run ended on Tue Dec 13 10:26:33 2016

Elapsed time was:     00:00:00.15
CPU time was:         00:00:00.03    
