﻿OrgCode|GROUP_NAME|SOURCE|INVOICE_TYPE_LOOKUP_CODE|VENDOR_NUM|VENDOR_SITE_CODE|INVOICE_NUM|INVOICE_DATE|DOC_CATEGORY_CODE|INVOICE_CURRENCY_CODE|INVOICE_AMOUNT|GL_DATE|INVOICE_DESCRIPTION|TERMS_NAME|PAYMENT_METHOD_LOOKUP_CODE|LINE_NUMBER|LINE_TYPE_LOOKUP_CODE|LINE_AMOUNT|LINE_TAX_CODE|AWT_GROUP_NAME|DIST_CODE_CONCATINATED|LINE_DESCRIPTION|ACT_VENDOR_NUM|ACT_VENDOR_SITE_CODE|REPORTING_ENTITY|TAX_INVOICE_DATE|TAX_INVOICE_NUM|TAX_ACCT_PERIOD|WHT_ACCT_PERIOD|PHOR_NGOR_DOR|WHT_CONDITION|WHT_REVENUE_TYPE|WHT_REVENUE_NAME|PROJECT_NUMBER|PROJECT_TASK_NUMBER|EXPENDITURE_TYPE|EXPENDITURE_ORGANIZATION|EAI_CRTD_DTTM|PAYEE|MAIL_TO_NAME|MAIL_TO_ADDRESS1|MAIL_TO_ADDRESS2|MAIL_TO_ADDRESS3|MAIL_TO_ADDRESS4|PO_NUMBER|PO_LINE_NUMBER|RECEIPT_NUMBER|RECEIPT_LINE_NUMBER|PR NUMBER|PR LINE NUMBER|MATCH_OPTION|BILL_PLACEMENT_DATE
DTAC|FXTH_3W_20161213_0300|FXTH|STANDARD|100108|HO|9065015181||IN10|USD||13/12/2016||60|CHECK|9065015181|ITEM|9373.56||||||||||||||||||||13/12/2016|||||||991016005232|1|20160024399|1|||R|02/11/2016
DTAC|FXTH_3W_20161213_0300|FXTH|STANDARD|173054|HO|1600300444|09/11/2016|IN10|THB|5179083.55|13/12/2016||30|CHECK|1|ITEM|4840265||||||||||||||||||||13/12/2016|||||||991016020393|1|20160002332|1|||R|16/11/2016
DTAC|FXTH_3W_20161213_0300|FXTH|STANDARD|173054|HO|1600321301|24/11/2016|IN10|THB|12593151|13/12/2016||30|CHECK|1|ITEM|6930810||||||||||||||||||||13/12/2016|||||||991016020987|1|20160002605|1|||R|08/12/2016
DTAC|FXTH_3W_20161213_0300|FXTH|STANDARD|173054|HO|1600321301|24/11/2016|IN10|THB|12593151|13/12/2016||30|CHECK|1|ITEM|1569240||||||||||||||||||||13/12/2016|||||||991016020987|2|20160002605|2|||R|08/12/2016
DTAC|FXTH_3W_20161213_0300|FXTH|STANDARD|173054|HO|1600321301|24/11/2016|IN10|THB|12593151|13/12/2016||30|CHECK|1|ITEM|3269250||||||||||||||||||||13/12/2016|||||||991016020987|3|20160002605|3|||R|08/12/2016
DTN|FXTH_3W_20161213_0300|FXTH|STANDARD|185284|DTAC-N|TL1612433|16/11/2016|DTACN-IN|USD|0|13/12/2016||60|CHECK|TL1612433|ITEM|1899.3||||||||||||||||||||13/12/2016|||||||8014002142|15|8016007840|1|||R|08/12/2016
DTAC|FXTH_3W_20161213_0300|FXTH|STANDARD|235310|HO|RE5911/039|21/11/2016|IN10|THB|8881|13/12/2016||60|CHECK|RE5911/039|ITEM|8300||||||||||||||||||||13/12/2016|||||||991016013768|2|20160026463|1|||R|07/12/2016
DTAC|FXTH_3W_20161213_0300|FXTH|STANDARD|107420|HO|INB5912014|24/11/2016|IN10|THB|2359|13/12/2016||15|CHECK|1|ITEM|1700||||||||||||||||||||13/12/2016|||||||991016022868|1|20160026675|1|||R|09/12/2016
DTAC|FXTH_3W_20161213_0300|FXTH|STANDARD|107420|HO|INB5912014|24/11/2016|IN10|THB|2359|13/12/2016||15|CHECK|1|ITEM|40||||||||||||||||||||13/12/2016|||||||991016022868|3|20160026675|2|||R|09/12/2016
DTAC|FXTH_3W_20161213_0300|FXTH|STANDARD|107420|HO|INB5912014|24/11/2016|IN10|THB|2359|13/12/2016||15|CHECK|1|ITEM|500||||||||||||||||||||13/12/2016|||||||991016022868|2|20160026675|3|||R|09/12/2016
DTAC|FXTH_3W_20161213_0300|FXTH|STANDARD|173054|HO|1600303844|11/11/2016|IN10|THB|1306791|13/12/2016||30|CHECK|1|ITEM|1221300||||||||||||||||||||13/12/2016|||||||991016021513|1|20160002380|1|||R|21/11/2016
DTAC|FXTH_3W_20161213_0300|FXTH|STANDARD|173054|HO|1600307361|16/11/2016|IN10|THB|5769204.6|13/12/2016||30|CHECK|1|ITEM|1661850||||||||||||||||||||13/12/2016|||||||991016020722|1|20160002431|1|||R|24/11/2016
DTAC|FXTH_3W_20161213_0300|FXTH|STANDARD|173054|HO|1600307361|16/11/2016|IN10|THB|5769204.6|13/12/2016||30|CHECK|1|ITEM|1587990||||||||||||||||||||13/12/2016|||||||991016020722|2|20160002431|2|||R|24/11/2016
DTAC|FXTH_3W_20161213_0300|FXTH|STANDARD|173054|HO|1600307361|16/11/2016|IN10|THB|5769204.6|13/12/2016||30|CHECK|1|ITEM|2141940||||||||||||||||||||13/12/2016|||||||991016020722|3|20160002431|3|||R|24/11/2016
DTAC|FXTH_3W_20161213_0300|FXTH|STANDARD|173054|HO|1600307644|16/11/2016|IN10|THB|790671.15|13/12/2016||30|CHECK|1|ITEM|738945||||||||||||||||||||13/12/2016|||||||991016018195|1|20160002437|1|||R|24/11/2016
DTAC|FXTH_3W_20161213_0300|FXTH|STANDARD|105768|HO|HOC3C201600212|22/10/2559|IN10|THB|735674.73|13/12/2016||60|CHECK|1|ITEM|667520.85||||||||||||||||||||13/12/2016|||||||991016020063|3|20160023800|1|||R|02/11/2016
DTAC|FXTH_3W_20161213_0300|FXTH|STANDARD|105768|HO|HOC3C201600212|22/10/2559|IN10|THB|735674.73|13/12/2016||60|CHECK|2|ITEM|20025.63||||||||||||||||||||13/12/2016|||||||991016020063|3|20160023800|1|||R|02/11/2016