﻿OrgCode|GROUP_NAME|SOURCE|INVOICE_TYPE_LOOKUP_CODE|VENDOR_NUM|VENDOR_SITE_CODE|INVOICE_NUM|INVOICE_DATE|DOC_CATEGORY_CODE|INVOICE_CURRENCY_CODE|INVOICE_AMOUNT|GL_DATE|INVOICE_DESCRIPTION|TERMS_NAME|PAYMENT_METHOD_LOOKUP_CODE|LINE_NUMBER|LINE_TYPE_LOOKUP_CODE|LINE_AMOUNT|LINE_TAX_CODE|AWT_GROUP_NAME|DIST_CODE_CONCATINATED|LINE_DESCRIPTION|ACT_VENDOR_NUM|ACT_VENDOR_SITE_CODE|REPORTING_ENTITY|TAX_INVOICE_DATE|TAX_INVOICE_NUM|TAX_ACCT_PERIOD|WHT_ACCT_PERIOD|PHOR_NGOR_DOR|WHT_CONDITION|WHT_REVENUE_TYPE|WHT_REVENUE_NAME|PROJECT_NUMBER|PROJECT_TASK_NUMBER|EXPENDITURE_TYPE|EXPENDITURE_ORGANIZATION|EAI_CRTD_DTTM|PAYEE|MAIL_TO_NAME|MAIL_TO_ADDRESS1|MAIL_TO_ADDRESS2|MAIL_TO_ADDRESS3|MAIL_TO_ADDRESS4|PO_NUMBER|PO_LINE_NUMBER|RECEIPT_NUMBER|RECEIPT_LINE_NUMBER|PR NUMBER|PR LINE NUMBER|MATCH_OPTION|BILL_PLACEMENT_DATE
DTAC|FXTH_3W_20161209_0300|FXTH|STANDARD|105768|HO|HOC3C201600212|22/10/2559|IN10|THB|735674.73|09/12/2016||60|CHECK|1|ITEM|667520.85||||||||||||||||||||09/12/2016|||||||991016020063|3|20160023800|1|||R|02/11/2016
DTAC|FXTH_3W_20161209_0300|FXTH|STANDARD|105768|HO|HOC3C201600212|22/10/2559|IN10|THB|735674.73|09/12/2016||60|CHECK|2|ITEM|20025.63||||||||||||||||||||09/12/2016|||||||991016020063|3|20160023800|1|||R|02/11/2016
DTAC|FXTH_3W_20161209_0300|FXTH|STANDARD|185284|HO|TL1610428|28/09/2016|IN10|USD|41036|09/12/2016||60|CHECK|1|ITEM|38351.4||||||||||||||||||||09/12/2016|||||||991016002906|1|20160012196|1|||R|07/11/2016
DTAC|FXTH_3W_20161209_0300|FXTH|STANDARD|185284|HO|TL1610441|28/09/2016|IN10|USD|5939.16|09/12/2016||60|CHECK|1|ITEM|5550.61||||||||||||||||||||09/12/2016|||||||991016002907|1|20160007742|1|||R|07/11/2016
DTAC|FXTH_3W_20161209_0300|FXTH|STANDARD|185284|HO|TL1610442|28/09/2016|IN10|USD|2771.61|09/12/2016||60|CHECK|1|ITEM|2590.29||||||||||||||||||||09/12/2016|||||||991016002907|1|20160010789|1|||R|07/11/2016
DTAC|FXTH_3W_20161209_0300|FXTH|STANDARD|185284|HO|TL1610444|28/09/2016|IN10|USD|1219.02|09/12/2016||60|CHECK|1|ITEM|1139.27||||||||||||||||||||09/12/2016|||||||991016002907|3|20160007745|1|||R|07/11/2016
DTAC|FXTH_3W_20161209_0300|FXTH|STANDARD|185284|HO|TL1610445|28/09/2016|IN10|USD|78.8|09/12/2016||60|CHECK|1|ITEM|73.65||||||||||||||||||||09/12/2016|||||||991016002907|4|20160007746|1|||R|07/11/2016
DTAC|FXTH_3W_20161209_0300|FXTH|STANDARD|185284|HO|TL1610446|28/09/2016|IN10|USD|3090.07|09/12/2016||60|CHECK|1|ITEM|2887.91||||||||||||||||||||09/12/2016|||||||991016002907|5|20160007747|1|||R|07/11/2016
DTAC|FXTH_3W_20161209_0300|FXTH|STANDARD|185284|HO|TL1610449|28/09/2016|IN10|USD|926.07|09/12/2016||60|CHECK|1|ITEM|865.49||||||||||||||||||||09/12/2016|||||||991016002907|8|20160007751|1|||R|07/11/2016
DTAC|FXTH_3W_20161209_0300|FXTH|STANDARD|185284|HO|:TL1610450|28/09/2016|IN10|USD|2543.03|09/12/2016||60|CHECK|1|ITEM|2376.67||||||||||||||||||||09/12/2016|||||||991016002907|9|20160007752|1|||R|07/11/2016
DTAC|FXTH_3W_20161209_0300|FXTH|STANDARD|173054|HO|1600300444|09/11/2016|IN10|THB|5179083.55|09/12/2016||30|CHECK|1|ITEM|4840265||||||||||||||||||||09/12/2016|||||||991016020393|1|20160002332|1|||R|16/11/2016
DTAC|FXTH_3W_20161209_0300|FXTH|STANDARD|173054|HO|1600303844|11/11/2016|IN10|THB|1306791|09/12/2016||30|CHECK|1|ITEM|1221300||||||||||||||||||||09/12/2016|||||||991016021513|1|20160002380|1|||R|21/11/2016
DTAC|FXTH_3W_20161209_0300|FXTH|STANDARD|173054|HO|1600307361|16/11/2016|IN10|THB|5769204.6|09/12/2016||30|CHECK|1|ITEM|1661850||||||||||||||||||||09/12/2016|||||||991016020722|1|20160002431|1|||R|24/11/2016
DTAC|FXTH_3W_20161209_0300|FXTH|STANDARD|173054|HO|1600307361|16/11/2016|IN10|THB|5769204.6|09/12/2016||30|CHECK|1|ITEM|1587990||||||||||||||||||||09/12/2016|||||||991016020722|2|20160002431|2|||R|24/11/2016
DTAC|FXTH_3W_20161209_0300|FXTH|STANDARD|173054|HO|1600307361|16/11/2016|IN10|THB|5769204.6|09/12/2016||30|CHECK|1|ITEM|2141940||||||||||||||||||||09/12/2016|||||||991016020722|3|20160002431|3|||R|24/11/2016
DTAC|FXTH_3W_20161209_0300|FXTH|STANDARD|173054|HO|1600307644|16/11/2016|IN10|THB|790671.15|09/12/2016||30|CHECK|1|ITEM|738945||||||||||||||||||||09/12/2016|||||||991016018195|1|20160002437|1|||R|24/11/2016
DTAC|FXTH_3W_20161209_0300|FXTH|STANDARD|100108|HO|9065015181||IN10|USD||09/12/2016||60|CHECK|9065015181|ITEM|9373.56||||||||||||||||||||09/12/2016|||||||991016005232|1|20160024399|1|||R|02/11/2016
DTN|FXTH_3W_20161209_0300|FXTH|STANDARD|100108|DTAC-N|9788000777|18/11/2016|DTACN-IN|USD|22009.8|09/12/2016||60|CHECK|1|ITEM|22009.8||||||||||||||||||||09/12/2016|||||||8016006404|2|8016008206|1|||R|07/12/2016
DTN|FXTH_3W_20161209_0300|FXTH|STANDARD|100108|DTAC-N|9065015299|18/11/2016|DTACN-IN|USD|32700|09/12/2016||60|CHECK|1|ITEM|32700||||||||||||||||||||09/12/2016|||||||8015004773|3|8016008204|1|||R|07/12/2016
DTN|FXTH_3W_20161209_0300|FXTH|STANDARD|100108|DTAC-N|9788000794|22/11/2016|DTACN-IN|USD|181113.04|09/12/2016||60|CHECK|1|ITEM|36000||||||||||||||||||||09/12/2016|||||||8016006415|1|8016008203|1|||R|07/12/2016
DTN|FXTH_3W_20161209_0300|FXTH|STANDARD|100108|DTAC-N|9788000794|22/11/2016|DTACN-IN|USD|181113.04|09/12/2016||60|CHECK|1|ITEM|133264.52||||||||||||||||||||09/12/2016|||||||8016006415|3|8016008203|2|||R|07/12/2016
DTN|FXTH_3W_20161209_0300|FXTH|STANDARD|100108|DTAC-N|9065015382|24/11/2016|DTACN-IN|USD|18584.3|09/12/2016||60|CHECK|1|ITEM|15449.25||||||||||||||||||||09/12/2016|||||||8016001929|1|8016008186|1|||R|07/12/2016
DTN|FXTH_3W_20161209_0300|FXTH|STANDARD|100108|DTAC-N|9065015382|24/11/2016|DTACN-IN|USD|18584.3|09/12/2016||60|CHECK|1|ITEM|3135.05||||||||||||||||||||09/12/2016|||||||8016001929|4|8016008186|2|||R|07/12/2016
DTN|FXTH_3W_20161209_0300|FXTH|STANDARD|100108|DTAC-N|9065015397|24/11/2016|DTACN-IN|USD|11150.58|09/12/2016||60|CHECK|1|ITEM|9269.55||||||||||||||||||||09/12/2016|||||||8016001929|1|8016008192|1|||R|07/12/2016
DTN|FXTH_3W_20161209_0300|FXTH|STANDARD|100108|DTAC-N|9065015397|24/11/2016|DTACN-IN|USD|11150.58|09/12/2016||60|CHECK|1|ITEM|1881.03||||||||||||||||||||09/12/2016|||||||8016001929|4|8016008192|2|||R|07/12/2016
DTAC|FXTH_3W_20161209_0300|FXTH|STANDARD|235310|HO|RE5911/039|21/11/2016|IN10|THB|8881|09/12/2016||60|CHECK|RE5911/039|ITEM|8300||||||||||||||||||||09/12/2016|||||||991016013768|2|20160026463|1|||R|07/12/2016
DTAC|FXTH_3W_20161209_0300|FXTH|STANDARD|101230|HO|216763|01/12/2016|IN10|THB|165730.81|09/12/2016||30|CHECK|1|ITEM|137990.77||||||||||||||||||||09/12/2016|||||||991016022470|1|20160026889|1|||R|07/12/2016
DTAC|FXTH_3W_20161209_0300|FXTH|STANDARD|101230|HO|216763|01/12/2016|IN10|THB|165730.81|09/12/2016||30|CHECK|1|ITEM|16897.84||||||||||||||||||||09/12/2016|||||||991016022470|2|20160026889|2|||R|07/12/2016
DTAC|FXTH_3W_20161209_0300|FXTH|STANDARD|101230|HO|216764|01/12/2016|IN10|THB|72493.15|09/12/2016||30|CHECK|1|ITEM|67750.61||||||||||||||||||||09/12/2016|||||||991016022470|3|20160026888|1|||R|07/12/2016
DTAC|FXTH_3W_20161209_0300|FXTH|STANDARD|184906|HO|8030836750|30/11/2016|IN10|THB|151875.8|09/12/2016||60|CHECK|1|ITEM|82500||||||||||||||||||||09/12/2016|||||||991016022300|1|20160027320|1|||R|08/12/2016
DTAC|FXTH_3W_20161209_0300|FXTH|STANDARD|184906|HO|8030836750|30/11/2016|IN10|THB|151875.8|09/12/2016||60|CHECK|1|ITEM|30000||||||||||||||||||||09/12/2016|||||||991016022300|2|20160027320|2|||R|08/12/2016
DTAC|FXTH_3W_20161209_0300|FXTH|STANDARD|184906|HO|8030836750|30/11/2016|IN10|THB|151875.8|09/12/2016||60|CHECK|1|ITEM|15640||||||||||||||||||||09/12/2016|||||||991016022300|6|20160027320|3|||R|08/12/2016
DTAC|FXTH_3W_20161209_0300|FXTH|STANDARD|184906|HO|8030836750|30/11/2016|IN10|THB|151875.8|09/12/2016||60|CHECK|1|ITEM|13800||||||||||||||||||||09/12/2016|||||||991016022300|4|20160027320|4|||R|08/12/2016
DTN|FXTH_3W_20161209_0300|FXTH|STANDARD|184906|DTAC-N|8030836746|30/11/2016|DTACN-IN|THB|87839.51|09/12/2016||60|CHECK|1|ITEM|2520||||||||||||||||||||09/12/2016|||||||8016008606|3|8016008077|1|||R|08/12/2016
DTN|FXTH_3W_20161209_0300|FXTH|STANDARD|184906|DTAC-N|8030836746|30/11/2016|DTACN-IN|THB|87839.51|09/12/2016||60|CHECK|1|ITEM|10800||||||||||||||||||||09/12/2016|||||||8016008606|4|8016008077|2|||R|08/12/2016
DTN|FXTH_3W_20161209_0300|FXTH|STANDARD|184906|DTAC-N|8030836746|30/11/2016|DTACN-IN|THB|87839.51|09/12/2016||60|CHECK|1|ITEM|26640||||||||||||||||||||09/12/2016|||||||8016008606|5|8016008077|3|||R|08/12/2016
DTN|FXTH_3W_20161209_0300|FXTH|STANDARD|184906|DTAC-N|8030836746|30/11/2016|DTACN-IN|THB|87839.51|09/12/2016||60|CHECK|1|ITEM|1500||||||||||||||||||||09/12/2016|||||||8016008606|15|8016008077|4|||R|08/12/2016
DTN|FXTH_3W_20161209_0300|FXTH|STANDARD|184906|DTAC-N|8030836746|30/11/2016|DTACN-IN|THB|87839.51|09/12/2016||60|CHECK|1|ITEM|6000||||||||||||||||||||09/12/2016|||||||8016008606|16|8016008077|5|||R|08/12/2016
DTN|FXTH_3W_20161209_0300|FXTH|STANDARD|184906|DTAC-N|8030836746|30/11/2016|DTACN-IN|THB|87839.51|09/12/2016||60|CHECK|1|ITEM|15580||||||||||||||||||||09/12/2016|||||||8016008606|17|8016008077|6|||R|08/12/2016
DTN|FXTH_3W_20161209_0300|FXTH|STANDARD|184906|DTAC-N|8030836746|30/11/2016|DTACN-IN|THB|87839.51|09/12/2016||60|CHECK|1|ITEM|13140||||||||||||||||||||09/12/2016|||||||8016008606|18|8016008077|7|||R|08/12/2016
DTN|FXTH_3W_20161209_0300|FXTH|STANDARD|184906|DTAC-N|8030836746|30/11/2016|DTACN-IN|THB|87839.51|09/12/2016||60|CHECK|1|ITEM|5913||||||||||||||||||||09/12/2016|||||||8016008606|2|8016008077|8|||R|08/12/2016
DTAC|FXTH_3W_20161209_0300|FXTH|STANDARD|193908|HO|100669312|24/11/2016|IN10|THB|286760|09/12/2016||30|CHECK|1|ITEM|268000||||||||||||||||||||09/12/2016|||||||991016017945|1|20160002662|1|||R|08/12/2016
DTN|FXTH_3W_20161209_0300|FXTH|STANDARD|184906|DTAC-N|8030836749|30/11/2016|DTACN-IN|THB|468891.66|09/12/2016||60|CHECK|1|ITEM|50571||||||||||||||||||||09/12/2016|||||||8016008606|1|8016008078|1|||R|08/12/2016
DTN|FXTH_3W_20161209_0300|FXTH|STANDARD|184906|DTAC-N|8030836749|30/11/2016|DTACN-IN|THB|468891.66|09/12/2016||60|CHECK|1|ITEM|12000||||||||||||||||||||09/12/2016|||||||8016008606|19|8016008078|2|||R|08/12/2016
DTN|FXTH_3W_20161209_0300|FXTH|STANDARD|184906|DTAC-N|8030836749|30/11/2016|DTACN-IN|THB|468891.66|09/12/2016||60|CHECK|1|ITEM|7140||||||||||||||||||||09/12/2016|||||||8016008606|3|8016008078|3|||R|08/12/2016
DTN|FXTH_3W_20161209_0300|FXTH|STANDARD|184906|DTAC-N|8030836749|30/11/2016|DTACN-IN|THB|468891.66|09/12/2016||60|CHECK|1|ITEM|49580||||||||||||||||||||09/12/2016|||||||8016008606|5|8016008078|4|||R|08/12/2016
DTN|FXTH_3W_20161209_0300|FXTH|STANDARD|184906|DTAC-N|8030836749|30/11/2016|DTACN-IN|THB|468891.66|09/12/2016||60|CHECK|1|ITEM|5400||||||||||||||||||||09/12/2016|||||||8016008606|6|8016008078|5|||R|08/12/2016
DTN|FXTH_3W_20161209_0300|FXTH|STANDARD|184906|DTAC-N|8030836749|30/11/2016|DTACN-IN|THB|468891.66|09/12/2016||60|CHECK|1|ITEM|23520||||||||||||||||||||09/12/2016|||||||8016008606|7|8016008078|6|||R|08/12/2016
DTN|FXTH_3W_20161209_0300|FXTH|STANDARD|184906|DTAC-N|8030836749|30/11/2016|DTACN-IN|THB|468891.66|09/12/2016||60|CHECK|1|ITEM|25500||||||||||||||||||||09/12/2016|||||||8016008606|8|8016008078|7|||R|08/12/2016
DTN|FXTH_3W_20161209_0300|FXTH|STANDARD|184906|DTAC-N|8030836749|30/11/2016|DTACN-IN|THB|468891.66|09/12/2016||60|CHECK|1|ITEM|5650||||||||||||||||||||09/12/2016|||||||8016008606|9|8016008078|8|||R|08/12/2016
DTN|FXTH_3W_20161209_0300|FXTH|STANDARD|184906|DTAC-N|8030836749|30/11/2016|DTACN-IN|THB|468891.66|09/12/2016||60|CHECK|1|ITEM|1200||||||||||||||||||||09/12/2016|||||||8016008606|10|8016008078|9|||R|08/12/2016
DTN|FXTH_3W_20161209_0300|FXTH|STANDARD|184906|DTAC-N|8030836749|30/11/2016|DTACN-IN|THB|468891.66|09/12/2016||60|CHECK|1|ITEM|80340||||||||||||||||||||09/12/2016|||||||8016008606|11|8016008078|10|||R|08/12/2016
DTN|FXTH_3W_20161209_0300|FXTH|STANDARD|184906|DTAC-N|8030836749|30/11/2016|DTACN-IN|THB|468891.66|09/12/2016||60|CHECK|1|ITEM|3500||||||||||||||||||||09/12/2016|||||||8016008606|12|8016008078|11|||R|08/12/2016
DTN|FXTH_3W_20161209_0300|FXTH|STANDARD|184906|DTAC-N|8030836749|30/11/2016|DTACN-IN|THB|468891.66|09/12/2016||60|CHECK|1|ITEM|94000||||||||||||||||||||09/12/2016|||||||8016008606|13|8016008078|12|||R|08/12/2016
DTN|FXTH_3W_20161209_0300|FXTH|STANDARD|184906|DTAC-N|8030836749|30/11/2016|DTACN-IN|THB|468891.66|09/12/2016||60|CHECK|1|ITEM|27691.5||||||||||||||||||||09/12/2016|||||||8016008606|14|8016008078|13|||R|08/12/2016
DTN|FXTH_3W_20161209_0300|FXTH|STANDARD|184906|DTAC-N|8030836749|30/11/2016|DTACN-IN|THB|468891.66|09/12/2016||60|CHECK|1|ITEM|7790||||||||||||||||||||09/12/2016|||||||8016008606|17|8016008078|14|||R|08/12/2016
DTN|FXTH_3W_20161209_0300|FXTH|STANDARD|184906|DTAC-N|8030836749|30/11/2016|DTACN-IN|THB|468891.66|09/12/2016||60|CHECK|1|ITEM|44334||||||||||||||||||||09/12/2016|||||||8016008606|2|8016008078|15|||R|08/12/2016
DTAC|FXTH_3W_20161209_0300|FXTH|STANDARD|193908|HO|100669310|24/11/2016|IN10|THB|343470|09/12/2016||30|CHECK|1|ITEM|321000||||||||||||||||||||09/12/2016|||||||991016021304|1|20160002660|1|||R|08/12/2016
DTN|FXTH_3W_20161209_0300|FXTH|STANDARD|184906|DTAC-N|8030836748|30/11/2016|DTACN-IN|THB|261508|09/12/2016||60|CHECK|1|ITEM|244400||||||||||||||||||||09/12/2016|||||||8016006870|1|8016008079|1|||R|08/12/2016
DTAC|FXTH_3W_20161209_0300|FXTH|STANDARD|193908|HO|100669309|24/11/2016|IN10|THB|860280|09/12/2016||30|CHECK|1|ITEM|804000||||||||||||||||||||09/12/2016|||||||991016017943|1|20160002659|1|||R|08/12/2016
DTAC|FXTH_3W_20161209_0300|FXTH|STANDARD|193908|HO|100669311|24/11/2016|IN10|THB|3062340|09/12/2016||30|CHECK|1|ITEM|2862000||||||||||||||||||||09/12/2016|||||||991016021028|1|20160002661|1|||R|08/12/2016
DTAC|FXTH_3W_20161209_0300|FXTH|STANDARD|193908|HO|100669306|24/11/2016|IN10|THB|1433800|09/12/2016||30|CHECK|1|ITEM|1340000||||||||||||||||||||09/12/2016|||||||991016017944|1|20160002657|1|||R|08/12/2016
DTAC|FXTH_3W_20161209_0300|FXTH|STANDARD|193908|HO|100669308|24/11/2016|IN10|THB|4210557|09/12/2016||30|CHECK|1|ITEM|3935100||||||||||||||||||||09/12/2016|||||||991016018034|1|20160002658|1|||R|08/12/2016
DTN|FXTH_3W_20161209_0300|FXTH|STANDARD|184906|DTAC-N|8030836743|30/11/2016|DTACN-IN|THB|1991769.69|09/12/2016||60|CHECK|1|ITEM|1266678||||||||||||||||||||09/12/2016|||||||8016007485|1|8016008081|1|||R|08/12/2016
DTN|FXTH_3W_20161209_0300|FXTH|STANDARD|184906|DTAC-N|8030836743|30/11/2016|DTACN-IN|THB|1991769.69|09/12/2016||60|CHECK|1|ITEM|15400||||||||||||||||||||09/12/2016|||||||8016007485|19|8016008081|2|||R|08/12/2016
DTN|FXTH_3W_20161209_0300|FXTH|STANDARD|184906|DTAC-N|8030836743|30/11/2016|DTACN-IN|THB|1991769.69|09/12/2016||60|CHECK|1|ITEM|1750||||||||||||||||||||09/12/2016|||||||8016007485|3|8016008081|3|||R|08/12/2016
DTN|FXTH_3W_20161209_0300|FXTH|STANDARD|184906|DTAC-N|8030836743|30/11/2016|DTACN-IN|THB|1991769.69|09/12/2016||60|CHECK|1|ITEM|5000||||||||||||||||||||09/12/2016|||||||8016007485|4|8016008081|4|||R|08/12/2016
DTN|FXTH_3W_20161209_0300|FXTH|STANDARD|184906|DTAC-N|8030836743|30/11/2016|DTACN-IN|THB|1991769.69|09/12/2016||60|CHECK|1|ITEM|3000||||||||||||||||||||09/12/2016|||||||8016007485|5|8016008081|5|||R|08/12/2016
DTN|FXTH_3W_20161209_0300|FXTH|STANDARD|184906|DTAC-N|8030836743|30/11/2016|DTACN-IN|THB|1991769.69|09/12/2016||60|CHECK|1|ITEM|944||||||||||||||||||||09/12/2016|||||||8016007485|6|8016008081|6|||R|08/12/2016
DTN|FXTH_3W_20161209_0300|FXTH|STANDARD|184906|DTAC-N|8030836743|30/11/2016|DTACN-IN|THB|1991769.69|09/12/2016||60|CHECK|1|ITEM|425||||||||||||||||||||09/12/2016|||||||8016007485|7|8016008081|7|||R|08/12/2016
DTN|FXTH_3W_20161209_0300|FXTH|STANDARD|184906|DTAC-N|8030836743|30/11/2016|DTACN-IN|THB|1991769.69|09/12/2016||60|CHECK|1|ITEM|800||||||||||||||||||||09/12/2016|||||||8016007485|8|8016008081|8|||R|08/12/2016
DTN|FXTH_3W_20161209_0300|FXTH|STANDARD|184906|DTAC-N|8030836743|30/11/2016|DTACN-IN|THB|1991769.69|09/12/2016||60|CHECK|1|ITEM|4500||||||||||||||||||||09/12/2016|||||||8016007485|9|8016008081|9|||R|08/12/2016
DTN|FXTH_3W_20161209_0300|FXTH|STANDARD|184906|DTAC-N|8030836743|30/11/2016|DTACN-IN|THB|1991769.69|09/12/2016||60|CHECK|1|ITEM|133200||||||||||||||||||||09/12/2016|||||||8016007485|10|8016008081|10|||R|08/12/2016
DTN|FXTH_3W_20161209_0300|FXTH|STANDARD|184906|DTAC-N|8030836743|30/11/2016|DTACN-IN|THB|1991769.69|09/12/2016||60|CHECK|1|ITEM|46750||||||||||||||||||||09/12/2016|||||||8016007485|11|8016008081|11|||R|08/12/2016
DTN|FXTH_3W_20161209_0300|FXTH|STANDARD|184906|DTAC-N|8030836743|30/11/2016|DTACN-IN|THB|1991769.69|09/12/2016||60|CHECK|1|ITEM|5750||||||||||||||||||||09/12/2016|||||||8016007485|12|8016008081|12|||R|08/12/2016
DTN|FXTH_3W_20161209_0300|FXTH|STANDARD|184906|DTAC-N|8030836743|30/11/2016|DTACN-IN|THB|1991769.69|09/12/2016||60|CHECK|1|ITEM|42000||||||||||||||||||||09/12/2016|||||||8016007485|13|8016008081|13|||R|08/12/2016
DTN|FXTH_3W_20161209_0300|FXTH|STANDARD|184906|DTAC-N|8030836743|30/11/2016|DTACN-IN|THB|1991769.69|09/12/2016||60|CHECK|1|ITEM|70110||||||||||||||||||||09/12/2016|||||||8016007485|14|8016008081|14|||R|08/12/2016
DTN|FXTH_3W_20161209_0300|FXTH|STANDARD|184906|DTAC-N|8030836743|30/11/2016|DTACN-IN|THB|1991769.69|09/12/2016||60|CHECK|1|ITEM|4000||||||||||||||||||||09/12/2016|||||||8016007485|15|8016008081|15|||R|08/12/2016
DTN|FXTH_3W_20161209_0300|FXTH|STANDARD|184906|DTAC-N|8030836743|30/11/2016|DTACN-IN|THB|1991769.69|09/12/2016||60|CHECK|1|ITEM|12500||||||||||||||||||||09/12/2016|||||||8016007485|16|8016008081|16|||R|08/12/2016
DTN|FXTH_3W_20161209_0300|FXTH|STANDARD|184906|DTAC-N|8030836743|30/11/2016|DTACN-IN|THB|1991769.69|09/12/2016||60|CHECK|1|ITEM|710||||||||||||||||||||09/12/2016|||||||8016007485|17|8016008081|17|||R|08/12/2016
DTN|FXTH_3W_20161209_0300|FXTH|STANDARD|184906|DTAC-N|8030836743|30/11/2016|DTACN-IN|THB|1991769.69|09/12/2016||60|CHECK|1|ITEM|9000||||||||||||||||||||09/12/2016|||||||8016007485|18|8016008081|18|||R|08/12/2016
DTN|FXTH_3W_20161209_0300|FXTH|STANDARD|184906|DTAC-N|8030836743|30/11/2016|DTACN-IN|THB|1991769.69|09/12/2016||60|CHECK|1|ITEM|238950||||||||||||||||||||09/12/2016|||||||8016007485|2|8016008081|19|||R|08/12/2016
DTAC|FXTH_3W_20161209_0300|FXTH|STANDARD|193908|HO|100668009|22/11/2016|IN10|THB|631086|09/12/2016||30|CHECK|1|ITEM|589800||||||||||||||||||||09/12/2016|||||||991016018079|1|20160002634|1|||R|08/12/2016
DTN|FXTH_3W_20161209_0300|FXTH|STANDARD|184906|DTAC-N|8030836740|30/11/2016|DTACN-IN|THB|674795.5|09/12/2016||60|CHECK|1|ITEM|6090||||||||||||||||||||09/12/2016|||||||8016008328|1|8016008082|1|||R|08/12/2016
DTN|FXTH_3W_20161209_0300|FXTH|STANDARD|184906|DTAC-N|8030836740|30/11/2016|DTACN-IN|THB|674795.5|09/12/2016||60|CHECK|1|ITEM|3800||||||||||||||||||||09/12/2016|||||||8016008328|2|8016008082|2|||R|08/12/2016
DTN|FXTH_3W_20161209_0300|FXTH|STANDARD|184906|DTAC-N|8030836740|30/11/2016|DTACN-IN|THB|674795.5|09/12/2016||60|CHECK|1|ITEM|435120||||||||||||||||||||09/12/2016|||||||8016008328|3|8016008082|3|||R|08/12/2016
DTN|FXTH_3W_20161209_0300|FXTH|STANDARD|184906|DTAC-N|8030836740|30/11/2016|DTACN-IN|THB|674795.5|09/12/2016||60|CHECK|1|ITEM|102000||||||||||||||||||||09/12/2016|||||||8016008328|4|8016008082|4|||R|08/12/2016
DTN|FXTH_3W_20161209_0300|FXTH|STANDARD|184906|DTAC-N|8030836740|30/11/2016|DTACN-IN|THB|674795.5|09/12/2016||60|CHECK|1|ITEM|16800||||||||||||||||||||09/12/2016|||||||8016008328|5|8016008082|5|||R|08/12/2016
DTN|FXTH_3W_20161209_0300|FXTH|STANDARD|184906|DTAC-N|8030836740|30/11/2016|DTACN-IN|THB|674795.5|09/12/2016||60|CHECK|1|ITEM|21600||||||||||||||||||||09/12/2016|||||||8016008328|13|8016008082|6|||R|08/12/2016
DTN|FXTH_3W_20161209_0300|FXTH|STANDARD|184906|DTAC-N|8030836740|30/11/2016|DTACN-IN|THB|674795.5|09/12/2016||60|CHECK|1|ITEM|45240||||||||||||||||||||09/12/2016|||||||8016008328|8|8016008082|7|||R|08/12/2016
DTAC|FXTH_3W_20161209_0300|FXTH|STANDARD|193908|HO|100668375|23/11/2016|IN10|THB|241285|09/12/2016||30|CHECK|1|ITEM|225500||||||||||||||||||||09/12/2016|||||||991016018771|1|20160002637|1|||R|08/12/2016
DTN|FXTH_3W_20161209_0300|FXTH|STANDARD|184906|DTAC-N|8030836738|30/11/2016|DTACN-IN|THB|120974.2|09/12/2016||60|CHECK|1|ITEM|102060||||||||||||||||||||09/12/2016|||||||8016007104|2|8016008083|1|||R|08/12/2016
DTN|FXTH_3W_20161209_0300|FXTH|STANDARD|184906|DTAC-N|8030836738|30/11/2016|DTACN-IN|THB|120974.2|09/12/2016||60|CHECK|1|ITEM|11000||||||||||||||||||||09/12/2016|||||||8016007104|1|8016008083|2|||R|08/12/2016
DTAC|FXTH_3W_20161209_0300|FXTH|STANDARD|193908|HO|100668010|22/11/2016|IN10|THB|2208801|09/12/2016||30|CHECK|1|ITEM|2064300||||||||||||||||||||09/12/2016|||||||991016018078|1|20160002635|1|||R|08/12/2016
DTN|FXTH_3W_20161209_0300|FXTH|STANDARD|184906|DTAC-N|8030836739|30/11/2016|DTACN-IN|THB|3136962.87|09/12/2016||60|CHECK|1|ITEM|2931741||||||||||||||||||||09/12/2016|||||||8016007069|1|8016008084|1|||R|08/12/2016
DTAC|FXTH_3W_20161209_0300|FXTH|STANDARD|193908|HO|100668011|22/11/2016|IN10|THB|78752|09/12/2016||30|CHECK|1|ITEM|73600||||||||||||||||||||09/12/2016|||||||991016017099|1|20160002636|1|||R|08/12/2016
DTAC|FXTH_3W_20161209_0300|FXTH|STANDARD|184906|HO|8030836406|21/11/2016|IN10|THB|15194|09/12/2016||60|CHECK|1|ITEM|5500||||||||||||||||||||09/12/2016|||||||991016019252|1|20160026369|1|||R|08/12/2016
DTAC|FXTH_3W_20161209_0300|FXTH|STANDARD|184906|HO|8030836406|21/11/2016|IN10|THB|15194|09/12/2016||60|CHECK|1|ITEM|2100||||||||||||||||||||09/12/2016|||||||991016019252|2|20160026369|2|||R|08/12/2016
DTAC|FXTH_3W_20161209_0300|FXTH|STANDARD|184906|HO|8030836406|21/11/2016|IN10|THB|15194|09/12/2016||60|CHECK|1|ITEM|2400||||||||||||||||||||09/12/2016|||||||991016019252|5|20160026369|3|||R|08/12/2016
DTAC|FXTH_3W_20161209_0300|FXTH|STANDARD|184906|HO|8030836406|21/11/2016|IN10|THB|15194|09/12/2016||60|CHECK|1|ITEM|2000||||||||||||||||||||09/12/2016|||||||991016019252|4|20160026369|4|||R|08/12/2016
DTAC|FXTH_3W_20161209_0300|FXTH|STANDARD|184906|HO|8030836406|21/11/2016|IN10|THB|15194|09/12/2016||60|CHECK|1|ITEM|2200||||||||||||||||||||09/12/2016|||||||991016019252|3|20160026369|5|||R|08/12/2016
DTAC|FXTH_3W_20161209_0300|FXTH|STANDARD|193908|HO|100667366|21/11/2016|IN10|THB|286760|09/12/2016||30|CHECK|1|ITEM|268000||||||||||||||||||||09/12/2016|||||||991016017818|1|20160002642|1|||R|08/12/2016
DTAC|FXTH_3W_20161209_0300|FXTH|STANDARD|184906|HO|8030836405|21/11/2016|IN10|THB|19848.5|09/12/2016||60|CHECK|1|ITEM|4000||||||||||||||||||||09/12/2016|||||||991016019637|1|20160026370|1|||R|08/12/2016
DTAC|FXTH_3W_20161209_0300|FXTH|STANDARD|184906|HO|8030836405|21/11/2016|IN10|THB|19848.5|09/12/2016||60|CHECK|1|ITEM|6000||||||||||||||||||||09/12/2016|||||||991016019637|4|20160026370|2|||R|08/12/2016
DTAC|FXTH_3W_20161209_0300|FXTH|STANDARD|184906|HO|8030836405|21/11/2016|IN10|THB|19848.5|09/12/2016||60|CHECK|1|ITEM|3800||||||||||||||||||||09/12/2016|||||||991016019637|3|20160026370|3|||R|08/12/2016
DTAC|FXTH_3W_20161209_0300|FXTH|STANDARD|184906|HO|8030836405|21/11/2016|IN10|THB|19848.5|09/12/2016||60|CHECK|1|ITEM|4750||||||||||||||||||||09/12/2016|||||||991016019637|2|20160026370|4|||R|08/12/2016
DTAC|FXTH_3W_20161209_0300|FXTH|STANDARD|242471|HO|INV2016-1202|08/12/2016|IN10|THB|81416.55|09/12/2016||60|CHECK|1|ITEM|550||||||||||||||||||||09/12/2016|||||||991016023944|4|20160027580|1|||R|08/12/2016
DTAC|FXTH_3W_20161209_0300|FXTH|STANDARD|242471|HO|INV2016-1202|08/12/2016|IN10|THB|81416.55|09/12/2016||60|CHECK|1|ITEM|14400||||||||||||||||||||09/12/2016|||||||991016023944|7|20160027580|2|||R|08/12/2016
DTAC|FXTH_3W_20161209_0300|FXTH|STANDARD|242471|HO|INV2016-1202|08/12/2016|IN10|THB|81416.55|09/12/2016||60|CHECK|1|ITEM|21700||||||||||||||||||||09/12/2016|||||||991016023944|6|20160027580|3|||R|08/12/2016
DTAC|FXTH_3W_20161209_0300|FXTH|STANDARD|242471|HO|INV2016-1202|08/12/2016|IN10|THB|81416.55|09/12/2016||60|CHECK|1|ITEM|12000||||||||||||||||||||09/12/2016|||||||991016023944|8|20160027580|4|||R|08/12/2016
DTAC|FXTH_3W_20161209_0300|FXTH|STANDARD|242471|HO|INV2016-1202|08/12/2016|IN10|THB|81416.55|09/12/2016||60|CHECK|1|ITEM|11340.23||||||||||||||||||||09/12/2016|||||||991016023944|5|20160027580|5|||R|08/12/2016
DTAC|FXTH_3W_20161209_0300|FXTH|STANDARD|242471|HO|INV2016-1202|08/12/2016|IN10|THB|81416.55|09/12/2016||60|CHECK|1|ITEM|500||||||||||||||||||||09/12/2016|||||||991016023944|3|20160027580|6|||R|08/12/2016
DTAC|FXTH_3W_20161209_0300|FXTH|STANDARD|242471|HO|INV2016-1202|08/12/2016|IN10|THB|81416.55|09/12/2016||60|CHECK|1|ITEM|600||||||||||||||||||||09/12/2016|||||||991016023944|2|20160027580|7|||R|08/12/2016
DTAC|FXTH_3W_20161209_0300|FXTH|STANDARD|242471|HO|INV2016-1202|08/12/2016|IN10|THB|81416.55|09/12/2016||60|CHECK|1|ITEM|15000||||||||||||||||||||09/12/2016|||||||991016023944|1|20160027580|8|||R|08/12/2016
DTAC|FXTH_3W_20161209_0300|FXTH|STANDARD|193908|HO|100668211|22/11/2016|IN10|THB|129042|09/12/2016||30|CHECK|1|ITEM|120600||||||||||||||||||||09/12/2016|||||||991016021204|1|20160002627|1|||R|08/12/2016
DTAC|FXTH_3W_20161209_0300|FXTH|STANDARD|242471|HO|INV2016-1201|08/12/2016|IN10|THB|210824.24|09/12/2016||60|CHECK|1|ITEM|6000||||||||||||||||||||09/12/2016|||||||991016023947|1|20160027577|1|||R|08/12/2016
DTAC|FXTH_3W_20161209_0300|FXTH|STANDARD|242471|HO|INV2016-1201|08/12/2016|IN10|THB|210824.24|09/12/2016||60|CHECK|1|ITEM|5940||||||||||||||||||||09/12/2016|||||||991016023947|2|20160027577|2|||R|08/12/2016
DTAC|FXTH_3W_20161209_0300|FXTH|STANDARD|242471|HO|INV2016-1201|08/12/2016|IN10|THB|210824.24|09/12/2016||60|CHECK|1|ITEM|58800||||||||||||||||||||09/12/2016|||||||991016023947|3|20160027577|3|||R|08/12/2016
DTAC|FXTH_3W_20161209_0300|FXTH|STANDARD|242471|HO|INV2016-1201|08/12/2016|IN10|THB|210824.24|09/12/2016||60|CHECK|1|ITEM|60000||||||||||||||||||||09/12/2016|||||||991016023947|4|20160027577|4|||R|08/12/2016
DTAC|FXTH_3W_20161209_0300|FXTH|STANDARD|242471|HO|INV2016-1201|08/12/2016|IN10|THB|210824.24|09/12/2016||60|CHECK|1|ITEM|1000||||||||||||||||||||09/12/2016|||||||991016023947|10|20160027577|5|||R|08/12/2016
DTAC|FXTH_3W_20161209_0300|FXTH|STANDARD|242471|HO|INV2016-1201|08/12/2016|IN10|THB|210824.24|09/12/2016||60|CHECK|1|ITEM|1800||||||||||||||||||||09/12/2016|||||||991016023947|6|20160027577|6|||R|08/12/2016
DTAC|FXTH_3W_20161209_0300|FXTH|STANDARD|242471|HO|INV2016-1201|08/12/2016|IN10|THB|210824.24|09/12/2016||60|CHECK|1|ITEM|25080||||||||||||||||||||09/12/2016|||||||991016023947|7|20160027577|7|||R|08/12/2016
DTAC|FXTH_3W_20161209_0300|FXTH|STANDARD|242471|HO|INV2016-1201|08/12/2016|IN10|THB|210824.24|09/12/2016||60|CHECK|1|ITEM|14212||||||||||||||||||||09/12/2016|||||||991016023947|8|20160027577|8|||R|08/12/2016
DTAC|FXTH_3W_20161209_0300|FXTH|STANDARD|242471|HO|INV2016-1201|08/12/2016|IN10|THB|210824.24|09/12/2016||60|CHECK|1|ITEM|20000||||||||||||||||||||09/12/2016|||||||991016023947|9|20160027577|9|||R|08/12/2016
DTAC|FXTH_3W_20161209_0300|FXTH|STANDARD|242471|HO|INV2016-1201|08/12/2016|IN10|THB|210824.24|09/12/2016||60|CHECK|1|ITEM|4200||||||||||||||||||||09/12/2016|||||||991016023947|5|20160027577|10|||R|08/12/2016
DTAC|FXTH_3W_20161209_0300|FXTH|STANDARD|193908|HO|100668212|22/11/2016|IN10|THB|3062340|09/12/2016||30|CHECK|1|ITEM|2862000||||||||||||||||||||09/12/2016|||||||991016021151|1|20160002628|1|||R|08/12/2016
DTAC|FXTH_3W_20161209_0300|FXTH|STANDARD|193908|HO|100667363|21/11/2016|IN10|THB|573520|09/12/2016||30|CHECK|1|ITEM|536000||||||||||||||||||||09/12/2016|||||||991016017946|1|20160002617|1|||R|08/12/2016
DTAC|FXTH_3W_20161209_0300|FXTH|STANDARD|184906|HO|8030836407|21/11/2016|IN10|THB|10218.5|09/12/2016||60|CHECK|1|ITEM|2000||||||||||||||||||||09/12/2016|||||||991016019243|1|20160026371|1|||R|08/12/2016
DTAC|FXTH_3W_20161209_0300|FXTH|STANDARD|184906|HO|8030836407|21/11/2016|IN10|THB|10218.5|09/12/2016||60|CHECK|1|ITEM|4750||||||||||||||||||||09/12/2016|||||||991016019243|3|20160026371|2|||R|08/12/2016
DTAC|FXTH_3W_20161209_0300|FXTH|STANDARD|184906|HO|8030836407|21/11/2016|IN10|THB|10218.5|09/12/2016||60|CHECK|1|ITEM|2800||||||||||||||||||||09/12/2016|||||||991016019243|2|20160026371|3|||R|08/12/2016
DTAC|FXTH_3W_20161209_0300|FXTH|STANDARD|184906|HO|8030836440|22/11/2016|IN10|THB|27800.74|09/12/2016||60|CHECK|1|ITEM|1890||||||||||||||||||||09/12/2016|||||||991016020686|1|20160026375|1|||R|08/12/2016
DTAC|FXTH_3W_20161209_0300|FXTH|STANDARD|184906|HO|8030836440|22/11/2016|IN10|THB|27800.74|09/12/2016||60|CHECK|1|ITEM|14040||||||||||||||||||||09/12/2016|||||||991016020686|2|20160026375|2|||R|08/12/2016
DTAC|FXTH_3W_20161209_0300|FXTH|STANDARD|184906|HO|8030836440|22/11/2016|IN10|THB|27800.74|09/12/2016||60|CHECK|1|ITEM|6372||||||||||||||||||||09/12/2016|||||||991016020686|5|20160026375|3|||R|08/12/2016
DTAC|FXTH_3W_20161209_0300|FXTH|STANDARD|184906|HO|8030836440|22/11/2016|IN10|THB|27800.74|09/12/2016||60|CHECK|1|ITEM|2200||||||||||||||||||||09/12/2016|||||||991016020686|4|20160026375|4|||R|08/12/2016
DTAC|FXTH_3W_20161209_0300|FXTH|STANDARD|184906|HO|8030836440|22/11/2016|IN10|THB|27800.74|09/12/2016||60|CHECK|1|ITEM|1480||||||||||||||||||||09/12/2016|||||||991016020686|3|20160026375|5|||R|08/12/2016
DTAC|FXTH_3W_20161209_0300|FXTH|STANDARD|184906|HO|8030836439|22/11/2016|IN10|THB|48032.3|09/12/2016||60|CHECK|1|ITEM|1260||||||||||||||||||||09/12/2016|||||||991016020688|1|20160026376|1|||R|08/12/2016
DTAC|FXTH_3W_20161209_0300|FXTH|STANDARD|184906|HO|8030836439|22/11/2016|IN10|THB|48032.3|09/12/2016||60|CHECK|1|ITEM|1750||||||||||||||||||||09/12/2016|||||||991016020688|2|20160026376|2|||R|08/12/2016
DTAC|FXTH_3W_20161209_0300|FXTH|STANDARD|184906|HO|8030836439|22/11/2016|IN10|THB|48032.3|09/12/2016||60|CHECK|1|ITEM|15600||||||||||||||||||||09/12/2016|||||||991016020688|3|20160026376|3|||R|08/12/2016
DTAC|FXTH_3W_20161209_0300|FXTH|STANDARD|184906|HO|8030836439|22/11/2016|IN10|THB|48032.3|09/12/2016||60|CHECK|1|ITEM|5900||||||||||||||||||||09/12/2016|||||||991016020688|8|20160026376|4|||R|08/12/2016
DTAC|FXTH_3W_20161209_0300|FXTH|STANDARD|184906|HO|8030836439|22/11/2016|IN10|THB|48032.3|09/12/2016||60|CHECK|1|ITEM|4250||||||||||||||||||||09/12/2016|||||||991016020688|5|20160026376|5|||R|08/12/2016
DTAC|FXTH_3W_20161209_0300|FXTH|STANDARD|184906|HO|8030836439|22/11/2016|IN10|THB|48032.3|09/12/2016||60|CHECK|1|ITEM|5750||||||||||||||||||||09/12/2016|||||||991016020688|6|20160026376|6|||R|08/12/2016
DTAC|FXTH_3W_20161209_0300|FXTH|STANDARD|184906|HO|8030836439|22/11/2016|IN10|THB|48032.3|09/12/2016||60|CHECK|1|ITEM|1500||||||||||||||||||||09/12/2016|||||||991016020688|7|20160026376|7|||R|08/12/2016
DTAC|FXTH_3W_20161209_0300|FXTH|STANDARD|184906|HO|8030836439|22/11/2016|IN10|THB|48032.3|09/12/2016||60|CHECK|1|ITEM|8880||||||||||||||||||||09/12/2016|||||||991016020688|4|20160026376|8|||R|08/12/2016
DTAC|FXTH_3W_20161209_0300|FXTH|STANDARD|193908|HO|100667370|21/11/2016|IN10|THB|3062340|09/12/2016||30|CHECK|1|ITEM|2862000||||||||||||||||||||09/12/2016|||||||991016021031|1|20160002624|1|||R|08/12/2016
DTN|FXTH_3W_20161209_0300|FXTH|STANDARD|184906|DTAC-N|8030836765|30/11/2016|DTACN-IN|THB|3766400|09/12/2016||60|CHECK|1|ITEM|2800000||||||||||||||||||||09/12/2016|||||||8016007904|1|8016008050|1|||R|08/12/2016
DTN|FXTH_3W_20161209_0300|FXTH|STANDARD|184906|DTAC-N|8030836765|30/11/2016|DTACN-IN|THB|3766400|09/12/2016||60|CHECK|1|ITEM|720000||||||||||||||||||||09/12/2016|||||||8016007904|2|8016008050|2|||R|08/12/2016
DTAC|FXTH_3W_20161209_0300|FXTH|STANDARD|193908|HO|100666899|21/11/2016|IN10|THB|208650|09/12/2016||30|CHECK|1|ITEM|195000||||||||||||||||||||09/12/2016|||||||991016021203|1|20160002625|1|||R|08/12/2016
DTAC|FXTH_3W_20161209_0300|FXTH|STANDARD|181923|HO|59/11/D003|30/11/2016|IN10|THB|699863.64|09/12/2016||30|CHECK|1|ITEM|432405||||||||||||||||||||09/12/2016|||||||991016022869|1|20160027289|1|||R|08/12/2016
DTAC|FXTH_3W_20161209_0300|FXTH|STANDARD|181923|HO|59/11/D003|30/11/2016|IN10|THB|699863.64|09/12/2016||30|CHECK|1|ITEM|221673.17||||||||||||||||||||09/12/2016|||||||991016022869|2|20160027289|2|||R|08/12/2016
DTAC|FXTH_3W_20161209_0300|FXTH|STANDARD|193908|HO|100669944|25/11/2016|IN10|THB|860280|09/12/2016||30|CHECK|1|ITEM|804000||||||||||||||||||||09/12/2016|||||||991016017818|1|20160002675|1|||R|08/12/2016
DTAC|FXTH_3W_20161209_0300|FXTH|STANDARD|193908|HO|100667360|21/11/2016|IN10|THB|3886668|09/12/2016||30|CHECK|1|ITEM|3632400||||||||||||||||||||09/12/2016|||||||991016018033|1|20160002614|1|||R|08/12/2016
DTAC|FXTH_3W_20161209_0300|FXTH|STANDARD|184906|HO|1911600083|28/12/2016|IN10|THB|1141048|09/12/2016||60|CHECK|1|ITEM|1066400||||||||||||||||||||09/12/2016|||||||991016018282|1|20160027012|1|||R|08/12/2016
DTAC|FXTH_3W_20161209_0300|FXTH|STANDARD|193908|HO|100669305|24/11/2016|IN10|THB|647778|09/12/2016||30|CHECK|1|ITEM|605400||||||||||||||||||||09/12/2016|||||||991016017947|1|20160002674|1|||R|08/12/2016
DTAC|FXTH_3W_20161209_0300|FXTH|STANDARD|184906|HO|8030836540|28/11/2016|IN10|THB|140523.1|09/12/2016||60|CHECK|1|ITEM|89700||||||||||||||||||||09/12/2016|||||||991016019093|1|20160027024|1|||R|08/12/2016
DTAC|FXTH_3W_20161209_0300|FXTH|STANDARD|184906|HO|8030836540|28/11/2016|IN10|THB|140523.1|09/12/2016||60|CHECK|1|ITEM|8880||||||||||||||||||||09/12/2016|||||||991016019093|2|20160027024|2|||R|08/12/2016
DTAC|FXTH_3W_20161209_0300|FXTH|STANDARD|184906|HO|8030836540|28/11/2016|IN10|THB|140523.1|09/12/2016||60|CHECK|1|ITEM|5750||||||||||||||||||||09/12/2016|||||||991016019093|3|20160027024|3|||R|08/12/2016
DTAC|FXTH_3W_20161209_0300|FXTH|STANDARD|184906|HO|8030836540|28/11/2016|IN10|THB|140523.1|09/12/2016||60|CHECK|1|ITEM|1500||||||||||||||||||||09/12/2016|||||||991016019093|7|20160027024|4|||R|08/12/2016
DTAC|FXTH_3W_20161209_0300|FXTH|STANDARD|184906|HO|8030836540|28/11/2016|IN10|THB|140523.1|09/12/2016||60|CHECK|1|ITEM|18800||||||||||||||||||||09/12/2016|||||||991016019093|5|20160027024|5|||R|08/12/2016
DTAC|FXTH_3W_20161209_0300|FXTH|STANDARD|184906|HO|8030836540|28/11/2016|IN10|THB|140523.1|09/12/2016||60|CHECK|1|ITEM|2500||||||||||||||||||||09/12/2016|||||||991016019093|6|20160027024|6|||R|08/12/2016
DTAC|FXTH_3W_20161209_0300|FXTH|STANDARD|184906|HO|8030836540|28/11/2016|IN10|THB|140523.1|09/12/2016||60|CHECK|1|ITEM|4200||||||||||||||||||||09/12/2016|||||||991016019093|4|20160027024|7|||R|08/12/2016
DTAC|FXTH_3W_20161209_0300|FXTH|STANDARD|193908|HO|100668214|22/11/2016|IN10|THB|4858335|09/12/2016||30|CHECK|1|ITEM|4540500||||||||||||||||||||09/12/2016|||||||991016017949|1|20160002630|1|||R|08/12/2016
DTAC|FXTH_3W_20161209_0300|FXTH|STANDARD|193908|HO|100667364|21/11/2016|IN10|THB|1447710|09/12/2016||30|CHECK|1|ITEM|1353000||||||||||||||||||||09/12/2016|||||||991016019717|1|20160002619|1|||R|08/12/2016
DTAC|FXTH_3W_20161209_0300|FXTH|STANDARD|193908|HO|100667365|21/11/2016|IN10|THB|241285|09/12/2016||30|CHECK|1|ITEM|225500||||||||||||||||||||09/12/2016|||||||991015015012|1|20160002620|1|||R|08/12/2016
DTAC|FXTH_3W_20161209_0300|FXTH|STANDARD|193908|HO|100667369|21/11/2016|IN10|THB|2007320|09/12/2016||30|CHECK|1|ITEM|1876000||||||||||||||||||||09/12/2016|||||||991016017944|1|20160002623|1|||R|08/12/2016
DTN|FXTH_3W_20161209_0300|FXTH|STANDARD|184906|DTAC-N|8030836735|30/11/2016|DTACN-IN|THB|1342633.86|09/12/2016||60|CHECK|1|ITEM|1254798||||||||||||||||||||09/12/2016|||||||8016007068|1|8016008065|1|||R|08/12/2016
DTAC|FXTH_3W_20161209_0300|FXTH|STANDARD|193908|HO|100669942|25/11/2016|IN10|THB|1083054|09/12/2016||30|CHECK|1|ITEM|1012200||||||||||||||||||||09/12/2016|||||||991016018073|1|20160002669|1|||R|08/12/2016
DTN|FXTH_3W_20161209_0300|FXTH|STANDARD|184906|DTAC-N|8030836736|30/11/2016|DTACN-IN|THB|59259.81|09/12/2016||60|CHECK|1|ITEM|55383||||||||||||||||||||09/12/2016|||||||8016006814|1|8016008066|1|||R|08/12/2016
DTAC|FXTH_3W_20161209_0300|FXTH|STANDARD|193908|HO|100670164|26/11/2016|IN10|THB|1295556|09/12/2016||30|CHECK|1|ITEM|1210800||||||||||||||||||||09/12/2016|||||||991016018034|1|20160002666|1|||R|08/12/2016
DTAC|FXTH_3W_20161209_0300|FXTH|STANDARD|184906|HO|8030836751|30/11/2016|IN10|THB|19260|09/12/2016||60|CHECK|1|ITEM|5500||||||||||||||||||||09/12/2016|||||||991016022300|5|20160027322|1|||R|08/12/2016
DTAC|FXTH_3W_20161209_0300|FXTH|STANDARD|184906|HO|8030836751|30/11/2016|IN10|THB|19260|09/12/2016||60|CHECK|1|ITEM|12500||||||||||||||||||||09/12/2016|||||||991016022300|3|20160027322|2|||R|08/12/2016
DTAC|FXTH_3W_20161209_0300|FXTH|STANDARD|193908|HO|100670163|26/11/2016|IN10|THB|2867600|09/12/2016||30|CHECK|1|ITEM|2680000||||||||||||||||||||09/12/2016|||||||991016017945|1|20160002667|1|||R|08/12/2016
DTN|FXTH_3W_20161209_0300|FXTH|STANDARD|184906|DTAC-N|8030836486|24/11/2016|DTACN-IN|THB|9630|09/12/2016||60|CHECK|1|ITEM|9000||||||||||||||||||||09/12/2016|||||||8016007405|1|8016008069|1|||R|08/12/2016
DTAC|FXTH_3W_20161209_0300|FXTH|STANDARD|193908|HO|100669941|25/11/2016|IN10|THB|1805090|09/12/2016||30|CHECK|1|ITEM|1687000||||||||||||||||||||09/12/2016|||||||991016018073|1|20160002668|1|||R|08/12/2016
DTAC|FXTH_3W_20161209_0300|FXTH|STANDARD|193908|HO|100669943|25/11/2016|IN10|THB|3249162|09/12/2016||30|CHECK|1|ITEM|3036600||||||||||||||||||||09/12/2016|||||||991016018076|1|20160002670|1|||R|08/12/2016
DTAC|FXTH_3W_20161209_0300|FXTH|STANDARD|193908|HO|100670426|28/11/2016|IN10|THB|1948898|09/12/2016||30|CHECK|1|ITEM|1821400||||||||||||||||||||09/12/2016|||||||991016020101|1|20160002671|1|||R|08/12/2016
DTAC|FXTH_3W_20161209_0300|FXTH|STANDARD|263587|HO|2016192033|24/11/2016|IN10|THB|65912|09/12/2016||60|CHECK|1|ITEM|61600||||||||||||||||||||09/12/2016|||||||991015021443|1|20160027100|1|||R|08/12/2016
DTAC|FXTH_3W_20161209_0300|FXTH|STANDARD|193908|HO|100669728|25/11/2016|IN10|THB|3136705|09/12/2016||30|CHECK|1|ITEM|2931500||||||||||||||||||||09/12/2016|||||||991016018772|1|20160002672|1|||R|08/12/2016
DTAC|FXTH_3W_20161209_0300|FXTH|STANDARD|153108|HO|00120296|21/10/2016|IN10|THB|303.75|09/12/2016||30|CHECK|1|ITEM|303.75||||||||||||||||||||09/12/2016|||||||991016023584|1|20160027443|1|||R|08/12/2016
DTAC|FXTH_3W_20161209_0300|FXTH|STANDARD|153108|HO|00126745|21/11/2016|IN10|THB|405|09/12/2016||30|CHECK|1|ITEM|405||||||||||||||||||||09/12/2016|||||||991016023585|1|20160027442|1|||R|08/12/2016
DTAC|FXTH_3W_20161209_0300|FXTH|STANDARD|193908|HO|100669307|24/11/2016|IN10|THB|5506113|09/12/2016||30|CHECK|1|ITEM|5145900||||||||||||||||||||09/12/2016|||||||991016018035|1|20160002665|1|||R|08/12/2016
DTAC|FXTH_3W_20161209_0300|FXTH|STANDARD|153108|HO|00123371|02/11/2016|IN10|THB|507.75|09/12/2016||30|CHECK|1|ITEM|507.75||||||||||||||||||||09/12/2016|||||||991016021183|1|20160026521|1|||R|08/12/2016
DTAC|FXTH_3W_20161209_0300|FXTH|STANDARD|193908|HO|100669443|24/11/2016|IN10|THB|1083054|09/12/2016||30|CHECK|1|ITEM|1012200||||||||||||||||||||09/12/2016|||||||991016018073|1|20160002653|1|||R|08/12/2016
DTAC|FXTH_3W_20161209_0300|FXTH|STANDARD|153108|HO|00129941|02/12/2016|IN10|THB|7851.4|09/12/2016||30|CHECK|1|ITEM|7851.4||||||||||||||||||||09/12/2016|||||||991016023471|1|20160027123|1|||R|08/12/2016
DTAC|FXTH_3W_20161209_0300|FXTH|STANDARD|193908|HO|100669444|24/11/2016|IN10|THB|323889|09/12/2016||30|CHECK|1|ITEM|302700||||||||||||||||||||09/12/2016|||||||991016017949|1|20160002654|1|||R|08/12/2016
DTAC|FXTH_3W_20161209_0300|FXTH|STANDARD|153108|HO|00123380|02/11/2016|IN10|THB|28452.45|09/12/2016||30|CHECK|1|ITEM|28452.45||||||||||||||||||||09/12/2016|||||||991016021221|1|20160027153|1|||R|08/12/2016
DTAC|FXTH_3W_20161209_0300|FXTH|STANDARD|193908|HO|100669303|24/11/2016|IN10|THB|2294080|09/12/2016||30|CHECK|1|ITEM|2144000||||||||||||||||||||09/12/2016|||||||991016017944|1|20160002655|1|||R|08/12/2016
DTAC|FXTH_3W_20161209_0300|FXTH|STANDARD|193908|HO|100667361|21/11/2016|IN10|THB|87205|09/12/2016||30|CHECK|1|ITEM|81500||||||||||||||||||||09/12/2016|||||||991016020267|1|20160002615|1|||R|08/12/2016
DTAC|FXTH_3W_20161209_0300|FXTH|STANDARD|101325|HO|3125021943|15/11/2016|IN10|THB|3638000|09/12/2016||60|CHECK|1|ITEM|3400000||||||||||||||||||||09/12/2016|||||||991016012953|1|20160025440|1|||R|08/12/2016
DTAC|FXTH_3W_20161209_0300|FXTH|STANDARD|193908|HO|100668377|23/11/2016|IN10|THB|3136705|09/12/2016||30|CHECK|1|ITEM|2931500||||||||||||||||||||09/12/2016|||||||991016017810|1|20160002639|1|||R|08/12/2016
DTAC|FXTH_3W_20161209_0300|FXTH|STANDARD|193908|HO|100669442|24/11/2016|IN10|THB|315543|09/12/2016||30|CHECK|1|ITEM|294900||||||||||||||||||||09/12/2016|||||||991016018077|1|20160002663|1|||R|08/12/2016
DTN|FXTH_3W_20161209_0300|FXTH|STANDARD|184906|DTAC-N|8030836737|30/11/2016|DTACN-IN|THB|70352.5|09/12/2016||60|CHECK|1|ITEM|31080||||||||||||||||||||09/12/2016|||||||8016006864|9|8016008067|1|||R|08/12/2016
DTN|FXTH_3W_20161209_0300|FXTH|STANDARD|184906|DTAC-N|8030836737|30/11/2016|DTACN-IN|THB|70352.5|09/12/2016||60|CHECK|1|ITEM|1800||||||||||||||||||||09/12/2016|||||||8016006864|16|8016008067|2|||R|08/12/2016
DTN|FXTH_3W_20161209_0300|FXTH|STANDARD|184906|DTAC-N|8030836737|30/11/2016|DTACN-IN|THB|70352.5|09/12/2016||60|CHECK|1|ITEM|3120||||||||||||||||||||09/12/2016|||||||8016006864|15|8016008067|3|||R|08/12/2016
DTN|FXTH_3W_20161209_0300|FXTH|STANDARD|184906|DTAC-N|8030836737|30/11/2016|DTACN-IN|THB|70352.5|09/12/2016||60|CHECK|1|ITEM|29750||||||||||||||||||||09/12/2016|||||||8016006864|11|8016008067|4|||R|08/12/2016
DTAC|FXTH_3W_20161209_0300|FXTH|STANDARD|193908|HO|100668605|23/11/2016|IN10|THB|323889|09/12/2016||30|CHECK|1|ITEM|302700||||||||||||||||||||09/12/2016|||||||991016017949|1|20160002650|1|||R|08/12/2016
DTAC|FXTH_3W_20161209_0300|FXTH|STANDARD|224011|HO|IV-5912003|01/12/2016|IN10|THB|107000|09/12/2016||60|CHECK|1|ITEM|100000||||||||||||||||||||09/12/2016|||||||991016021736|1|20160027433|1|||R|08/12/2016
DTAC|FXTH_3W_20161209_0300|FXTH|STANDARD|107411|HO|IG1611008|25/11/2016|IN10|THB|1227825|09/12/2016||60|CHECK|1|ITEM|1147500||||||||||||||||||||09/12/2016|||||||991014016823|3|20160026811|1|||R|08/12/2016
DTAC|FXTH_3W_20161209_0300|FXTH|STANDARD|210575|HO|092/2016|01/12/2016|IN10|THB|119840|09/12/2016||60|CHECK|1|ITEM|12000||||||||||||||||||||09/12/2016|||||||991016022179|1|20160027430|1|||R|08/12/2016
DTAC|FXTH_3W_20161209_0300|FXTH|STANDARD|210575|HO|092/2016|01/12/2016|IN10|THB|119840|09/12/2016||60|CHECK|1|ITEM|50000||||||||||||||||||||09/12/2016|||||||991016022179|4|20160027430|2|||R|08/12/2016
DTAC|FXTH_3W_20161209_0300|FXTH|STANDARD|210575|HO|092/2016|01/12/2016|IN10|THB|119840|09/12/2016||60|CHECK|1|ITEM|25000||||||||||||||||||||09/12/2016|||||||991016022179|3|20160027430|3|||R|08/12/2016
DTAC|FXTH_3W_20161209_0300|FXTH|STANDARD|210575|HO|092/2016|01/12/2016|IN10|THB|119840|09/12/2016||60|CHECK|1|ITEM|25000||||||||||||||||||||09/12/2016|||||||991016022179|2|20160027430|4|||R|08/12/2016
DTAC|FXTH_3W_20161209_0300|FXTH|STANDARD|210575|HO|093/2016|01/12/2016|IN10|THB|48150|09/12/2016||60|CHECK|1|ITEM|25000||||||||||||||||||||09/12/2016|||||||991016022668|2|20160027413|1|||R|08/12/2016
DTAC|FXTH_3W_20161209_0300|FXTH|STANDARD|210575|HO|093/2016|01/12/2016|IN10|THB|48150|09/12/2016||60|CHECK|1|ITEM|20000||||||||||||||||||||09/12/2016|||||||991016022668|1|20160027413|2|||R|08/12/2016
DTAC|FXTH_3W_20161209_0300|FXTH|STANDARD|210575|HO|091/2016|01/12/2016|IN10|THB|128400|09/12/2016||60|CHECK|1|ITEM|60000||||||||||||||||||||09/12/2016|||||||991016020760|2|20160027493|1|||R|08/12/2016
DTAC|FXTH_3W_20161209_0300|FXTH|STANDARD|210575|HO|091/2016|01/12/2016|IN10|THB|128400|09/12/2016||60|CHECK|1|ITEM|60000||||||||||||||||||||09/12/2016|||||||991016020760|1|20160027493|2|||R|08/12/2016
DTAC|FXTH_3W_20161209_0300|FXTH|STANDARD|193908|HO|100668604|23/11/2016|IN10|THB|573520|09/12/2016||30|CHECK|1|ITEM|536000||||||||||||||||||||09/12/2016|||||||991016017944|1|20160002649|1|||R|08/12/2016
DTAC|FXTH_3W_20161209_0300|FXTH|STANDARD|193908|HO|100668603|23/11/2016|IN10|THB|3154360|09/12/2016||30|CHECK|1|ITEM|2948000||||||||||||||||||||09/12/2016|||||||991016017945|1|20160002648|1|||R|08/12/2016
DTAC|FXTH_3W_20161209_0300|FXTH|STANDARD|193908|HO|100668602|23/11/2016|IN10|THB|860280|09/12/2016||30|CHECK|1|ITEM|804000||||||||||||||||||||09/12/2016|||||||991016017946|1|20160002647|1|||R|08/12/2016
DTAC|FXTH_3W_20161209_0300|FXTH|STANDARD|193908|HO|100668376|23/11/2016|IN10|THB|241285|09/12/2016||30|CHECK|1|ITEM|225500||||||||||||||||||||09/12/2016|||||||991016018771|1|20160002638|1|||R|08/12/2016
DTAC|FXTH_3W_20161209_0300|FXTH|STANDARD|193908|HO|100669304|24/11/2016|IN10|THB|1444072|09/12/2016||30|CHECK|1|ITEM|1349600||||||||||||||||||||09/12/2016|||||||991016018076|1|20160002656|1|||R|08/12/2016
DTAC|FXTH_3W_20161209_0300|FXTH|STANDARD|193908|HO|100669122|24/11/2016|IN10|THB|2171565|09/12/2016||30|CHECK|1|ITEM|2029500||||||||||||||||||||09/12/2016|||||||991016018771|1|20160002644|1|||R|08/12/2016
DTAC|FXTH_3W_20161209_0300|FXTH|STANDARD|193908|HO|100668608|23/11/2016|IN10|THB|1147040|09/12/2016||30|CHECK|1|ITEM|1072000||||||||||||||||||||09/12/2016|||||||991016017818|1|20160002643|1|||R|08/12/2016
DTAC|FXTH_3W_20161209_0300|FXTH|STANDARD|219259|HO|0177/2559|22/11/2016|IN10|THB|106090.5|09/12/2016||60|CHECK|1|ITEM|99150||||||||||||||||||||09/12/2016|||||||991016021072|1|20160026486|1|||R|08/12/2016
DTAC|FXTH_3W_20161209_0300|FXTH|STANDARD|100155|HO|059260|01/12/2016|IN10|THB|107000|09/12/2016||30|CHECK|1|ITEM|60000||||||||||||||||||||09/12/2016|||||||991016021280|2|20160027496|1|||R|08/12/2016
DTAC|FXTH_3W_20161209_0300|FXTH|STANDARD|100155|HO|059260|01/12/2016|IN10|THB|107000|09/12/2016||30|CHECK|1|ITEM|40000||||||||||||||||||||09/12/2016|||||||991016021280|1|20160027496|2|||R|08/12/2016
DTAC|FXTH_3W_20161209_0300|FXTH|STANDARD|107395|HO|I175-161158|24/11/2016|IN10|THB|143429.83|09/12/2016||60|CHECK|1|ITEM|134046.57||||||||||||||||||||09/12/2016|||||||991015021369|1|20160026816|1|||R|08/12/2016
DTN|FXTH_3W_20161209_0300|FXTH|STANDARD|184906|DTAC-N|8030836752|30/11/2016|DTACN-IN|THB|1535357.98|09/12/2016||60|CHECK|1|ITEM|1295||||||||||||||||||||09/12/2016|||||||8016008329|1|8016008073|1|||R|08/12/2016
DTN|FXTH_3W_20161209_0300|FXTH|STANDARD|184906|DTAC-N|8030836752|30/11/2016|DTACN-IN|THB|1535357.98|09/12/2016||60|CHECK|1|ITEM|34474||||||||||||||||||||09/12/2016|||||||8016008329|2|8016008073|2|||R|08/12/2016
DTN|FXTH_3W_20161209_0300|FXTH|STANDARD|184906|DTAC-N|8030836752|30/11/2016|DTACN-IN|THB|1535357.98|09/12/2016||60|CHECK|1|ITEM|350||||||||||||||||||||09/12/2016|||||||8016008329|3|8016008073|3|||R|08/12/2016
DTN|FXTH_3W_20161209_0300|FXTH|STANDARD|184906|DTAC-N|8030836752|30/11/2016|DTACN-IN|THB|1535357.98|09/12/2016||60|CHECK|1|ITEM|200||||||||||||||||||||09/12/2016|||||||8016008329|4|8016008073|4|||R|08/12/2016
DTN|FXTH_3W_20161209_0300|FXTH|STANDARD|184906|DTAC-N|8030836752|30/11/2016|DTACN-IN|THB|1535357.98|09/12/2016||60|CHECK|1|ITEM|30000||||||||||||||||||||09/12/2016|||||||8016008329|5|8016008073|5|||R|08/12/2016
DTN|FXTH_3W_20161209_0300|FXTH|STANDARD|184906|DTAC-N|8030836752|30/11/2016|DTACN-IN|THB|1535357.98|09/12/2016||60|CHECK|1|ITEM|10500||||||||||||||||||||09/12/2016|||||||8016008329|6|8016008073|6|||R|08/12/2016
DTN|FXTH_3W_20161209_0300|FXTH|STANDARD|184906|DTAC-N|8030836752|30/11/2016|DTACN-IN|THB|1535357.98|09/12/2016||60|CHECK|1|ITEM|39600||||||||||||||||||||09/12/2016|||||||8016008329|13|8016008073|7|||R|08/12/2016
DTN|FXTH_3W_20161209_0300|FXTH|STANDARD|184906|DTAC-N|8030836752|30/11/2016|DTACN-IN|THB|1535357.98|09/12/2016||60|CHECK|1|ITEM|10800||||||||||||||||||||09/12/2016|||||||8016008329|8|8016008073|8|||R|08/12/2016
DTN|FXTH_3W_20161209_0300|FXTH|STANDARD|184906|DTAC-N|8030836752|30/11/2016|DTACN-IN|THB|1535357.98|09/12/2016||60|CHECK|1|ITEM|306000||||||||||||||||||||09/12/2016|||||||8016008329|9|8016008073|9|||R|08/12/2016
DTN|FXTH_3W_20161209_0300|FXTH|STANDARD|184906|DTAC-N|8030836752|30/11/2016|DTACN-IN|THB|1535357.98|09/12/2016||60|CHECK|1|ITEM|8400||||||||||||||||||||09/12/2016|||||||8016008329|10|8016008073|10|||R|08/12/2016
DTN|FXTH_3W_20161209_0300|FXTH|STANDARD|184906|DTAC-N|8030836752|30/11/2016|DTACN-IN|THB|1535357.98|09/12/2016||60|CHECK|1|ITEM|26280||||||||||||||||||||09/12/2016|||||||8016008329|11|8016008073|11|||R|08/12/2016
DTN|FXTH_3W_20161209_0300|FXTH|STANDARD|184906|DTAC-N|8030836752|30/11/2016|DTACN-IN|THB|1535357.98|09/12/2016||60|CHECK|1|ITEM|50895||||||||||||||||||||09/12/2016|||||||8016008329|12|8016008073|12|||R|08/12/2016
DTN|FXTH_3W_20161209_0300|FXTH|STANDARD|184906|DTAC-N|8030836752|30/11/2016|DTACN-IN|THB|1535357.98|09/12/2016||60|CHECK|1|ITEM|916120||||||||||||||||||||09/12/2016|||||||8016008329|7|8016008073|13|||R|08/12/2016
DTAC|FXTH_3W_20161209_0300|FXTH|STANDARD|107395|HO|IB15-161159|24/11/2016|IN10|THB|40124.97|09/12/2016||60|CHECK|1|ITEM|37499.97||||||||||||||||||||09/12/2016|||||||991015021369|1|20160027223|1|||R|08/12/2016
DTN|FXTH_3W_20161209_0300|FXTH|STANDARD|100504|DTAC-N|263668572|01/11/2016|DTACN-IN|THB|4714848|09/12/2016||60|CHECK|1|ITEM|4406400||||||||||||||||||||09/12/2016|||||||8016005669|1|8016008090|1|||R|08/12/2016
DTN|FXTH_3W_20161209_0300|FXTH|STANDARD|100504|DTAC-N|263666352|28/10/2016|DTACN-IN|THB|4714848|09/12/2016||60|CHECK|1|ITEM|4406400||||||||||||||||||||09/12/2016|||||||8016005669|1|8016008089|1|||R|08/12/2016
DTN|FXTH_3W_20161209_0300|FXTH|STANDARD|100504|DTAC-N|263666349|28/10/2016|DTACN-IN|THB|4714848|09/12/2016||60|CHECK|1|ITEM|4406400||||||||||||||||||||09/12/2016|||||||8016005669|1|8016008088|1|||R|08/12/2016
DTN|FXTH_3W_20161209_0300|FXTH|STANDARD|100504|DTAC-N|263666346|28/10/2016|DTACN-IN|THB|4714848|09/12/2016||60|CHECK|1|ITEM|4406400||||||||||||||||||||09/12/2016|||||||8016005669|1|8016008087|1|||R|08/12/2016
DTAC|FXTH_3W_20161209_0300|FXTH|STANDARD|185284|HO|TL1610429|28/09/2016|IN10|USD|8242.8|09/12/2016||60|CHECK|1|ITEM|8242.8||||||||||||||||||||09/12/2016|||||||991016002906|2|20160012198|1|||R|07/11/2016
DTAC|FXTH_3W_20161209_0300|FXTH|STANDARD|100458|HO|216210219|02/12/2016|IN10|THB|295320|09/12/2016||30|CHECK|1|ITEM|276000||||||||||||||||||||09/12/2016|||||||991016019842|1|20160027059|1|||R|08/12/2016
DTAC|FXTH_3W_20161209_0300|FXTH|STANDARD|153108|HO|00129938|02/12/2016|IN10|THB|115681.84|09/12/2016||30|CHECK|1|ITEM|115681.84||||||||||||||||||||09/12/2016|||||||991016023519|1|20160027199|1|||R|08/12/2016
DTN|FXTH_3W_20161209_0300|FXTH|STANDARD|100504|DTAC-N|263666343|28/10/2016|DTACN-IN|THB|2357424|09/12/2016||60|CHECK|1|ITEM|2203200||||||||||||||||||||09/12/2016|||||||8016005669|1|8016008086|1|||R|08/12/2016
DTAC|FXTH_3W_20161209_0300|FXTH|STANDARD|189799|HO|IV59/4637|22/11/2016|IN10|THB|63932.5|09/12/2016||30|CHECK|1|ITEM|59750||||||||||||||||||||09/12/2016|||||||991016021000|1|20160026657|1|||R|08/12/2016
DTN|FXTH_3W_20161209_0300|FXTH|STANDARD|173085|DTAC-N|IG16067955|15/11/2016|DTACN-IN|THB|16050|09/12/2016||60|CHECK|1|ITEM|15000||||||||||||||||||||09/12/2016|||||||8016008851|1|8016008055|1|||R|08/12/2016
DTN|FXTH_3W_20161209_0300|FXTH|STANDARD|173085|DTAC-N|IG16068394|01/12/2016|DTACN-IN|THB|16050|09/12/2016||60|CHECK|1|ITEM|15000||||||||||||||||||||09/12/2016|||||||8016008851|1|8016008000|1|||R|08/12/2016
DTAC|FXTH_3W_20161209_0300|FXTH|STANDARD|288054|HO|INV161201081|01/12/2016|IN10|THB|2820|09/12/2016||60|CHECK|1|ITEM|2791.8||||||||||||||||||||09/12/2016|||||||991016023301|1|20160027035|1|||R|08/12/2016
DTN|FXTH_3W_20161209_0300|FXTH|STANDARD|173085|DTAC-N|IG16065450|07/11/2016|DTACN-IN|THB|16050|09/12/2016||60|CHECK|1|ITEM|15000||||||||||||||||||||09/12/2016|||||||8016008849|1|8016008058|1|||R|08/12/2016
DTN|FXTH_3W_20161209_0300|FXTH|STANDARD|173085|DTAC-N|IG16070907|25/11/2016|DTACN-IN|THB|16050|09/12/2016||60|CHECK|1|ITEM|15000||||||||||||||||||||09/12/2016|||||||8016008849|1|8016007998|1|||R|08/12/2016
DTN|FXTH_3W_20161209_0300|FXTH|STANDARD|173085|DTAC-N|IG16067956|15/11/2016|DTACN-IN|THB|16050|09/12/2016||60|CHECK|1|ITEM|15000||||||||||||||||||||09/12/2016|||||||8016008850|1|8016008057|1|||R|08/12/2016
DTAC|FXTH_3W_20161209_0300|FXTH|STANDARD|185284|HO|TL1610430|28/09/2016|IN10|USD|858.4|09/12/2016||60|CHECK|1|ITEM|858.4||||||||||||||||||||09/12/2016|||||||991016004906|2|20160021756|1|||R|07/11/2016
DTAC|FXTH_3W_20161209_0300|FXTH|STANDARD|185284|HO|TL1610431|28/09/2016|IN10|USD|1009.74|09/12/2016||60|CHECK|1|ITEM|1009.74||||||||||||||||||||09/12/2016|||||||991016004906|3|20160012192|1|||R|07/11/2016
DTAC|FXTH_3W_20161209_0300|FXTH|STANDARD|185284|HO|R19643|28/09/2016|IN10|USD|6565.33|09/12/2016||60|CHECK|1|ITEM|6565.33||||||||||||||||||||09/12/2016|||||||991016002907|2|20160007744|1|||R|07/11/2016
DTAC|FXTH_3W_20161209_0300|FXTH|STANDARD|185284|HO|R19647|28/09/2016|IN10|USD|1248.97|09/12/2016||60|CHECK|1|ITEM|1248.97||||||||||||||||||||09/12/2016|||||||991016002907|6|20160007748|1|||R|07/11/2016
DTAC|FXTH_3W_20161209_0300|FXTH|STANDARD|209462|HO|06583|08/12/2016|IN10|THB|6206|09/12/2016||30|CHECK|1|ITEM|5800||||||||||||||||||||09/12/2016|||||||991016023082|1|20160027560|1|||R|08/12/2016
DTN|FXTH_3W_20161209_0300|FXTH|STANDARD|173085|DTAC-N|IG16068395|01/12/2016|DTACN-IN|THB|16050|09/12/2016||60|CHECK|1|ITEM|15000||||||||||||||||||||09/12/2016|||||||8016008850|1|8016007999|1|||R|08/12/2016
DTAC|FXTH_3W_20161209_0300|FXTH|STANDARD|238285|HO|0019/2016|21/11/2016|IN10|THB|63130|09/12/2016||60|CHECK|1|ITEM|59000||||||||||||||||||||09/12/2016|||||||991016017137|1|20160027077|1|||R|08/12/2016
DTN|FXTH_3W_20161209_0300|FXTH|STANDARD|100108|DTAC-N|90042855|06/12/2016|DTACN-IN|USD|1753.49|09/12/2016||60|CHECK|1|ITEM|1753.49||||||||||||||||||||09/12/2016|||||||8015004773|4|8016007991|2|||R|08/12/2016
DTAC|FXTH_3W_20161209_0300|FXTH|STANDARD|100108|HO|90042852|23/11/2016|IN10|THB|802500|09/12/2016||60|CHECK|1|ITEM|500000||||||||||||||||||||09/12/2016|||||||991016021841|1|20160027476|1|||R|08/12/2016
DTAC|FXTH_3W_20161209_0300|FXTH|STANDARD|100108|HO|90042852|23/11/2016|IN10|THB|802500|09/12/2016||60|CHECK|1|ITEM|250000||||||||||||||||||||09/12/2016|||||||991016021841|2|20160027476|2|||R|08/12/2016
DTN|FXTH_3W_20161209_0300|FXTH|STANDARD|100108|DTAC-N|9788000801|23/11/2016|DTACN-IN|THB|1493571.58|09/12/2016||60|CHECK|1|ITEM|1493571.58||||||||||||||||||||09/12/2016|||||||8016001928|2|8016003209|1|||R|08/12/2016
DTN|FXTH_3W_20161209_0300|FXTH|STANDARD|100108|DTAC-N|9788000823|23/11/2016|DTACN-IN|THB|7047.84|09/12/2016||60|CHECK|1|ITEM|7047.84||||||||||||||||||||09/12/2016|||||||8016004399|7|8016006643|2|||R|08/12/2016
DTN|FXTH_3W_20161209_0300|FXTH|STANDARD|100108|DTAC-N|9049008650|23/11/2016|DTACN-IN|THB|4115804.99|09/12/2016||60|CHECK|1|ITEM|2789518.49||||||||||||||||||||09/12/2016|||||||8016007369|1|8016008118|1|||R|08/12/2016
DTN|FXTH_3W_20161209_0300|FXTH|STANDARD|100108|DTAC-N|9049008650|23/11/2016|DTACN-IN|THB|4115804.99|09/12/2016||60|CHECK|1|ITEM|937754.43||||||||||||||||||||09/12/2016|||||||8016007369|2|8016008118|2|||R|08/12/2016
DTN|FXTH_3W_20161209_0300|FXTH|STANDARD|100108|DTAC-N|9049008650|23/11/2016|DTACN-IN|THB|4115804.99|09/12/2016||60|CHECK|1|ITEM|119273.8||||||||||||||||||||09/12/2016|||||||8016007369|3|8016008118|3|||R|08/12/2016
DTAC|FXTH_3W_20161209_0300|FXTH|STANDARD|193908|HO|100667368|21/11/2016|IN10|THB|1688995|09/12/2016||30|CHECK|1|ITEM|1578500||||||||||||||||||||09/12/2016|||||||991015019225|1|20160002622|1|||R|08/12/2016
DTAC|FXTH_3W_20161209_0300|FXTH|STANDARD|193908|HO|100667367|21/11/2016|IN10|THB|25892502.09|09/12/2016||30|CHECK|1|ITEM|24198600||||||||||||||||||||09/12/2016|||||||991016017816|1|20160002621|1|||R|08/12/2016
DTAC|FXTH_3W_20161209_0300|FXTH|STANDARD|193908|HO|100668008|22/11/2016|IN10|THB|20750510|09/12/2016||30|CHECK|1|ITEM|19393000||||||||||||||||||||09/12/2016|||||||991016017810|1|20160002633|1|||R|08/12/2016
DTAC|FXTH_3W_20161209_0300|FXTH|STANDARD|193908|HO|100668007|22/11/2016|IN10|THB|15034356|09/12/2016||30|CHECK|1|ITEM|14050800||||||||||||||||||||09/12/2016|||||||991016017815|1|20160002632|1|||R|08/12/2016
DTAC|FXTH_3W_20161209_0300|FXTH|STANDARD|193908|HO|100668006|22/11/2016|IN10|THB|8686260|09/12/2016||30|CHECK|1|ITEM|8118000||||||||||||||||||||09/12/2016|||||||991016017809|1|20160002631|1|||R|08/12/2016
DTAC|FXTH_3W_20161209_0300|FXTH|STANDARD|193908|HO|100668210|22/11/2016|IN10|THB|15311700|09/12/2016||30|CHECK|1|ITEM|14310000||||||||||||||||||||09/12/2016|||||||991016021150|1|20160002626|1|||R|08/12/2016
DTAC|FXTH_3W_20161209_0300|FXTH|STANDARD|100108|HO|9065015377|23/11/2016|IN10|THB|74074.66|09/12/2016||60|CHECK|1|ITEM|69228.65||||||||||||||||||||09/12/2016|||||||991016005230|3|20160027392|1|||R|08/12/2016
DTAC|FXTH_3W_20161209_0300|FXTH|STANDARD|193908|HO|100667362|21/11/2016|IN10|THB|6153891|09/12/2016||30|CHECK|1|ITEM|5751300||||||||||||||||||||09/12/2016|||||||991016017949|1|20160002616|1|||R|08/12/2016
DTAC|FXTH_3W_20161209_0300|FXTH|STANDARD|100108|HO|9065015368|23/11/2016|IN10|THB|63600.85|09/12/2016||60|CHECK|1|ITEM|59440.05||||||||||||||||||||09/12/2016|||||||991016000706|1|20160027400|1|||R|08/12/2016
DTAC|FXTH_3W_20161209_0300|FXTH|STANDARD|193908|HO|100670161|26/11/2016|IN10|THB|13279449|09/12/2016||30|CHECK|1|ITEM|12410700||||||||||||||||||||09/12/2016|||||||991016017947|1|20160002673|1|||R|08/12/2016
DTAC|FXTH_3W_20161209_0300|FXTH|STANDARD|100108|HO|9065015370|23/11/2016|IN10|THB|345488.56|09/12/2016||60|CHECK|1|ITEM|322886.5||||||||||||||||||||09/12/2016|||||||991015015479|4|20160027401|1|||R|08/12/2016
DTAC|FXTH_3W_20161209_0300|FXTH|STANDARD|193908|HO|100669121|24/11/2016|IN10|THB|6755980|09/12/2016||30|CHECK|1|ITEM|6314000||||||||||||||||||||09/12/2016|||||||991016018771|1|20160002645|1|||R|08/12/2016
DTAC|FXTH_3W_20161209_0300|FXTH|STANDARD|227035|HO|2559-259|22/11/2016|IN10|THB|7704|09/12/2016||60|CHECK|1|ITEM|7200||||||||||||||||||||09/12/2016|||||||991016021490|1|20160027025|1|||R|08/12/2016
DTAC|FXTH_3W_20161209_0300|FXTH|STANDARD|193908|HO|100670162|26/11/2016|IN10|THB|16842228|09/12/2016||30|CHECK|1|ITEM|15740400||||||||||||||||||||09/12/2016|||||||991016018035|1|20160002664|1|||R|08/12/2016
DTAC|FXTH_3W_20161209_0300|FXTH|STANDARD|227035|HO|2559-261|22/11/2016|IN10|THB|15408|09/12/2016||60|CHECK|1|ITEM|14400||||||||||||||||||||09/12/2016|||||||991016021490|3|20160027027|1|||R|08/12/2016
DTAC|FXTH_3W_20161209_0300|FXTH|STANDARD|227035|HO|2559-257|22/11/2016|IN10|THB|24396|09/12/2016||60|CHECK|1|ITEM|22800||||||||||||||||||||09/12/2016|||||||991016021489|2|20160027048|1|||R|08/12/2016
DTAC|FXTH_3W_20161209_0300|FXTH|STANDARD|227035|HO|2559-256|22/11/2016|IN10|THB|38520|09/12/2016||60|CHECK|1|ITEM|36000||||||||||||||||||||09/12/2016|||||||991016021489|1|20160027051|1|||R|08/12/2016
DTAC|FXTH_3W_20161209_0300|FXTH|STANDARD|227035|HO|2559-258|22/11/2016|IN10|THB|33384|09/12/2016||60|CHECK|1|ITEM|31200||||||||||||||||||||09/12/2016|||||||991016021489|3|20160027037|1|||R|08/12/2016
DTAC|FXTH_3W_20161209_0300|FXTH|STANDARD|227035|HO|2559-260|22/11/2016|IN10|THB|30816|09/12/2016||60|CHECK|1|ITEM|28800||||||||||||||||||||09/12/2016|||||||991016021490|2|20160027030|1|||R|08/12/2016
DTAC|FXTH_3W_20161209_0300|FXTH|STANDARD|227035|HO|2559-263|22/11/2016|IN10|THB|37236|09/12/2016||60|CHECK|1|ITEM|34800||||||||||||||||||||09/12/2016|||||||991016021490|5|20160027028|1|||R|08/12/2016
DTAC|FXTH_3W_20161209_0300|FXTH|STANDARD|227035|HO|2559-262|22/11/2016|IN10|THB|44940|09/12/2016||60|CHECK|1|ITEM|42000||||||||||||||||||||09/12/2016|||||||991016021490|4|20160027032|1|||R|08/12/2016
DTAC|FXTH_3W_20161209_0300|FXTH|STANDARD|100108|HO|9065015369|23/11/2016|IN10|THB|136309.23|09/12/2016||60|CHECK|1|ITEM|127391.8||||||||||||||||||||09/12/2016|||||||991015015479|1|20160027402|1|||R|08/12/2016
DTAC|FXTH_3W_20161209_0300|FXTH|STANDARD|100108|HO|9065015378|23/11/2016|IN10|THB|17776110.36|09/12/2016||60|CHECK|1|ITEM|16613187.25||||||||||||||||||||09/12/2016|||||||991016016066|3|20160027404|1|||R|08/12/2016
DTAC|FXTH_3W_20161209_0300|FXTH|STANDARD|229074|HO|IN591130-00380|30/11/2016|IN10|THB|5430191.79|09/12/2016||45|CHECK|1|ITEM|744207.6||||||||||||||||||||09/12/2016|||||||991016021799|2|20160002686|1|||R|08/12/2016
DTAC|FXTH_3W_20161209_0300|FXTH|STANDARD|229074|HO|IN591130-00380|30/11/2016|IN10|THB|5430191.79|09/12/2016||45|CHECK|1|ITEM|2324775||||||||||||||||||||09/12/2016|||||||991016021799|3|20160002686|2|||R|08/12/2016
DTAC|FXTH_3W_20161209_0300|FXTH|STANDARD|229074|HO|IN591130-00380|30/11/2016|IN10|THB|5430191.79|09/12/2016||45|CHECK|1|ITEM|774925||||||||||||||||||||09/12/2016|||||||991016021799|4|20160002686|3|||R|08/12/2016
DTAC|FXTH_3W_20161209_0300|FXTH|STANDARD|229074|HO|IN591130-00380|30/11/2016|IN10|THB|5430191.79|09/12/2016||45|CHECK|1|ITEM|615519||||||||||||||||||||09/12/2016|||||||991016021799|5|20160002686|4|||R|08/12/2016
DTAC|FXTH_3W_20161209_0300|FXTH|STANDARD|229074|HO|IN591130-00380|30/11/2016|IN10|THB|5430191.79|09/12/2016||45|CHECK|1|ITEM|615519||||||||||||||||||||09/12/2016|||||||991016021799|6|20160002686|5|||R|08/12/2016
DTAC|FXTH_3W_20161209_0300|FXTH|STANDARD|229074|HO|IN591130-00300|30/11/2016|IN10|THB|2097409.72|09/12/2016||45|CHECK|1|ITEM|774925||||||||||||||||||||09/12/2016|||||||991016023112|2|20160002687|1|||R|08/12/2016
DTAC|FXTH_3W_20161209_0300|FXTH|STANDARD|229074|HO|IN591130-00300|30/11/2016|IN10|THB|2097409.72|09/12/2016||45|CHECK|1|ITEM|774925||||||||||||||||||||09/12/2016|||||||991016023112|3|20160002687|2|||R|08/12/2016
DTAC|FXTH_3W_20161209_0300|FXTH|STANDARD|229074|HO|IN591130-00300|30/11/2016|IN10|THB|2097409.72|09/12/2016||45|CHECK|1|ITEM|205173||||||||||||||||||||09/12/2016|||||||991016023112|4|20160002687|3|||R|08/12/2016
DTAC|FXTH_3W_20161209_0300|FXTH|STANDARD|229074|HO|IN591130-00300|30/11/2016|IN10|THB|2097409.72|09/12/2016||45|CHECK|1|ITEM|205173||||||||||||||||||||09/12/2016|||||||991016023112|5|20160002687|4|||R|08/12/2016
DTAC|FXTH_3W_20161209_0300|FXTH|STANDARD|229074|HO|IN591201-00551|01/12/2016|IN10|THB|2195351.1|09/12/2016||45|CHECK|1|ITEM|1025865||||||||||||||||||||09/12/2016|||||||991016023112|4|20160002688|1|||R|08/12/2016
DTAC|FXTH_3W_20161209_0300|FXTH|STANDARD|229074|HO|IN591201-00551|01/12/2016|IN10|THB|2195351.1|09/12/2016||45|CHECK|1|ITEM|1025865||||||||||||||||||||09/12/2016|||||||991016023112|5|20160002688|2|||R|08/12/2016
DTN|FXTH_3W_20161209_0300|FXTH|STANDARD|100108|DTAC-N|9065015387|23/11/2016|DTACN-IN|THB|54029.51|09/12/2016||60|CHECK|1|ITEM|50494.87||||||||||||||||||||09/12/2016|||||||8016002749|2|8016008106|1|||R|08/12/2016
DTN|FXTH_3W_20161209_0300|FXTH|STANDARD|100108|DTAC-N|9065015386|23/11/2016|DTACN-IN|THB|1080590.22|09/12/2016||60|CHECK|1|ITEM|1009897.4||||||||||||||||||||09/12/2016|||||||8016002749|2|8016008109|1|||R|08/12/2016
DTAC|FXTH_3W_20161209_0300|FXTH|STANDARD|282852|HO|IV5911395|30/11/2016|IN10|THB|2292000.99|09/12/2016||90|CHECK|1|ITEM|2142057||||||||||||||||||||09/12/2016|||||||991016022897|2|20160002685|1|||R|08/12/2016
DTAC|FXTH_3W_20161209_0300|FXTH|STANDARD|193908|HO|100669123|24/11/2016|IN10|THB|11099110|09/12/2016||30|CHECK|1|ITEM|10373000||||||||||||||||||||09/12/2016|||||||991016017806|1|20160002646|1|||R|08/12/2016
DTAC|FXTH_3W_20161209_0300|FXTH|STANDARD|193908|HO|100668606|23/11/2016|IN10|THB|12955560|09/12/2016||30|CHECK|1|ITEM|12108000||||||||||||||||||||09/12/2016|||||||991016018033|1|20160002651|1|||R|08/12/2016
DTAC|FXTH_3W_20161209_0300|FXTH|STANDARD|193908|HO|100668607|23/11/2016|IN10|THB|6308720|09/12/2016||30|CHECK|1|ITEM|5896000||||||||||||||||||||09/12/2016|||||||991016017946|1|20160002652|1|||R|08/12/2016
DTAC|FXTH_3W_20161209_0300|FXTH|STANDARD|193908|HO|100667359|21/11/2016|IN10|THB|25892502|09/12/2016||30|CHECK|1|ITEM|24198600||||||||||||||||||||09/12/2016|||||||991016017816|1|20160002613|1|||R|08/12/2016
DTAC|FXTH_3W_20161209_0300|FXTH|STANDARD|193908|HO|100668213|22/11/2016|IN10|THB|6124680|09/12/2016||30|CHECK|1|ITEM|5724000||||||||||||||||||||09/12/2016|||||||991016021027|1|20160002629|1|||R|08/12/2016
DTAC|FXTH_3W_20161209_0300|FXTH|STANDARD|100108|HO|9788000813|23/11/2016|IN10|THB|11316060.79|09/12/2016||60|CHECK|1|ITEM|1790346.54||||||||||||||||||||09/12/2016|||||||991016005230|2|20160027397|1|||R|08/12/2016
DTAC|FXTH_3W_20161209_0300|FXTH|STANDARD|100108|HO|9788000813|23/11/2016|IN10|THB|11316060.79|09/12/2016||60|CHECK|1|ITEM|9525714.25||||||||||||||||||||09/12/2016|||||||991016005230|6|20160027397|2|||R|08/12/2016
DTAC|FXTH_3W_20161209_0300|FXTH|STANDARD|202931|HO|IV4511610018|30/11/2016|IN10|THB|15840922.96|09/12/2016||60|CHECK|1|ITEM|7683740||||||||||||||||||||09/12/2016|||||||991016022292|1|20160002689|1|||R|08/12/2016
DTAC|FXTH_3W_20161209_0300|FXTH|STANDARD|202931|HO|IV4511610018|30/11/2016|IN10|THB|15840922.96|09/12/2016||60|CHECK|1|ITEM|6339085.5||||||||||||||||||||09/12/2016|||||||991016022292|2|20160002689|2|||R|08/12/2016
DTAC|FXTH_3W_20161209_0300|FXTH|STANDARD|202931|HO|IV4511610018|30/11/2016|IN10|THB|15840922.96|09/12/2016||60|CHECK|1|ITEM|781775.4||||||||||||||||||||09/12/2016|||||||991016022292|3|20160002689|3|||R|08/12/2016
DTAC|FXTH_3W_20161209_0300|FXTH|STANDARD|171194|HO|IV59-1020|07/12/2016|IN10|THB|20511.9|09/12/2016||30|CHECK|1|ITEM|19170||||||||||||||||||||09/12/2016|||||||991016023785|1|20160027504|1|||R|08/12/2016
DTAC|FXTH_3W_20161209_0300|FXTH|STANDARD|100108|HO|9065015367|23/11/2016|IN10|THB|72731.14|09/12/2016||60|CHECK|1|ITEM|20626.09||||||||||||||||||||09/12/2016|||||||991015014596|1|20160027405|1|||R|08/12/2016
DTAC|FXTH_3W_20161209_0300|FXTH|STANDARD|100108|HO|9065015367|23/11/2016|IN10|THB|72731.14|09/12/2016||60|CHECK|1|ITEM|47346.94||||||||||||||||||||09/12/2016|||||||991015014596|2|20160027405|2|||R|08/12/2016
DTAC|FXTH_3W_20161209_0300|FXTH|STANDARD|171194|HO|IV59-1021|07/12/2016|IN10|THB|23990.26|09/12/2016||30|CHECK|1|ITEM|22420.8||||||||||||||||||||09/12/2016|||||||991016023684|1|20160027568|1|||R|08/12/2016
DTN|FXTH_3W_20161209_0300|FXTH|STANDARD|100108|DTAC-N|9065015380|23/11/2016|DTACN-IN|THB|270147.55|09/12/2016||60|CHECK|1|ITEM|252474.35||||||||||||||||||||09/12/2016|||||||8016002749|2|8016008115|1|||R|08/12/2016
DTN|FXTH_3W_20161209_0300|FXTH|STANDARD|100108|DTAC-N|9065015381|23/11/2016|DTACN-IN|THB|54029.51|09/12/2016||60|CHECK|1|ITEM|50494.87||||||||||||||||||||09/12/2016|||||||8016002749|2|8016008114|1|||R|08/12/2016
DTN|FXTH_3W_20161209_0300|FXTH|STANDARD|100108|DTAC-N|9065015384|23/11/2016|DTACN-IN|THB|162088.53|09/12/2016||60|CHECK|1|ITEM|151484.61||||||||||||||||||||09/12/2016|||||||8016002749|2|8016008111|1|||R|08/12/2016
DTAC|FXTH_3W_20161209_0300|FXTH|STANDARD|100108|HO|9788000810|23/11/2016|IN10|THB|90123.64|09/12/2016||60|CHECK|1|ITEM|90123.64||||||||||||||||||||09/12/2016|||||||991016004671|1|20160012075|1|||R|08/12/2016
DTN|FXTH_3W_20161209_0300|FXTH|STANDARD|100108|DTAC-N|9065015385|23/11/2016|DTACN-IN|THB|2539387.01|09/12/2016||60|CHECK|1|ITEM|2373258.89||||||||||||||||||||09/12/2016|||||||8016002749|2|8016008110|1|||R|08/12/2016
DTN|FXTH_3W_20161209_0300|FXTH|STANDARD|100108|DTAC-N|9788000819|23/11/2016|DTACN-IN|THB|4446.08|09/12/2016||60|CHECK|1|ITEM|4446.08||||||||||||||||||||09/12/2016|||||||8016001928|2|8016003209|1|||R|08/12/2016
DTN|FXTH_3W_20161209_0300|FXTH|STANDARD|100108|DTAC-N|9065015366|23/11/2016|DTACN-IN|THB|63063.05|09/12/2016||60|CHECK|1|ITEM|58937.43||||||||||||||||||||09/12/2016|||||||8015006914|2|8016008127|1|||R|08/12/2016
DTAC|FXTH_3W_20161209_0300|FXTH|STANDARD|100108|HO|9788000795|23/11/2016|IN10|THB|143757.48|09/12/2016||60|CHECK|1|ITEM|143757.48||||||||||||||||||||09/12/2016|||||||991016016066|1|20160026266|1|||R|08/12/2016
DTN|FXTH_3W_20161209_0300|FXTH|STANDARD|100108|DTAC-N|9065015383|23/11/2016|DTACN-IN|THB|1021100.83|09/12/2016||60|CHECK|1|ITEM|954299.84||||||||||||||||||||09/12/2016|||||||8016004399|8|8016008120|1|||R|08/12/2016
DTN|FXTH_3W_20161209_0300|FXTH|STANDARD|100108|DTAC-N|9065015363|23/11/2016|DTACN-IN|THB|329916.74|09/12/2016||60|CHECK|1|ITEM|308333.4||||||||||||||||||||09/12/2016|||||||8016005517|6|8016008119|1|||R|08/12/2016
DTAC|FXTH_3W_20161209_0300|FXTH|STANDARD|100108|HO|9788000821|23/11/2016|IN10|THB|6457833.5|09/12/2016||60|CHECK|1|ITEM|6457833.5||||||||||||||||||||09/12/2016|||||||991016016066|1|20160026266|1|||R|08/12/2016
DTAC|FXTH_3W_20161209_0300|FXTH|STANDARD|100108|HO|9065015374|23/11/2016|IN10|THB|105442.13|09/12/2016||60|CHECK|1|ITEM|98544.05||||||||||||||||||||09/12/2016|||||||991016012328|4|20160027390|1|||R|08/12/2016
DTN|FXTH_3W_20161209_0300|FXTH|STANDARD|100108|DTAC-N|9065015373|23/11/2016|DTACN-IN|THB|216118.04|09/12/2016||60|CHECK|1|ITEM|201979.48||||||||||||||||||||09/12/2016|||||||8016002749|2|8016008117|1|||R|08/12/2016
DTN|FXTH_3W_20161209_0300|FXTH|STANDARD|242148|DTAC-N|IVD1612/0738|08/12/2016|DTACN-IN|THB|438700|09/12/2016||30|CHECK|1|ITEM|410000||||||||||||||||||||09/12/2016|||||||8016008872|1|8016001324|1|||R|08/12/2016
DTN|FXTH_3W_20161209_0300|FXTH|STANDARD|100108|DTAC-N|9065015375|23/11/2016|DTACN-IN|THB|108059.02|09/12/2016||60|CHECK|1|ITEM|100989.74||||||||||||||||||||09/12/2016|||||||8016002749|2|8016008116|1|||R|08/12/2016
DTN|FXTH_3W_20161209_0300|FXTH|STANDARD|100108|DTAC-N|9788000799|21/11/2016|DTACN-IN|THB|1218957.25|09/12/2016||60|CHECK|1|ITEM|1218957.25||||||||||||||||||||09/12/2016|||||||8016001928|2|8016004968|1|||R|08/12/2016
DTN|FXTH_3W_20161209_0300|FXTH|STANDARD|100108|DTAC-N|9788000825|23/11/2016|DTACN-IN|THB|1171594.63|09/12/2016||60|CHECK|1|ITEM|1171594.63||||||||||||||||||||09/12/2016|||||||8016004399|1|8016006642|1|||R|08/12/2016
DTAC|FXTH_3W_20161209_0300|FXTH|STANDARD|101297|HO|5912020|07/12/2016|IN10|THB|7864.5|09/12/2016||60|CHECK|1|ITEM|4300||||||||||||||||||||09/12/2016|||||||991016023817|1|20160027609|1|||R|08/12/2016
DTAC|FXTH_3W_20161209_0300|FXTH|STANDARD|101297|HO|5912020|07/12/2016|IN10|THB|7864.5|09/12/2016||60|CHECK|1|ITEM|1050||||||||||||||||||||09/12/2016|||||||991016023817|3|20160027609|2|||R|08/12/2016
DTAC|FXTH_3W_20161209_0300|FXTH|STANDARD|101297|HO|5912020|07/12/2016|IN10|THB|7864.5|09/12/2016||60|CHECK|1|ITEM|2000||||||||||||||||||||09/12/2016|||||||991016023817|2|20160027609|3|||R|08/12/2016
DTN|FXTH_3W_20161209_0300|FXTH|STANDARD|100108|DTAC-N|9065015389|23/11/2016|DTACN-IN|THB|54029.51|09/12/2016||60|CHECK|1|ITEM|50494.87||||||||||||||||||||09/12/2016|||||||8016002749|2|8016008131|1|||R|08/12/2016
DTN|FXTH_3W_20161209_0300|FXTH|STANDARD|100108|DTAC-N|9065015361|23/11/2016|DTACN-IN|THB|338568.36|09/12/2016||60|CHECK|1|ITEM|316419.03||||||||||||||||||||09/12/2016|||||||8015007252|3|8016008126|1|||R|08/12/2016
DTN|FXTH_3W_20161209_0300|FXTH|STANDARD|100108|DTAC-N|9788000803|23/11/2016|DTACN-IN|THB|1186314.83|09/12/2016||60|CHECK|1|ITEM|1186314.83||||||||||||||||||||09/12/2016|||||||8016001928|2|8016004968|1|||R|08/12/2016
DTN|FXTH_3W_20161209_0300|FXTH|STANDARD|184906|DTAC-N|8030836487|24/11/2016|DTACN-IN|THB|62980.2|09/12/2016||60|CHECK|1|ITEM|58860||||||||||||||||||||09/12/2016|||||||8016007726|1|8016008170|1|||R|08/12/2016
DTN|FXTH_3W_20161209_0300|FXTH|STANDARD|184906|DTAC-N|8030836490|24/11/2016|DTACN-IN|THB|111342.06|09/12/2016||60|CHECK|1|ITEM|104058||||||||||||||||||||09/12/2016|||||||8016007069|1|8016008168|1|||R|08/12/2016
DTAC|FXTH_3W_20161209_0300|FXTH|STANDARD|100108|HO|9065015379|23/11/2016|IN10|THB|859751.61|09/12/2016||60|CHECK|1|ITEM|803506.18||||||||||||||||||||09/12/2016|||||||991016012328|4|20160027335|1|||R|08/12/2016
DTN|FXTH_3W_20161209_0300|FXTH|STANDARD|100108|DTAC-N|9065015388|23/11/2016|DTACN-IN|THB|162088.53|09/12/2016||60|CHECK|1|ITEM|151484.61||||||||||||||||||||09/12/2016|||||||8016002749|2|8016008146|1|||R|08/12/2016
DTN|FXTH_3W_20161209_0300|FXTH|STANDARD|100108|DTAC-N|9065015394|23/11/2016|DTACN-IN|THB|864472.17|09/12/2016||60|CHECK|1|ITEM|807917.92||||||||||||||||||||09/12/2016|||||||8016002749|2|8016008129|1|||R|08/12/2016
DTAC|FXTH_3W_20161209_0300|FXTH|STANDARD|101297|HO|5911068|24/11/2016|IN10|THB|37771|09/12/2016||60|CHECK|1|ITEM|2300||||||||||||||||||||09/12/2016|||||||991016022364|1|20160027299|1|||R|08/12/2016
DTAC|FXTH_3W_20161209_0300|FXTH|STANDARD|101297|HO|5911068|24/11/2016|IN10|THB|37771|09/12/2016||60|CHECK|1|ITEM|25300||||||||||||||||||||09/12/2016|||||||991016022364|4|20160027299|2|||R|08/12/2016
DTAC|FXTH_3W_20161209_0300|FXTH|STANDARD|101297|HO|5911068|24/11/2016|IN10|THB|37771|09/12/2016||60|CHECK|1|ITEM|800||||||||||||||||||||09/12/2016|||||||991016022364|3|20160027299|3|||R|08/12/2016
DTAC|FXTH_3W_20161209_0300|FXTH|STANDARD|101297|HO|5911068|24/11/2016|IN10|THB|37771|09/12/2016||60|CHECK|1|ITEM|6900||||||||||||||||||||09/12/2016|||||||991016022364|2|20160027299|4|||R|08/12/2016
DTAC|FXTH_3W_20161209_0300|FXTH|STANDARD|184906|HO|8030836488|24/11/2016|IN10|THB|238419.54|09/12/2016||60|CHECK|1|ITEM|222822||||||||||||||||||||09/12/2016|||||||991013017429|1|20160027559|1|||R|08/12/2016
DTN|FXTH_3W_20161209_0300|FXTH|STANDARD|100108|DTAC-N|9065015392|23/11/2016|DTACN-IN|THB|506319.87|09/12/2016||60|CHECK|1|ITEM|69237.18||||||||||||||||||||09/12/2016|||||||8016002749|1|8016008135|1|||R|08/12/2016
DTN|FXTH_3W_20161209_0300|FXTH|STANDARD|100108|DTAC-N|9065015392|23/11/2016|DTACN-IN|THB|506319.87|09/12/2016||60|CHECK|1|ITEM|403958.96||||||||||||||||||||09/12/2016|||||||8016002749|2|8016008135|2|||R|08/12/2016
DTN|FXTH_3W_20161209_0300|FXTH|STANDARD|100108|DTAC-N|9049008647|15/11/2016|DTACN-IN|THB|124364814.31|09/12/2016||60|CHECK|1|ITEM|76259142.68||||||||||||||||||||09/12/2016|||||||8016006802|5|8016008128|1|||R|08/12/2016
DTN|FXTH_3W_20161209_0300|FXTH|STANDARD|100108|DTAC-N|9049008647|15/11/2016|DTACN-IN|THB|124364814.31|09/12/2016||60|CHECK|1|ITEM|39644466.67||||||||||||||||||||09/12/2016|||||||8016006802|6|8016008128|2|||R|08/12/2016
DTN|FXTH_3W_20161209_0300|FXTH|STANDARD|100108|DTAC-N|9049008647|15/11/2016|DTACN-IN|THB|124364814.31|09/12/2016||60|CHECK|1|ITEM|325189.07||||||||||||||||||||09/12/2016|||||||8016006802|7|8016008128|3|||R|08/12/2016
DTAC|FXTH_3W_20161209_0300|FXTH|STANDARD|202084|HO|59/00320|07/12/2016|IN10|THB|9523|09/12/2016||60|CHECK|1|ITEM|8900||||||||||||||||||||09/12/2016|||||||991016022088|1|20160027414|1|||R|08/12/2016
DTAC|FXTH_3W_20161209_0300|FXTH|STANDARD|100108|HO|90042853|23/11/2016|IN10|THB|802500|09/12/2016||60|CHECK|1|ITEM|500000||||||||||||||||||||09/12/2016|||||||991016021841|1|20160027479|1|||R|08/12/2016
DTAC|FXTH_3W_20161209_0300|FXTH|STANDARD|100108|HO|90042853|23/11/2016|IN10|THB|802500|09/12/2016||60|CHECK|1|ITEM|250000||||||||||||||||||||09/12/2016|||||||991016021841|2|20160027479|2|||R|08/12/2016
DTAC|FXTH_3W_20161209_0300|FXTH|STANDARD|100108|HO|9065015376|23/11/2016|IN10|THB|1063196.68|09/12/2016||60|CHECK|1|ITEM|993641.76||||||||||||||||||||09/12/2016|||||||991016012328|4|20160027338|1|||R|08/12/2016
DTN|FXTH_3W_20161209_0300|FXTH|STANDARD|100108|DTAC-N|9065015390|23/11/2016|DTACN-IN|THB|46710467.48|09/12/2016||60|CHECK|1|ITEM|43654642.5||||||||||||||||||||09/12/2016|||||||8016002749|1|8016008132|1|||R|08/12/2016
DTAC|FXTH_3W_20161209_0300|FXTH|STANDARD|241995|HO|R5911/311|29/11/2016|IN10|THB|9214.62|09/12/2016||30|CHECK|1|ITEM|8611.79||||||||||||||||||||09/12/2016|||||||991016022224|1|20160027571|1|||R|08/12/2016
DTAC|FXTH_3W_20161209_0300|FXTH|STANDARD|241995|HO|R5910/365|25/11/2016|IN10|THB|21346.59|09/12/2016||30|CHECK|1|ITEM|19950.08||||||||||||||||||||09/12/2016|||||||991016022777|1|20160026631|1|||R|08/12/2016
DTN|FXTH_3W_20161209_0300|FXTH|STANDARD|185284|DTAC-N|TL1612437|16/11/2016|DTACN-IN|USD|21198.25|09/12/2016||60|CHECK|1|ITEM|21198.25||||||||||||||||||||09/12/2016|||||||8014002142|9|8016007836|1|||R|08/12/2016
DTN|FXTH_3W_20161209_0300|FXTH|STANDARD|184906|DTAC-N|8030836491|24/11/2016|DTACN-IN|THB|27370.6|09/12/2016||60|CHECK|1|ITEM|14580||||||||||||||||||||09/12/2016|||||||8016007104|2|8016008169|1|||R|08/12/2016
DTN|FXTH_3W_20161209_0300|FXTH|STANDARD|184906|DTAC-N|8030836491|24/11/2016|DTACN-IN|THB|27370.6|09/12/2016||60|CHECK|1|ITEM|11000||||||||||||||||||||09/12/2016|||||||8016007104|1|8016008169|2|||R|08/12/2016
DTN|FXTH_3W_20161209_0300|FXTH|STANDARD|185284|DTAC-N|TL1612434|16/11/2016|DTACN-IN|USD|1874.86|09/12/2016||60|CHECK|1|ITEM|1874.86||||||||||||||||||||09/12/2016|||||||8014002142|5|8016007839|1|||R|08/12/2016
DTN|FXTH_3W_20161209_0300|FXTH|STANDARD|100108|DTAC-N|9065015332|21/11/2016|DTACN-IN|THB|810442.66|09/12/2016||60|CHECK|1|ITEM|757423.05||||||||||||||||||||09/12/2016|||||||8016002749|2|8016007946|1|||R|08/12/2016
DTN|FXTH_3W_20161209_0300|FXTH|STANDARD|100108|DTAC-N|9065015393|23/11/2016|DTACN-IN|THB|162088.53|09/12/2016||60|CHECK|1|ITEM|151484.61||||||||||||||||||||09/12/2016|||||||8016002749|2|8016008136|1|||R|08/12/2016
DTN|FXTH_3W_20161209_0300|FXTH|STANDARD|184906|DTAC-N|8030836489|24/11/2016|DTACN-IN|THB|189980.64|09/12/2016||60|CHECK|1|ITEM|177552||||||||||||||||||||09/12/2016|||||||8016007068|1|8016008167|1|||R|08/12/2016
DTN|FXTH_3W_20161209_0300|FXTH|STANDARD|100108|DTAC-N|9065015362|23/11/2016|DTACN-IN|THB|951056.66|09/12/2016||60|CHECK|1|ITEM|888838||||||||||||||||||||09/12/2016|||||||8016000923|3|8016007972|1|||R|08/12/2016
DTAC|FXTH_3W_20161209_0300|FXTH|STANDARD|100108|HO|9065015364|23/11/2016|IN10|THB|95969.05|09/12/2016||60|CHECK|1|ITEM|89690.7||||||||||||||||||||09/12/2016|||||||991015015479|4|20160027406|1|||R|08/12/2016
DTN|FXTH_3W_20161209_0300|FXTH|STANDARD|185284|DTAC-N|TL1612117|04/11/2016|DTACN-IN|USD|512591.4|09/12/2016||60|CHECK|1|ITEM|512591.4||||||||||||||||||||09/12/2016|||||||8016003456|1|8016007301|1|||R|08/12/2016
DTN|FXTH_3W_20161209_0300|FXTH|STANDARD|185284|DTAC-N|TL1612432|16/11/2016|DTACN-IN|USD|42320|09/12/2016||60|CHECK|1|ITEM|42320||||||||||||||||||||09/12/2016|||||||8014002142|14|8016007841|1|||R|08/12/2016
DTAC|FXTH_3W_20161209_0300|FXTH|STANDARD|100108|HO|9788000804|23/11/2016|IN10|THB|2755675.42|09/12/2016||60|CHECK|1|ITEM|2755675.42||||||||||||||||||||09/12/2016|||||||991016004671|1|20160012075|1|||R|08/12/2016
DTN|FXTH_3W_20161209_0300|FXTH|STANDARD|100095|DTAC-N|BIV59090000148|09/08/2016|DTACN-IN|THB|9630|09/12/2016||60|CHECK|1|ITEM|9000||||||||||||||||||||09/12/2016|||||||8016006210|1|8016001114|1|||R|08/12/2016
DTAC|FXTH_3W_20161209_0300|FXTH|STANDARD|241995|HO|R5911/310|29/11/2016|IN10|THB|15251.51|09/12/2016||30|CHECK|1|ITEM|14253.75||||||||||||||||||||09/12/2016|||||||991016022922|1|20160026868|1|||R|08/12/2016
DTN|FXTH_3W_20161209_0300|FXTH|STANDARD|185284|DTAC-N|TL1605224|17/06/2016|DTACN-IN|USD|24266.57|09/12/2016||60|CHECK|1|ITEM|24266.57||||||||||||||||||||09/12/2016|||||||8016001249|1|8016007299|1|||R|08/12/2016
DTN|FXTH_3W_20161209_0300|FXTH|STANDARD|185284|DTAC-N|TL1609806|19/09/2016|DTACN-IN|USD|1936.31|09/12/2016||60|CHECK|1|ITEM|1936.31||||||||||||||||||||09/12/2016|||||||8016001812|1|8016006145|1|||R|08/12/2016
DTN|FXTH_3W_20161209_0300|FXTH|STANDARD|184906|DTAC-N|8030836747|30/11/2016|DTACN-IN|THB|201160|09/12/2016||60|CHECK|1|ITEM|188000||||||||||||||||||||09/12/2016|||||||8016003970|1|8016008080|1|||R|08/12/2016
DTAC|FXTH_3W_20161209_0300|FXTH|STANDARD|173054|HO|1600322982|30/11/2016|IN10|THB|4443089.4|09/12/2016||30|CHECK|1|ITEM|4152420||||||||||||||||||||09/12/2016|||||||991016020461|1|20160002684|1|||R|08/12/2016
DTAC|FXTH_3W_20161209_0300|FXTH|STANDARD|184906|HO|8030836502|24/11/2016|IN10|THB|262781.3|09/12/2016||60|CHECK|1|ITEM|75000||||||||||||||||||||09/12/2016|||||||991016018266|1|20160027558|1|||R|08/12/2016
DTAC|FXTH_3W_20161209_0300|FXTH|STANDARD|184906|HO|8030836502|24/11/2016|IN10|THB|262781.3|09/12/2016||60|CHECK|1|ITEM|111000||||||||||||||||||||09/12/2016|||||||991016018266|2|20160027558|2|||R|08/12/2016
DTAC|FXTH_3W_20161209_0300|FXTH|STANDARD|184906|HO|8030836502|24/11/2016|IN10|THB|262781.3|09/12/2016||60|CHECK|1|ITEM|450||||||||||||||||||||09/12/2016|||||||991016018266|6|20160027558|3|||R|08/12/2016
DTAC|FXTH_3W_20161209_0300|FXTH|STANDARD|184906|HO|8030836502|24/11/2016|IN10|THB|262781.3|09/12/2016||60|CHECK|1|ITEM|4140||||||||||||||||||||09/12/2016|||||||991016018266|4|20160027558|4|||R|08/12/2016
DTAC|FXTH_3W_20161209_0300|FXTH|STANDARD|184906|HO|8030836502|24/11/2016|IN10|THB|262781.3|09/12/2016||60|CHECK|1|ITEM|16500||||||||||||||||||||09/12/2016|||||||991016018266|5|20160027558|5|||R|08/12/2016
DTAC|FXTH_3W_20161209_0300|FXTH|STANDARD|184906|HO|8030836502|24/11/2016|IN10|THB|262781.3|09/12/2016||60|CHECK|1|ITEM|38500||||||||||||||||||||09/12/2016|||||||991016018266|3|20160027558|6|||R|08/12/2016
DTN|FXTH_3W_20161209_0300|FXTH|STANDARD|239848|DTAC-N|09431|22/11/2016|DTACN-IN|THB|3852000|09/12/2016||60|CHECK|1|ITEM|3600000||||||||||||||||||||09/12/2016|||||||8016003609|1|8016007856|1|||R|08/12/2016
DTAC|FXTH_3W_20161209_0300|FXTH|STANDARD|173054|HO|1600323693|30/11/2016|IN10|THB|3851291.66|09/12/2016||30|CHECK|1|ITEM|3599338||||||||||||||||||||09/12/2016|||||||991016020393|1|20160002683|1|||R|08/12/2016
DTAC|FXTH_3W_20161209_0300|FXTH|STANDARD|173054|HO|1600321301|24/11/2016|IN10|THB|12593151|09/12/2016||30|CHECK|1|ITEM|6930810||||||||||||||||||||09/12/2016|||||||991016020987|1|20160002605|1|||R|08/12/2016
DTAC|FXTH_3W_20161209_0300|FXTH|STANDARD|173054|HO|1600321301|24/11/2016|IN10|THB|12593151|09/12/2016||30|CHECK|1|ITEM|1569240||||||||||||||||||||09/12/2016|||||||991016020987|2|20160002605|2|||R|08/12/2016
DTAC|FXTH_3W_20161209_0300|FXTH|STANDARD|173054|HO|1600321301|24/11/2016|IN10|THB|12593151|09/12/2016||30|CHECK|1|ITEM|3269250||||||||||||||||||||09/12/2016|||||||991016020987|3|20160002605|3|||R|08/12/2016
DTN|FXTH_3W_20161209_0300|FXTH|STANDARD|185284|DTAC-N|TL1609826|09/09/2016|DTACN-IN|USD|191100.48|09/12/2016||60|CHECK|1|ITEM|77354.72||||||||||||||||||||09/12/2016|||||||8015009293|1|8016006301|1|||R|08/12/2016
DTN|FXTH_3W_20161209_0300|FXTH|STANDARD|185284|DTAC-N|TL1609826|09/09/2016|DTACN-IN|USD|191100.48|09/12/2016||60|CHECK|1|ITEM|113745.76||||||||||||||||||||09/12/2016|||||||8015009293|2|8016006301|2|||R|08/12/2016
DTN|FXTH_3W_20161209_0300|FXTH|STANDARD|185284|DTAC-N|TL1612116|04/11/2016|DTACN-IN|USD|367450.22|09/12/2016||60|CHECK|1|ITEM|367450.22||||||||||||||||||||09/12/2016|||||||8015009291|2|8016007300|1|||R|08/12/2016
DTAC|FXTH_3W_20161209_0300|FXTH|STANDARD|193908|HO|100669945|25/11/2016|IN10|THB|83460|09/12/2016||30|CHECK|1|ITEM|78000||||||||||||||||||||09/12/2016|||||||991016021203|1|20160002676|1|||R|08/12/2016
DTAC|FXTH_3W_20161209_0300|FXTH|STANDARD|193908|HO|100668378|23/11/2016|IN10|THB|10857825|09/12/2016||30|CHECK|1|ITEM|10147500||||||||||||||||||||09/12/2016|||||||991016017806|1|20160002640|1|||R|08/12/2016
DTAC|FXTH_3W_20161209_0300|FXTH|STANDARD|227099|HO|LD-INV-127-2016|24/11/2016|IN10|THB|873787.68|09/12/2016||60|CHECK|1|ITEM|668624||||||||||||||||||||09/12/2016|||||||991016022204|2|20160027587|1|||R|08/12/2016
DTAC|FXTH_3W_20161209_0300|FXTH|STANDARD|227099|HO|LD-INV-127-2016|24/11/2016|IN10|THB|873787.68|09/12/2016||60|CHECK|1|ITEM|96000||||||||||||||||||||09/12/2016|||||||991016022204|1|20160027587|2|||R|08/12/2016
DTAC|FXTH_3W_20161209_0300|FXTH|STANDARD|227099|HO|LD-INV-127-2016|24/11/2016|IN10|THB|873787.68|09/12/2016||60|CHECK|1|ITEM|52000||||||||||||||||||||09/12/2016|||||||991016022204|3|20160027587|3|||R|08/12/2016
DTN|FXTH_3W_20161209_0300|FXTH|STANDARD|185284|DTAC-N|TL1611859|31/10/2016|DTACN-IN|USD|1820|09/12/2016||60|CHECK|1|ITEM|1820||||||||||||||||||||09/12/2016|||||||8015007887|4|8016007595|1|||R|08/12/2016
DTN|FXTH_3W_20161209_0300|FXTH|STANDARD|185284|DTAC-N|TL1612115|04/11/2016|DTACN-IN|USD|9994.4|09/12/2016||60|CHECK|1|ITEM|9994.4||||||||||||||||||||09/12/2016|||||||8015009268|1|8016007298|1|||R|08/12/2016
DTAC|FXTH_3W_20161209_0300|FXTH|STANDARD|202084|HO|59/00319|07/12/2016|IN10|THB|44512|09/12/2016||60|CHECK|1|ITEM|41600||||||||||||||||||||09/12/2016|||||||991016021441|1|20160027567|1|||R|08/12/2016
DTN|FXTH_3W_20161209_0300|FXTH|STANDARD|185284|DTAC-N|TL1612435|16/11/2016|DTACN-IN|USD|7832|09/12/2016||60|CHECK|1|ITEM|7832.8||||||||||||||||||||09/12/2016|||||||8014002142|6|8016007838|1|||R|08/12/2016
DTN|FXTH_3W_20161209_0300|FXTH|STANDARD|239848|DTAC-N|09426|02/12/2016|DTACN-IN|THB|288900|09/12/2016||60|CHECK|1|ITEM|270000||||||||||||||||||||09/12/2016|||||||8016007935|1|8016007172|1|||R|08/12/2016
DTN|FXTH_3W_20161209_0300|FXTH|STANDARD|185284|DTAC-N|TL1612431|16/11/2016|DTACN-IN|USD|13411.59|09/12/2016||60|CHECK|1|ITEM|13411.59||||||||||||||||||||09/12/2016|||||||8014002142|4|8016007843|1|||R|08/12/2016
DTN|FXTH_3W_20161209_0300|FXTH|STANDARD|185284|DTAC-N|TL1612481|17/11/2016|DTACN-IN|USD|42912|09/12/2016||60|CHECK|1|ITEM|42912||||||||||||||||||||09/12/2016|||||||8015009216|1|8016007845|1|||R|08/12/2016
DTAC|FXTH_3W_20161209_0300|FXTH|STANDARD|202931|HO|IV4511610039|01/12/2016|IN10|THB|19443647.95|09/12/2016||60|CHECK|1|ITEM|2731102||||||||||||||||||||09/12/2016|||||||991016022891|1|20160002690|1|||R|08/12/2016
DTAC|FXTH_3W_20161209_0300|FXTH|STANDARD|202931|HO|IV4511610039|01/12/2016|IN10|THB|19443647.95|09/12/2016||60|CHECK|1|ITEM|1092440.8||||||||||||||||||||09/12/2016|||||||991016022891|2|20160002690|2|||R|08/12/2016
DTAC|FXTH_3W_20161209_0300|FXTH|STANDARD|202931|HO|IV4511610039|01/12/2016|IN10|THB|19443647.95|09/12/2016||60|CHECK|1|ITEM|546220.4||||||||||||||||||||09/12/2016|||||||991016022891|3|20160002690|3|||R|08/12/2016
DTAC|FXTH_3W_20161209_0300|FXTH|STANDARD|202931|HO|IV4511610039|01/12/2016|IN10|THB|19443647.95|09/12/2016||60|CHECK|1|ITEM|546220.4||||||||||||||||||||09/12/2016|||||||991016022891|4|20160002690|4|||R|08/12/2016
DTAC|FXTH_3W_20161209_0300|FXTH|STANDARD|202931|HO|IV4511610039|01/12/2016|IN10|THB|19443647.95|09/12/2016||60|CHECK|1|ITEM|7069680||||||||||||||||||||09/12/2016|||||||991016022891|5|20160002690|5|||R|08/12/2016
DTAC|FXTH_3W_20161209_0300|FXTH|STANDARD|202931|HO|IV4511610039|01/12/2016|IN10|THB|19443647.95|09/12/2016||60|CHECK|1|ITEM|6185970||||||||||||||||||||09/12/2016|||||||991016022891|6|20160002690|6|||R|08/12/2016
DTAC|FXTH_3W_20161209_0300|FXTH|STANDARD|235905|HO|17/0824|06/12/2016|IN10|THB|35823.6|09/12/2016||60|CHECK|1|ITEM|7560||||||||||||||||||||09/12/2016|||||||991016023749|2|20160027588|1|||R|08/12/2016
DTAC|FXTH_3W_20161209_0300|FXTH|STANDARD|235905|HO|17/0824|06/12/2016|IN10|THB|35823.6|09/12/2016||60|CHECK|1|ITEM|25920||||||||||||||||||||09/12/2016|||||||991016023749|1|20160027588|2|||R|08/12/2016
DTN|FXTH_3W_20161209_0300|FXTH|STANDARD|185284|DTAC-N|TL1612440|16/11/2016|DTACN-IN|USD|6199.42|09/12/2016||60|CHECK|1|ITEM|6199.42||||||||||||||||||||09/12/2016|||||||8014002142|12|8016007834|1|||R|08/12/2016
DTN|FXTH_3W_20161209_0300|FXTH|STANDARD|185284|DTAC-N|TL1612438|16/11/2016|DTACN-IN|USD|7848.88|09/12/2016||60|CHECK|1|ITEM|7848.88||||||||||||||||||||09/12/2016|||||||8014002142|10|8016007835|1|||R|08/12/2016
DTAC|FXTH_3W_20161209_0300|FXTH|STANDARD|173054|HO|1600322932|30/11/2016|IN10|THB|4059764.04|09/12/2016||30|CHECK|1|ITEM|3794172||||||||||||||||||||09/12/2016|||||||991016020394|2|20160002680|1|||R|08/12/2016
DTAC|FXTH_3W_20161209_0300|FXTH|STANDARD|181923|HO|59/11/D004|30/11/2016|IN10|THB|280573.22|09/12/2016||30|CHECK|1|ITEM|262217.96||||||||||||||||||||09/12/2016|||||||991016022869|3|20160027290|1|||R|08/12/2016
DTAC|FXTH_3W_20161209_0300|FXTH|STANDARD|100108|HO|9788000828|23/11/2016|IN10|THB|5907836.09|09/12/2016||60|CHECK|1|ITEM|5907836.09||||||||||||||||||||09/12/2016|||||||991016012328|2|20160019958|1|||R|08/12/2016
DTAC|FXTH_3W_20161209_0300|FXTH|STANDARD|100108|HO|9065015391|23/11/2016|IN10|THB|1160477.72|09/12/2016||60|CHECK|1|ITEM|1084558.62||||||||||||||||||||09/12/2016|||||||991016012328|4|20160027334|1|||R|08/12/2016
DTAC|FXTH_3W_20161209_0300|FXTH|STANDARD|173054|HO|1600321301|29/11/2016|IN10|THB|12593151|09/12/2016||30|CHECK|1|ITEM|6930810||||||||||||||||||||09/12/2016|||||||991016020987|1|20160002605|1|||R|08/12/2016
DTAC|FXTH_3W_20161209_0300|FXTH|STANDARD|173054|HO|1600321301|29/11/2016|IN10|THB|12593151|09/12/2016||30|CHECK|1|ITEM|1569240||||||||||||||||||||09/12/2016|||||||991016020987|2|20160002605|2|||R|08/12/2016
DTAC|FXTH_3W_20161209_0300|FXTH|STANDARD|173054|HO|1600321301|29/11/2016|IN10|THB|12593151|09/12/2016||30|CHECK|1|ITEM|3269250||||||||||||||||||||09/12/2016|||||||991016020987|3|20160002605|3|||R|08/12/2016
DTAC|FXTH_3W_20161209_0300|FXTH|STANDARD|173054|HO|1600322972|30/11/2016|IN10|THB|4181731.2|09/12/2016||30|CHECK|1|ITEM|3908160||||||||||||||||||||09/12/2016|||||||991016022715|4|20160002681|1|||R|08/12/2016
DTN|FXTH_3W_20161209_0300|FXTH|STANDARD|100095|DTAC-N|BIV59100000295|21/10/2016|DTACN-IN|THB|12305|09/12/2016||60|CHECK|1|ITEM|9000||||||||||||||||||||09/12/2016|||||||8016003962|1|8016001117|1|||R|08/12/2016
DTN|FXTH_3W_20161209_0300|FXTH|STANDARD|100095|DTAC-N|BIV59100000295|21/10/2016|DTACN-IN|THB|12305|09/12/2016||60|CHECK|1|ITEM|2500||||||||||||||||||||09/12/2016|||||||8016003962|2|8016001117|2|||R|08/12/2016
DTN|FXTH_3W_20161209_0300|FXTH|STANDARD|100095|DTAC-N|BIV59100000296|21/10/2016|DTACN-IN|THB|2675|09/12/2016||60|CHECK|1|ITEM|2500||||||||||||||||||||09/12/2016|||||||8016003962|2|8016001118|1|||R|08/12/2016
DTN|FXTH_3W_20161209_0300|FXTH|STANDARD|100095|DTAC-N|BIV59100000297|21/10/2016|DTACN-IN|THB|12305|09/12/2016||60|CHECK|1|ITEM|9000||||||||||||||||||||09/12/2016|||||||8016003962|1|8016001119|1|||R|08/12/2016
DTN|FXTH_3W_20161209_0300|FXTH|STANDARD|100095|DTAC-N|BIV59100000297|21/10/2016|DTACN-IN|THB|12305|09/12/2016||60|CHECK|1|ITEM|2500||||||||||||||||||||09/12/2016|||||||8016003962|2|8016001119|2|||R|08/12/2016
DTN|FXTH_3W_20161209_0300|FXTH|STANDARD|185284|DTAC-N|TL1612436|16/11/2016|DTACN-IN|USD|184989.13|09/12/2016||60|CHECK|1|ITEM|184989.13||||||||||||||||||||09/12/2016|||||||8014002142|7|8016007837|1|||R|08/12/2016
DTN|FXTH_3W_20161209_0300|FXTH|STANDARD|185284|DTAC-N|TL1612433|16/11/2016|DTACN-IN|USD|0|09/12/2016||60|CHECK|TL1612433|ITEM|1899.3||||||||||||||||||||09/12/2016|||||||8014002142|15|8016007840|1|||R|08/12/2016
DTAC|FXTH_3W_20161209_0300|FXTH|STANDARD|182447|HO|IV1612001|08/12/2016|IN10|THB|776908.81|09/12/2016||30|CHECK|1|ITEM|450083||||||||||||||||||||09/12/2016|||||||991016023953|1|20160027575|1|||R|08/12/2016
DTAC|FXTH_3W_20161209_0300|FXTH|STANDARD|182447|HO|IV1612001|08/12/2016|IN10|THB|776908.81|09/12/2016||30|CHECK|1|ITEM|276000||||||||||||||||||||09/12/2016|||||||991016023953|2|20160027579|1|||R|08/12/2016