2010010962|DTAC|991010009755|20/10/2016 10:43|00:00:00.179|1|SUCCESS||
2010010962|Dact|991010009755|20/10/2016 10:43|00:00:00.001|0|FAILED|INVHUB001-006|Not found company code Dact
2010010962X|DTAC|991010009755|20/10/2016 10:43|00:00:00.000|0|FAILED|INVHUB001-001|Not found GRN
2015022210|DTAC|991015019750|20/10/2016 10:45|00:00:00.015|1|SUCCESS||
