B1-49062|2016000106|28739|05-04-2016|Data Service|0.00|0.00|0.00
B1-49062|2016000106|28739|05-04-2016|Other Service|18292.58|1280.48|19573.06
B1-49066|2016000109|16106|05-04-2016|Data Service|0.00|0.00|0.00
B1-49066|2016000109|16106|05-04-2016|Other Service|41940.32|2935.82|44876.14
B1-49056|2016000105|25308|05-04-2016|SMS Service|16.00|1.12|17.12
B1-49056|2016000105|25308|05-04-2016|Data Service|0.00|0.00|0.00
B1-49056|2016000105|25308|05-04-2016|Other Service|18245.00|1277.15|19522.15
B1-49068|2016000107|28742|05-04-2016|Data Service|34281.14|2399.68|36680.82
B1-49068|2016000107|28742|05-04-2016|Other Service|3780.00|264.60|4044.60
B1-49064|2016000108|29230|05-04-2016|Data Service|0.00|0.00|0.00
B1-49064|2016000108|29230|05-04-2016|Other Service|10661.32|746.29|11407.61
