B1-51239|2016000141|29230|05-05-2016|Data Service|906.09|63.43|969.52
B1-51239|2016000141|29230|05-05-2016|Other Service|9814.80|687.04|10501.84
B1-51232|2016000138|25308|05-05-2016|Data Service|0.00|0.00|0.00
B1-51232|2016000138|25308|05-05-2016|Other Service|18245.00|1277.15|19522.15
B1-51243|2016000140|28742|05-05-2016|Data Service|25465.77|1782.60|27248.37
B1-51243|2016000140|28742|05-05-2016|Other Service|3780.00|264.60|4044.60
B1-51237|2016000139|28739|05-05-2016|Data Service|0.00|0.00|0.00
B1-51237|2016000139|28739|05-05-2016|Other Service|20275.00|1419.25|21694.25
