B1-41272|2015000382|25308|05-12-2015|SMS Service|8.00|0.56|8.56
B1-41272|2015000382|25308|05-12-2015|Data Service|0.00|0.00|0.00
B1-41272|2015000382|25308|05-12-2015|Other Service|18245.00|1277.15|19522.15
B1-41278|2015000383|28739|05-12-2015|Data Service|328.56|23.00|351.56
B1-41278|2015000383|28739|05-12-2015|Other Service|11365.33|795.57|12160.90
B1-41278|2015000383|28739|05-12-2015|SMS Service|62534.00|4377.38|66911.38
B1-41274|2015000384|28742|05-12-2015|Data Service|7601.60|532.11|8133.71
B1-41274|2015000384|28742|05-12-2015|Other Service|3780.00|264.60|4044.60
B1-41280|2015000385|29230|05-12-2015|Other Service|20061.00|1404.27|21465.27
B1-41280|2015000385|29230|05-12-2015|Data Service|0.00|0.00|0.00
B1-41282|2015000386|16106|05-12-2015|Data Service|57.31|4.01|61.32
B1-41282|2015000386|16106|05-12-2015|Other Service|186.67|13.07|199.74
